{
  "input": {
    "collapse0125555": "Import",
    "collapse0212143": "Generate DOE",
    "collapse0258017": "Define Optimization Problem",
    "collapse0382388": [
      "Direct Optimization",
      "Direct Optimization"
    ],
    "collapse0386114": "Configure simulator",
    "collapse0459066": null,
    "collapse0869690": [
      "Define Simulator for Direct Optimization",
      "Define Optimization Problem",
      "Define Optimization Problem"
    ],
    "dimension": [
      1611,
      922
    ],
    "drop169018874": 0,
    "drop463649094": 0,
    "drop695822375": 0,
    "nav-clickedtab": "nav-tabprepareDOE",
    "nav-introduction-activeCollapseIntro": "",
    "nav-introduction-castest1_1": 0,
    "nav-introduction-castest1_2": 0,
    "nav-introduction-castest2": 0,
    "nav-introduction-castest3": 0,
    "nav-introduction-castest4": 0,
    "nav-introduction-castest5": 0,
    "nav-introduction-castest6": 0,
    "nav-introduction-collapseIntro": null,
    "nav-introduction-desactiveCollapseIntro": "",
    "nav-introduction-git": 0,
    "nav-introduction-tuto1": 0,
    "nav-introduction-tuto2.1": 0,
    "nav-introduction-tuto2.2": 0,
    "nav-introduction-tuto3": 0,
    "nav-introduction-tuto4": 0,
    "nav-introduction-tuto5": 0,
    "nav-introduction-tuto6": 0,
    "nav-introduction-tuto7": 0,
    "nav-introduction-tuto8": 0,
    "nav-introduction-tuto9": 0,
    "nav-introduction-tuto_intro": 0,
    "nav-introduction-workflowcomplete": 0,
    "nav-introduction-workflowexploreData": 0,
    "nav-introduction-workflowprepareDOE": 0,
    "nav-introduction-workflowsurrogate": 0,
    "nav-menuExplore-UQModel-closePanelUQModel": "",
    "nav-menuExplore-UQModel-collapseUQModel": "Step 1: Uncertainty Definition",
    "nav-menuExplore-UQModel-openPanelUQModel": "",
    "nav-menuExplore-UQModel-sensitivityAnalysis-closeModalHighOrder": 0,
    "nav-menuExplore-UQModel-sensitivityAnalysis-goGSAanyway": 0,
    "nav-menuExplore-UQModel-sensitivityAnalysis-modalDependence": false,
    "nav-menuExplore-UQModel-sensitivityAnalysis-modalGSA": false,
    "nav-menuExplore-UQModel-sensitivityAnalysis-modalHighOrder": false,
    "nav-menuExplore-UQModel-sensitivityAnalysis-modalSelectLevelsShapley": false,
    "nav-menuExplore-UQModel-sensitivityAnalysis-modalSelectLevelsSobol": false,
    "nav-menuExplore-UQModel-sensitivityAnalysis-modalShapley": false,
    "nav-menuExplore-UQModel-sensitivityAnalysis-saveModalHighOrder": 0,
    "nav-menuExplore-UQModel-sensitivityAnalysis-tabs": "nav-menuExplore-UQModel-sensitivityAnalysis-first-sobol",
    "nav-menuExplore-UQModel-uncertaintyDefinition-UQparams-allEstimated": 0,
    "nav-menuExplore-UQModel-uncertaintyDefinition-UQparams-change": 0,
    "nav-menuExplore-UQModel-uncertaintyDefinition-UQparams-decimal": ".",
    "nav-menuExplore-UQModel-uncertaintyDefinition-UQparams-file": null,
    "nav-menuExplore-UQModel-uncertaintyDefinition-UQparams-modal": false,
    "nav-menuExplore-UQModel-uncertaintyDefinition-UQparams-reset": 0,
    "nav-menuExplore-UQModel-uncertaintyDefinition-UQparams-separator": ",",
    "nav-menuExplore-UQModel-uncertaintyDefinition-UQparams-unifReset": 0,
    "nav-menuExplore-UQModel-uncertaintyDefinition-listCopulas-change": 0,
    "nav-menuExplore-UQModel-uncertaintyDefinition-listCopulas-modal": false,
    "nav-menuExplore-UQModel-uncertaintyDefinition-tabs": "nav-menuExplore-UQModel-uncertaintyDefinition-definition",
    "nav-menuExplore-UQModel-uncertaintyPropagation-chooseVisu": "Probability Distribution Function",
    "nav-menuExplore-UQModel-uncertaintyPropagation-dobootproba": true,
    "nav-menuExplore-UQModel-uncertaintyPropagation-generate": 0,
    "nav-menuExplore-UQModel-uncertaintyPropagation-go": 0,
    "nav-menuExplore-UQModel-uncertaintyPropagation-goUQproba": 0,
    "nav-menuExplore-UQModel-uncertaintyPropagation-launch.simu": 0,
    "nav-menuExplore-UQModel-uncertaintyPropagation-modalLaunchSimu": false,
    "nav-menuExplore-UQModel-uncertaintyPropagation-naddproba": 1,
    "nav-menuExplore-UQModel-uncertaintyPropagation-nsample": 10000,
    "nav-menuExplore-UQModel-uncertaintyPropagation-nsampleUQproba": 10000,
    "nav-menuExplore-UQModel-uncertaintyPropagation-simu.automatic": 0,
    "nav-menuExplore-UQModel-uncertaintyPropagation-simu.manual": 0,
    "nav-menuExplore-UQModel-uncertaintyPropagation-tabs-propagation": "nav-menuExplore-UQModel-uncertaintyPropagation-global",
    "nav-menuExplore-exploreModel-closePanelExploreModel": "",
    "nav-menuExplore-exploreModel-collapseExploreModel": "Qualitative Exploration",
    "nav-menuExplore-exploreModel-modelManualExploration-choice": "1",
    "nav-menuExplore-exploreModel-modelManualExploration-close": 0,
    "nav-menuExplore-exploreModel-modelManualExploration-compute": 0,
    "nav-menuExplore-exploreModel-modelManualExploration-decimal": ".",
    "nav-menuExplore-exploreModel-modelManualExploration-file": null,
    "nav-menuExplore-exploreModel-modelManualExploration-modal.file": false,
    "nav-menuExplore-exploreModel-modelManualExploration-modalmanual": false,
    "nav-menuExplore-exploreModel-modelManualExploration-proceed": 0,
    "nav-menuExplore-exploreModel-modelManualExploration-save": 0,
    "nav-menuExplore-exploreModel-modelManualExploration-separator": ",",
    "nav-menuExplore-exploreModel-modelQualitativeExploration-Loadsampling": 0,
    "nav-menuExplore-exploreModel-modelQualitativeExploration-SMCsettings": 0,
    "nav-menuExplore-exploreModel-modelQualitativeExploration-arrange.method": "fromRight",
    "nav-menuExplore-exploreModel-modelQualitativeExploration-boundclose": 0,
    "nav-menuExplore-exploreModel-modelQualitativeExploration-bounddecimal": ".",
    "nav-menuExplore-exploreModel-modelQualitativeExploration-bounds-change": 0,
    "nav-menuExplore-exploreModel-modelQualitativeExploration-bounds-decimal": ".",
    "nav-menuExplore-exploreModel-modelQualitativeExploration-bounds-file": null,
    "nav-menuExplore-exploreModel-modelQualitativeExploration-bounds-modal": false,
    "nav-menuExplore-exploreModel-modelQualitativeExploration-bounds-reset": 0,
    "nav-menuExplore-exploreModel-modelQualitativeExploration-bounds-separator": ",",
    "nav-menuExplore-exploreModel-modelQualitativeExploration-boundsave": 0,
    "nav-menuExplore-exploreModel-modelQualitativeExploration-boundseparator": ",",
    "nav-menuExplore-exploreModel-modelQualitativeExploration-choose.palette.cat": "Category10",
    "nav-menuExplore-exploreModel-modelQualitativeExploration-choose.palette.num": "Viridis",
    "nav-menuExplore-exploreModel-modelQualitativeExploration-corrPlotCs": "RdBu",
    "nav-menuExplore-exploreModel-modelQualitativeExploration-corrPlotType": "Text",
    "nav-menuExplore-exploreModel-modelQualitativeExploration-decimal": ".",
    "nav-menuExplore-exploreModel-modelQualitativeExploration-display": false,
    "nav-menuExplore-exploreModel-modelQualitativeExploration-distribType": "1",
    "nav-menuExplore-exploreModel-modelQualitativeExploration-downloadPcpButton": 0,
    "nav-menuExplore-exploreModel-modelQualitativeExploration-downloadSpmButton": 0,
    "nav-menuExplore-exploreModel-modelQualitativeExploration-fileBound": null,
    "nav-menuExplore-exploreModel-modelQualitativeExploration-filePCP": null,
    "nav-menuExplore-exploreModel-modelQualitativeExploration-initPCP": 0,
    "nav-menuExplore-exploreModel-modelQualitativeExploration-keepbounds": false,
    "nav-menuExplore-exploreModel-modelQualitativeExploration-launchSMC": 0,
    "nav-menuExplore-exploreModel-modelQualitativeExploration-layout": "Vertical",
    "nav-menuExplore-exploreModel-modelQualitativeExploration-loadPCPfile": 0,
    "nav-menuExplore-exploreModel-modelQualitativeExploration-modalBoundfile": false,
    "nav-menuExplore-exploreModel-modelQualitativeExploration-modalPCPfile": false,
    "nav-menuExplore-exploreModel-modelQualitativeExploration-modalSMC": false,
    "nav-menuExplore-exploreModel-modelQualitativeExploration-nSMCiter": 25,
    "nav-menuExplore-exploreModel-modelQualitativeExploration-nSMCsample": 1000,
    "nav-menuExplore-exploreModel-modelQualitativeExploration-separator": ",",
    "nav-menuExplore-exploreModel-modelQuantitativeExploration-tabs": "<h4>Regression plot - One by One<\/h4>",
    "nav-menuExplore-exploreModel-openPanelExploreModel": "",
    "nav-menuImport-defineCalibration-closeCollapseCalibration": "",
    "nav-menuImport-defineCalibration-collapseCalibration": "Import Experimental Data",
    "nav-menuImport-defineCalibration-defineObjective-changeWeights": 0,
    "nav-menuImport-defineCalibration-defineObjective-close": 0,
    "nav-menuImport-defineCalibration-defineObjective-modalWeights": false,
    "nav-menuImport-defineCalibration-defineObjective-save": 0,
    "nav-menuImport-defineCalibration-importXPdata-file": null,
    "nav-menuImport-defineCalibration-openCollapseCalibration": "",
    "nav-menuImport-exploreDOE-activePanel": "",
    "nav-menuImport-exploreDOE-collapseExplore": "Qualitative Exploration",
    "nav-menuImport-exploreDOE-desactivePanel": "",
    "nav-menuImport-exploreDOE-modalViewDOE": false,
    "nav-menuImport-exploreDOE-qualitativeExploration-funcPlotTab-showErrBars": false,
    "nav-menuImport-exploreDOE-qualitativeExploration-funcPlotTab-showExpData": true,
    "nav-menuImport-exploreDOE-qualitativeExploration-pcpTab-arrange.method": "fromRight",
    "nav-menuImport-exploreDOE-qualitativeExploration-pcpTab-buildclusters": 0,
    "nav-menuImport-exploreDOE-qualitativeExploration-pcpTab-centerref": false,
    "nav-menuImport-exploreDOE-qualitativeExploration-pcpTab-choose.palette.cat": "Category10",
    "nav-menuImport-exploreDOE-qualitativeExploration-pcpTab-choose.palette.num": "Viridis",
    "nav-menuImport-exploreDOE-qualitativeExploration-pcpTab-cluster": 0,
    "nav-menuImport-exploreDOE-qualitativeExploration-pcpTab-corrPlotCs": "RdBu",
    "nav-menuImport-exploreDOE-qualitativeExploration-pcpTab-corrPlotType": "Text",
    "nav-menuImport-exploreDOE-qualitativeExploration-pcpTab-distribType": "1",
    "nav-menuImport-exploreDOE-qualitativeExploration-pcpTab-downloadPcpButton": 0,
    "nav-menuImport-exploreDOE-qualitativeExploration-pcpTab-downloadSpmButton": 0,
    "nav-menuImport-exploreDOE-qualitativeExploration-pcpTab-keepbounds": false,
    "nav-menuImport-exploreDOE-qualitativeExploration-pcpTab-layout": "Vertical",
    "nav-menuImport-exploreDOE-qualitativeExploration-pcpTab-modalcluster": false,
    "nav-menuImport-exploreDOE-qualitativeExploration-pcpTab-nbclust": 2,
    "nav-menuImport-exploreDOE-qualitativeExploration-pcpTab-removeclusters": 0,
    "nav-menuImport-exploreDOE-qualitativeExploration-pcpTab-scaleclust": true,
    "nav-menuImport-exploreDOE-qualitativeExploration-regression-plot-tab-showhist": false,
    "nav-menuImport-exploreDOE-qualitativeExploration-tabs": "nav-menuImport-exploreDOE-qualitativeExploration-regression-plot",
    "nav-menuImport-exploreDOE-quantitativeExploration-clickedtab": "nav-menuImport-exploreDOE-quantitativeExploration-COR",
    "nav-menuImport-importDOE-confSimulator-config.simulator": 0,
    "nav-menuImport-importDOE-confSimulator-disc-close": 0,
    "nav-menuImport-importDOE-confSimulator-disc-decimal": ".",
    "nav-menuImport-importDOE-confSimulator-disc-file": null,
    "nav-menuImport-importDOE-confSimulator-disc-modal": false,
    "nav-menuImport-importDOE-confSimulator-disc-save": 0,
    "nav-menuImport-importDOE-confSimulator-disc-separator": ",",
    "nav-menuImport-importDOE-confSimulator-launchSimu": 0,
    "nav-menuImport-importDOE-confSimulator-modalConfigSimu": false,
    "nav-menuImport-importDOE-confSimulator-outtype-change": 0,
    "nav-menuImport-importDOE-confSimulator-outtype-file": null,
    "nav-menuImport-importDOE-confSimulator-outtype-modal": false,
    "nav-menuImport-importDOE-confSimulator-outtype-reset": 0,
    "nav-menuImport-importDOE-confSimulator-outtype-separator": ",",
    "nav-menuImport-importDOE-confSimulator-stopSimu": 0,
    "nav-menuImport-importDOE-directOptim-config.simulator": 0,
    "nav-menuImport-importDOE-directOptim-constrainedDefine-bounds-change": 0,
    "nav-menuImport-importDOE-directOptim-constrainedDefine-bounds-decimal": ".",
    "nav-menuImport-importDOE-directOptim-constrainedDefine-bounds-file": null,
    "nav-menuImport-importDOE-directOptim-constrainedDefine-bounds-modal": false,
    "nav-menuImport-importDOE-directOptim-constrainedDefine-bounds-reset": 0,
    "nav-menuImport-importDOE-directOptim-constrainedDefine-bounds-separator": ",",
    "nav-menuImport-importDOE-directOptim-constrainedDefine-closeoptimdef": 0,
    "nav-menuImport-importDOE-directOptim-constrainedDefine-file": null,
    "nav-menuImport-importDOE-directOptim-constrainedDefine-modalDefineOptim": false,
    "nav-menuImport-importDOE-directOptim-constrainedDefine-optimdef": 0,
    "nav-menuImport-importDOE-directOptim-constrainedDefine-resetConstrOptim": 0,
    "nav-menuImport-importDOE-directOptim-constrainedDefine-saveoptimdef": 0,
    "nav-menuImport-importDOE-directOptim-constrainedDefine-x0change-change": 0,
    "nav-menuImport-importDOE-directOptim-constrainedDefine-x0change-file": null,
    "nav-menuImport-importDOE-directOptim-constrainedDefine-x0change-modal": false,
    "nav-menuImport-importDOE-directOptim-defineCalibration-closeCollapseCalibration": "",
    "nav-menuImport-importDOE-directOptim-defineCalibration-collapseCalibration": "Import Experimental Data",
    "nav-menuImport-importDOE-directOptim-defineCalibration-defineObjective-changeWeights": 0,
    "nav-menuImport-importDOE-directOptim-defineCalibration-defineObjective-close": 0,
    "nav-menuImport-importDOE-directOptim-defineCalibration-defineObjective-modalWeights": false,
    "nav-menuImport-importDOE-directOptim-defineCalibration-defineObjective-save": 0,
    "nav-menuImport-importDOE-directOptim-defineCalibration-importXPdata-file": null,
    "nav-menuImport-importDOE-directOptim-defineCalibration-openCollapseCalibration": "",
    "nav-menuImport-importDOE-directOptim-funcPlotTab-showErrBars": false,
    "nav-menuImport-importDOE-directOptim-funcPlotTab-showExpData": true,
    "nav-menuImport-importDOE-directOptim-launchInitValue": 0,
    "nav-menuImport-importDOE-directOptim-launchOptim": 0,
    "nav-menuImport-importDOE-directOptim-modalConfigSimu": false,
    "nav-menuImport-importDOE-directOptim-modalPreviousOptim": false,
    "nav-menuImport-importDOE-directOptim-optimizer": "Optimization problem undefined",
    "nav-menuImport-importDOE-directOptim-previous.optim": 0,
    "nav-menuImport-importDOE-directOptim-stopOptim": 0,
    "nav-menuImport-importDOE-directOptim-tabs": "nav-menuImport-importDOE-directOptim-resultsPlot",
    "nav-menuImport-importDOE-directOptim-wfType": "Run by Lagun",
    "nav-menuMore-settings-activeCollapseSettings": "",
    "nav-menuMore-settings-collapseSettingsDOE": null,
    "nav-menuMore-settings-collapseSettingsExploration": null,
    "nav-menuMore-settings-collapseSettingsGSA": null,
    "nav-menuMore-settings-collapseSettingsOptimization": null,
    "nav-menuMore-settings-collapseSettingsRobust": null,
    "nav-menuMore-settings-collapseSettingsSurrogate": null,
    "nav-menuMore-settings-collapseSettingsUQ": null,
    "nav-menuMore-settings-desactiveCollapseSettings": "",
    "nav-menuMore-settings-panelDownload": null,
    "nav-menuMore-settings-settingsDOE-nrepML": 50,
    "nav-menuMore-settings-settingsDOE-ntestMC": 100,
    "nav-menuMore-settings-settingsExploration-ftemp": 0.5,
    "nav-menuMore-settings-settingsExploration-ncontours": 20,
    "nav-menuMore-settings-settingsExploration-nobsparcoords": 5000,
    "nav-menuMore-settings-settingsExploration-nsignif": 3,
    "nav-menuMore-settings-settingsExploration-nsteps": 20,
    "nav-menuMore-settings-settingsGSA-nrepGSA": 50,
    "nav-menuMore-settings-settingsGSA-nsample": 1000,
    "nav-menuMore-settings-settingsGSA-nsampleShapley": 5000,
    "nav-menuMore-settings-settingsOptimization-COalgo": "ISRES",
    "nav-menuMore-settings-settingsOptimization-nmultistart": 50,
    "nav-menuMore-settings-settingsRobust-ROalgo": "ISRES",
    "nav-menuMore-settings-settingsRobust-nRmultistart": 50,
    "nav-menuMore-settings-settingsSurrogate-KMalgo": "Maximum Likelihood",
    "nav-menuMore-settings-settingsSurrogate-nfaure": 10000,
    "nav-menuMore-settings-settingsSurrogate-tlength": 5,
    "nav-menuMore-settings-settingsUQ-nrepproba": 50,
    "nav-menuOptimize-closeCollapseOptim": "",
    "nav-menuOptimize-collapseOptim": null,
    "nav-menuOptimize-constrained-closeCollapseConstrainedOptim": "",
    "nav-menuOptimize-constrained-collapseConstrainedOptim": null,
    "nav-menuOptimize-constrained-constrainedDefine-bounds-change": 0,
    "nav-menuOptimize-constrained-constrainedDefine-bounds-decimal": ".",
    "nav-menuOptimize-constrained-constrainedDefine-bounds-file": null,
    "nav-menuOptimize-constrained-constrainedDefine-bounds-modal": false,
    "nav-menuOptimize-constrained-constrainedDefine-bounds-reset": 0,
    "nav-menuOptimize-constrained-constrainedDefine-bounds-separator": ",",
    "nav-menuOptimize-constrained-constrainedDefine-closeoptimdef": 0,
    "nav-menuOptimize-constrained-constrainedDefine-file": null,
    "nav-menuOptimize-constrained-constrainedDefine-modalDefineOptim": false,
    "nav-menuOptimize-constrained-constrainedDefine-optimdef": 0,
    "nav-menuOptimize-constrained-constrainedDefine-resetConstrOptim": 0,
    "nav-menuOptimize-constrained-constrainedDefine-saveoptimdef": 0,
    "nav-menuOptimize-constrained-constrainedDefine-x0change-change": 0,
    "nav-menuOptimize-constrained-constrainedDefine-x0change-file": null,
    "nav-menuOptimize-constrained-constrainedDefine-x0change-modal": false,
    "nav-menuOptimize-constrained-constrainedExplore-arrange.method": "fromRight",
    "nav-menuOptimize-constrained-constrainedExplore-choose.palette.cat": "Paired",
    "nav-menuOptimize-constrained-constrainedExplore-choose.palette.num": "Blues",
    "nav-menuOptimize-constrained-constrainedExplore-corrPlotCs": "RdBu",
    "nav-menuOptimize-constrained-constrainedExplore-corrPlotType": "Text",
    "nav-menuOptimize-constrained-constrainedExplore-distribType": "1",
    "nav-menuOptimize-constrained-constrainedExplore-downloadPcpButton": 0,
    "nav-menuOptimize-constrained-constrainedExplore-downloadSpmButton": 0,
    "nav-menuOptimize-constrained-constrainedExplore-layout": "Vertical",
    "nav-menuOptimize-constrained-constrainedSolve-OptimFailed": "All Criteria",
    "nav-menuOptimize-constrained-constrainedSolve-closeCollapse": "",
    "nav-menuOptimize-constrained-constrainedSolve-collapse": null,
    "nav-menuOptimize-constrained-constrainedSolve-generate": 0,
    "nav-menuOptimize-constrained-constrainedSolve-go": 0,
    "nav-menuOptimize-constrained-constrainedSolve-launch.simu": 0,
    "nav-menuOptimize-constrained-constrainedSolve-modalLaunchSimu": false,
    "nav-menuOptimize-constrained-constrainedSolve-modalPostOptimPlot": false,
    "nav-menuOptimize-constrained-constrainedSolve-nadd": 1,
    "nav-menuOptimize-constrained-constrainedSolve-openCollapse": "",
    "nav-menuOptimize-constrained-constrainedSolve-postOptimPlot": 0,
    "nav-menuOptimize-constrained-constrainedSolve-ranseed": 0,
    "nav-menuOptimize-constrained-constrainedSolve-simu.automatic": 0,
    "nav-menuOptimize-constrained-constrainedSolve-simu.manual": 0,
    "nav-menuOptimize-constrained-openCollapseConstrainedOptim": "",
    "nav-menuOptimize-openCollapseOptim": "",
    "nav-menuOptimize-robust-robustAnalysis-go": 0,
    "nav-menuOptimize-robust-robustDefine-file": null,
    "nav-menuOptimize-robust-robustSolve-ROcrit": "Mean",
    "nav-menuOptimize-robust-robustSolve-collapse": null,
    "nav-menuOptimize-robust-robustSolve-go": 0,
    "nav-menuOptimize-robust-robustSolve-threshproba": 0.9,
    "nav-menuOptimize-sequential-sequentialDefine-bounds-change": 0,
    "nav-menuOptimize-sequential-sequentialDefine-bounds-decimal": ".",
    "nav-menuOptimize-sequential-sequentialDefine-bounds-file": null,
    "nav-menuOptimize-sequential-sequentialDefine-bounds-modal": false,
    "nav-menuOptimize-sequential-sequentialDefine-bounds-reset": 0,
    "nav-menuOptimize-sequential-sequentialDefine-bounds-separator": ",",
    "nav-menuOptimize-sequential-sequentialDefine-closeoptimdef": 0,
    "nav-menuOptimize-sequential-sequentialDefine-file": null,
    "nav-menuOptimize-sequential-sequentialDefine-modalDefineOptim": false,
    "nav-menuOptimize-sequential-sequentialDefine-optimdef": 0,
    "nav-menuOptimize-sequential-sequentialDefine-resetConstrOptim": 0,
    "nav-menuOptimize-sequential-sequentialDefine-saveoptimdef": 0,
    "nav-menuOptimize-sequential-sequentialDefine-x0change-change": 0,
    "nav-menuOptimize-sequential-sequentialDefine-x0change-file": null,
    "nav-menuOptimize-sequential-sequentialDefine-x0change-modal": false,
    "nav-menuOptimize-sequential-sequentialSolve-modalConvergedOptim": false,
    "nav-menuOptimize-sequential-sequentialSolve-modalIter": false,
    "nav-menuOptimize-sequential-sequentialSolve-modalSettings": false,
    "nav-menuOptimize-sequential-sequentialSolve-modalfailOptimStep1": false,
    "nav-menuOptimize-sequential-sequentialSolve-modalfailOptimStep3": false,
    "nav-menuOptimize-sequential-sequentialSolve-nitermax": 1,
    "nav-menuOptimize-sequential-sequentialSolve-nptsiter": 1,
    "nav-menuOptimize-sequential-sequentialSolve-optimsettings": 0,
    "nav-menuOptimize-sequential-sequentialSolve-restartOptim": 0,
    "nav-menuOptimize-sequential-sequentialSolve-stopOptim": 0,
    "nav-menuOptimize-sequential-sequentialSolve-studyIter": 0,
    "nav-menuOptimize-unconstrained-bounds-change": 0,
    "nav-menuOptimize-unconstrained-bounds-decimal": ".",
    "nav-menuOptimize-unconstrained-bounds-file": null,
    "nav-menuOptimize-unconstrained-bounds-modal": false,
    "nav-menuOptimize-unconstrained-bounds-reset": 0,
    "nav-menuOptimize-unconstrained-bounds-separator": ",",
    "nav-menuOptimize-unconstrained-generate": 0,
    "nav-menuOptimize-unconstrained-goOptim": 0,
    "nav-menuOptimize-unconstrained-launch.simu": 0,
    "nav-menuOptimize-unconstrained-modalLaunchSimu": false,
    "nav-menuOptimize-unconstrained-modalPostOptimPlot": false,
    "nav-menuOptimize-unconstrained-nadd": 1,
    "nav-menuOptimize-unconstrained-postOptimPlot": 0,
    "nav-menuOptimize-unconstrained-resetUnconstrOptim": 0,
    "nav-menuOptimize-unconstrained-sign1": "Minimize",
    "nav-menuOptimize-unconstrained-sign2": "Minimize",
    "nav-menuOptimize-unconstrained-simu.automatic": 0,
    "nav-menuOptimize-unconstrained-simu.manual": 0,
    "nav-prepareDOE-generateDOE-DOEtype": "Mixed Sobol Sequence (Fast but suboptimal exploration)",
    "nav-prepareDOE-generateDOE-bounds-change": 1,
    "nav-prepareDOE-generateDOE-bounds-close": 0,
    "nav-prepareDOE-generateDOE-bounds-decimal": ".",
    "nav-prepareDOE-generateDOE-bounds-defLB1": 0,
    "nav-prepareDOE-generateDOE-bounds-defLB2": 0,
    "nav-prepareDOE-generateDOE-bounds-defLB3": 0,
    "nav-prepareDOE-generateDOE-bounds-defUB1": 1,
    "nav-prepareDOE-generateDOE-bounds-defUB2": 1,
    "nav-prepareDOE-generateDOE-bounds-defUB3": 1,
    "nav-prepareDOE-generateDOE-bounds-file": null,
    "nav-prepareDOE-generateDOE-bounds-go.nlevels3": 0,
    "nav-prepareDOE-generateDOE-bounds-level31": "1",
    "nav-prepareDOE-generateDOE-bounds-level32": "2",
    "nav-prepareDOE-generateDOE-bounds-modal": false,
    "nav-prepareDOE-generateDOE-bounds-name1": "X1",
    "nav-prepareDOE-generateDOE-bounds-name2": "X2",
    "nav-prepareDOE-generateDOE-bounds-name3": "X3",
    "nav-prepareDOE-generateDOE-bounds-nlevels3": 2,
    "nav-prepareDOE-generateDOE-bounds-preview_cell_clicked": {

    },
    "nav-prepareDOE-generateDOE-bounds-preview_cells_selected": [

    ],
    "nav-prepareDOE-generateDOE-bounds-preview_columns_selected": null,
    "nav-prepareDOE-generateDOE-bounds-preview_rows_all": [
      1,
      2,
      3,
      4,
      5
    ],
    "nav-prepareDOE-generateDOE-bounds-preview_rows_current": [
      1,
      2,
      3,
      4,
      5
    ],
    "nav-prepareDOE-generateDOE-bounds-preview_rows_selected": null,
    "nav-prepareDOE-generateDOE-bounds-preview_search": "",
    "nav-prepareDOE-generateDOE-bounds-preview_state": {
      "start": 0,
      "length": 9,
      "order": [

      ],
      "search": {
        "search": "",
        "smart": true,
        "regex": false,
        "caseInsensitive": true
      },
      "columns": [
        {
          "visible": true,
          "search": {
            "search": "",
            "smart": true,
            "regex": false,
            "caseInsensitive": true
          }
        },
        {
          "visible": true,
          "search": {
            "search": "",
            "smart": true,
            "regex": false,
            "caseInsensitive": true
          }
        },
        {
          "visible": true,
          "search": {
            "search": "",
            "smart": true,
            "regex": false,
            "caseInsensitive": true
          }
        },
        {
          "visible": true,
          "search": {
            "search": "",
            "smart": true,
            "regex": false,
            "caseInsensitive": true
          }
        }
      ],
      "scroller": {
        "topRow": 0,
        "baseScrollTop": 0,
        "baseRowTop": 0,
        "scrollTop": 0
      }
    },
    "nav-prepareDOE-generateDOE-bounds-reset": 0,
    "nav-prepareDOE-generateDOE-bounds-save": 1,
    "nav-prepareDOE-generateDOE-bounds-separator": ",",
    "nav-prepareDOE-generateDOE-bounds-type1": "numeric",
    "nav-prepareDOE-generateDOE-bounds-type2": "numeric",
    "nav-prepareDOE-generateDOE-bounds-type3": "categorical",
    "nav-prepareDOE-generateDOE-evaluateDOE-check": 0,
    "nav-prepareDOE-generateDOE-goDOE": 1,
    "nav-prepareDOE-generateDOE-nX": 3,
    "nav-prepareDOE-generateDOE-nobs": 10,
    "nav-prepareDOE-generateDOE-nobs.slide": 3,
    "nav-prepareDOE-generateDOE-plotVisualize-advancedSettings": 0,
    "nav-prepareDOE-generateDOE-plotVisualize-advancedSettings_state": true,
    "nav-prepareDOE-generateDOE-plotVisualize-catSelectionClosed": 1,
    "nav-prepareDOE-generateDOE-plotVisualize-categoricalSelection-choice": [
      "X3|1",
      "X3|2"
    ],
    "nav-prepareDOE-generateDOE-plotVisualize-choose.palette.cat": "Category10",
    "nav-prepareDOE-generateDOE-plotVisualize-choose.palette.num": "Viridis",
    "nav-prepareDOE-generateDOE-plotVisualize-corrPlotCs": "RdBu",
    "nav-prepareDOE-generateDOE-plotVisualize-corrPlotType": "Text",
    "nav-prepareDOE-generateDOE-plotVisualize-distribType": "1",
    "nav-prepareDOE-generateDOE-plotVisualize-downloadSpmButton": 0,
    "nav-prepareDOE-generateDOE-plotVisualize-mouseMode": "tooltip",
    "nav-prepareDOE-generateDOE-plotVisualize-numSelectionClosed": 1,
    "nav-prepareDOE-generateDOE-plotVisualize-numericSelection-choice": [
      "X1",
      "X2"
    ],
    "nav-prepareDOE-generateDOE-prepare-modalcheckDOE": false,
    "nav-prepareDOE-generateDOE-prepare.gocheckDOE": 0,
    "nav-saveStudy-elementsToSave": null,
    "nav-saveStudy-filename": "",
    "nav-saveStudy-saveOrDownload": "Save in app",
    "nav-surrogate-buildsurrogate-acosso1outputs": "1",
    "nav-surrogate-buildsurrogate-acosso2outputs": "1",
    "nav-surrogate-buildsurrogate-buildacosso1": 0,
    "nav-surrogate-buildsurrogate-buildacosso2": 0,
    "nav-surrogate-buildsurrogate-buildkriging": 0,
    "nav-surrogate-buildsurrogate-buildlasso": 0,
    "nav-surrogate-buildsurrogate-builduserdefined": 0,
    "nav-surrogate-buildsurrogate-computeQ2test": 0,
    "nav-surrogate-buildsurrogate-decimal": ".",
    "nav-surrogate-buildsurrogate-fileQ2test": null,
    "nav-surrogate-buildsurrogate-interpolate": true,
    "nav-surrogate-buildsurrogate-krig.multistart": false,
    "nav-surrogate-buildsurrogate-krigingoutputs": "1",
    "nav-surrogate-buildsurrogate-loadQ2testfile": 0,
    "nav-surrogate-buildsurrogate-modalAcosso1": false,
    "nav-surrogate-buildsurrogate-modalAcosso2": false,
    "nav-surrogate-buildsurrogate-modalKriging": false,
    "nav-surrogate-buildsurrogate-modalQ2": false,
    "nav-surrogate-buildsurrogate-modalQ2testfile": false,
    "nav-surrogate-buildsurrogate-modalUserDefined": false,
    "nav-surrogate-buildsurrogate-outQ2thresholdacosso1": 0.95,
    "nav-surrogate-buildsurrogate-outQ2thresholdacosso2": 0.95,
    "nav-surrogate-buildsurrogate-outQ2thresholdkriging": 0.95,
    "nav-surrogate-buildsurrogate-outQ2thresholdsurrogate": 0.95,
    "nav-surrogate-buildsurrogate-retrain": false,
    "nav-surrogate-buildsurrogate-separator": ",",
    "nav-surrogate-buildsurrogate-surrogatemode": "Normal Mode",
    "nav-surrogate-buildsurrogate-surrogateoutputs": "1",
    "nav-surrogate-choosesurrogate-modalQ2final": false,
    "nav-surrogate-choosesurrogate-saveFinalSurrogate": 0,
    "nav-surrogate-closePanelSurrogate": "",
    "nav-surrogate-collapseSurrogate": "Build Surrogate Models",
    "nav-surrogate-modalViewDOEsurrogate": false,
    "nav-surrogate-modalconfirm.refresh": false,
    "nav-surrogate-openPanelSurrogate": "",
    "nav-surrogate-refinesurrogate-criteria": "Global Accuracy",
    "nav-surrogate-refinesurrogate-generate": 0,
    "nav-surrogate-refinesurrogate-launch.simu": 0,
    "nav-surrogate-refinesurrogate-modalLaunchSimu": false,
    "nav-surrogate-refinesurrogate-nadd": 1,
    "nav-surrogate-refinesurrogate-simu.automatic": 0,
    "nav-surrogate-refinesurrogate-simu.manual": 0,
    "nav-surrogate-surrogate.refresh": 0,
    "nav-workflow-displayExplore": null,
    "nav-workflow-displayImportData": "Import DOE",
    "nav-workflow-displayOptimize": null,
    "nav-workflow-displayPrepareDOE": "Prepare DOE",
    "nav-workflow-displaySurrogateModel": null
  },
  "output": {
    "nav-importDOEtab.clicked": false,
    "nav-menuExplore-UQModel-uncertaintyPropagation-conditionalRefine": {
      "message": "",
      "call": "NULL",
      "type": [
        "shiny.silent.error",
        "validation"
      ]
    },
    "nav-menuExplore-UQModel-uncertaintyPropagation-use_simulator": false,
    "nav-menuImport-importDOE-directOptim-conditionalPostOptim": false,
    "nav-menuImport-importDOE-directOptim-constrainedDefine-conditionalChangeButton": true,
    "nav-menuImport-importDOE-directOptim-constrainedDefine-conditionalOptimTypes": false,
    "nav-menuImport-importDOE-perform_DOE": false,
    "nav-menuImport-importDOE-perform_direct_optim": false,
    "nav-menuImport-importDOE-upload_file_bool": false,
    "nav-menuOptimize-constrained-constrainedDefine-conditionalChangeButton": false,
    "nav-menuOptimize-constrained-constrainedDefine-conditionalOptimTypes": false,
    "nav-menuOptimize-constrained-constrainedSolve-use_simulator": false,
    "nav-menuOptimize-sequential-sequentialDefine-conditionalChangeButton": false,
    "nav-menuOptimize-sequential-sequentialDefine-conditionalOptimTypes": false,
    "nav-menuOptimize-unconstrained-use_simulator": false,
    "nav-prelimexploDOEtab.clicked": false,
    "nav-prepareDOE-generateDOE-DOE.type": {
      "html": "<div class=\"form-group shiny-input-container\">\n  <label class=\"control-label\" id=\"nav-prepareDOE-generateDOE-DOEtype-label\" for=\"nav-prepareDOE-generateDOE-DOEtype\">Select DOE method<\/label>\n  <div>\n    <select id=\"nav-prepareDOE-generateDOE-DOEtype\" class=\"shiny-input-select\"><option value=\"LHS for Categorical Inputs (Optimal but large sample size)\" selected>LHS for Categorical Inputs (Optimal but large sample size)<\/option>\n<option value=\"Mixed Sobol Sequence (Fast but suboptimal exploration)\">Mixed Sobol Sequence (Fast but suboptimal exploration)<\/option><\/select>\n    <script type=\"application/json\" data-for=\"nav-prepareDOE-generateDOE-DOEtype\" data-nonempty=\"\">{\"plugins\":[\"selectize-plugin-a11y\"]}<\/script>\n  <\/div>\n<\/div>",
      "deps": [
        {
          "name": "selectize",
          "version": "0.15.2",
          "src": {
            "href": "selectize-0.15.2"
          },
          "meta": null,
          "script": [
            "js/selectize.min.js",
            "accessibility/js/selectize-plugin-a11y.min.js"
          ],
          "stylesheet": "css/selectize.bootstrap3.css",
          "head": null,
          "attachment": null,
          "all_files": true
        }
      ]
    },
    "nav-prepareDOE-generateDOE-bounds-footer": {
      "html": "<div class=\"col-sm-12\"><\/div>\n<div class=\"row\">\n  <div class=\"col-sm-3 offset-md-2 col-sm-offset-2\">\n    <button class=\"btn btn-default action-button btn-warning\" id=\"nav-prepareDOE-generateDOE-bounds-save\" style=\"width:100%;\" type=\"button\">Save and Close<\/button>\n  <\/div>\n  <div class=\"col-sm-3 offset-md-2 col-sm-offset-2\">\n    <button class=\"btn btn-default action-button btn-secondary\" id=\"nav-prepareDOE-generateDOE-bounds-close\" style=\"width:100%;\" type=\"button\">Dismiss<\/button>\n  <\/div>\n<\/div>",
      "deps": [

      ]
    },
    "nav-prepareDOE-generateDOE-bounds-preview": {
      "x": {
        "filter": "none",
        "vertical": false,
        "extensions": [
          "FixedColumns",
          "Scroller"
        ],
        "container": "<table class=\"display\">\n  <thead>\n    <tr>\n      <th> <\/th>\n      <th>X1<\/th>\n      <th>X2<\/th>\n      <th>X3<\/th>\n    <\/tr>\n  <\/thead>\n<\/table>",
        "options": {
          "dom": "t",
          "ordering": false,
          "pageLength": 2,
          "scrollX": true,
          "scroller": true,
          "fixedColumns": true,
          "columnDefs": [
            {
              "targets": [
                1,
                2,
                3
              ],
              "render": "function(data, type, row, meta) {\nreturn type === 'display' && data.length > 12 ?\n'<span title=\"' + data + '\">' + data.substr(0, 12) + '...<\/span>' : data;\n}"
            },
            {
              "orderable": false,
              "targets": 0
            }
          ],
          "order": [

          ],
          "autoWidth": false,
          "orderClasses": false,
          "lengthMenu": [
            2,
            10,
            25,
            50,
            100
          ],
          "ajax": {
            "type": "POST",
            "data": "function(d) {\nd.search.caseInsensitive = true;\nd.search.smart = true;\nd.escape = false;\nvar encodeAmp = function(x) { x.value = x.value.replace(/&/g, \"%26\"); }\nencodeAmp(d.search);\n$.each(d.columns, function(i, v) {encodeAmp(v.search);});\n}"
          },
          "serverSide": true,
          "processing": true
        },
        "selection": {
          "mode": "multiple",
          "selected": null,
          "target": "row",
          "selectable": null
        }
      },
      "evals": [
        "options.columnDefs.0.render",
        "options.ajax.data"
      ],
      "jsHooks": [

      ],
      "deps": [
        {
          "name": "jquery",
          "version": "3.6.0",
          "src": {
            "href": "jquery-3.6.0"
          },
          "meta": null,
          "script": "jquery-3.6.0.min.js",
          "stylesheet": null,
          "head": null,
          "attachment": null,
          "all_files": true
        },
        {
          "name": "dt-core",
          "version": "1.13.4",
          "src": {
            "href": "dt-core-1.13.4"
          },
          "meta": null,
          "script": "js/jquery.dataTables.min.js",
          "stylesheet": [
            "css/jquery.dataTables.min.css",
            "css/jquery.dataTables.extra.css"
          ],
          "head": null,
          "attachment": null,
          "package": null,
          "all_files": false
        },
        {
          "name": "dt-ext-fixedcolumns",
          "version": "1.13.4",
          "src": {
            "href": "dt-ext-fixedcolumns-1.13.4"
          },
          "meta": null,
          "script": "js/dataTables.fixedColumns.min.js",
          "stylesheet": "css/fixedColumns.dataTables.min.css",
          "head": null,
          "attachment": null,
          "package": null,
          "all_files": false
        },
        {
          "name": "dt-ext-scroller",
          "version": "1.13.4",
          "src": {
            "href": "dt-ext-scroller-1.13.4"
          },
          "meta": null,
          "script": "js/dataTables.scroller.min.js",
          "stylesheet": "css/scroller.dataTables.min.css",
          "head": null,
          "attachment": null,
          "package": null,
          "all_files": false
        },
        {
          "name": "crosstalk",
          "version": "1.2.1",
          "src": {
            "href": "crosstalk-1.2.1"
          },
          "meta": null,
          "script": "js/crosstalk.min.js",
          "stylesheet": "css/crosstalk.min.css",
          "head": null,
          "attachment": null,
          "all_files": true
        }
      ]
    },
    "nav-prepareDOE-generateDOE-bounds-rangeInputs": {
      "html": "<div class=\"row\">\n  <div class=\"col-sm-3\">\n    <div class=\"form-group shiny-input-container\">\n      <label class=\"control-label\" id=\"nav-prepareDOE-generateDOE-bounds-name1-label\" for=\"nav-prepareDOE-generateDOE-bounds-name1\">Input Name<\/label>\n      <input id=\"nav-prepareDOE-generateDOE-bounds-name1\" type=\"text\" class=\"shiny-input-text form-control\" value=\"X1\"/>\n    <\/div>\n  <\/div>\n  <div class=\"col-sm-3\">\n    <div class=\"form-group shiny-input-container\">\n      <label class=\"control-label\" id=\"nav-prepareDOE-generateDOE-bounds-type1-label\" for=\"nav-prepareDOE-generateDOE-bounds-type1\">Type<\/label>\n      <div>\n        <select id=\"nav-prepareDOE-generateDOE-bounds-type1\" class=\"shiny-input-select\"><option value=\"numeric\" selected>numeric<\/option>\n<option value=\"categorical\">categorical<\/option><\/select>\n        <script type=\"application/json\" data-for=\"nav-prepareDOE-generateDOE-bounds-type1\" data-nonempty=\"\">{\"plugins\":[\"selectize-plugin-a11y\"]}<\/script>\n      <\/div>\n    <\/div>\n  <\/div>\n  <div class=\"row\">\n    <div class=\"col-sm-3\">\n      <div class=\"form-group shiny-input-container\">\n        <label class=\"control-label\" id=\"nav-prepareDOE-generateDOE-bounds-defLB1-label\" for=\"nav-prepareDOE-generateDOE-bounds-defLB1\">Lower Bound<\/label>\n        <input id=\"nav-prepareDOE-generateDOE-bounds-defLB1\" type=\"number\" class=\"shiny-input-number form-control\" value=\"0\"/>\n      <\/div>\n    <\/div>\n    <div class=\"col-sm-3\">\n      <div class=\"form-group shiny-input-container\">\n        <label class=\"control-label\" id=\"nav-prepareDOE-generateDOE-bounds-defUB1-label\" for=\"nav-prepareDOE-generateDOE-bounds-defUB1\">Upper Bound<\/label>\n        <input id=\"nav-prepareDOE-generateDOE-bounds-defUB1\" type=\"number\" class=\"shiny-input-number form-control\" value=\"1\"/>\n      <\/div>\n    <\/div>\n  <\/div>\n<\/div>\n<div class=\"row\">\n  <div class=\"col-sm-3\">\n    <div class=\"form-group shiny-input-container\">\n      <label class=\"control-label\" id=\"nav-prepareDOE-generateDOE-bounds-name2-label\" for=\"nav-prepareDOE-generateDOE-bounds-name2\">Input Name<\/label>\n      <input id=\"nav-prepareDOE-generateDOE-bounds-name2\" type=\"text\" class=\"shiny-input-text form-control\" value=\"X2\"/>\n    <\/div>\n  <\/div>\n  <div class=\"col-sm-3\">\n    <div class=\"form-group shiny-input-container\">\n      <label class=\"control-label\" id=\"nav-prepareDOE-generateDOE-bounds-type2-label\" for=\"nav-prepareDOE-generateDOE-bounds-type2\">Type<\/label>\n      <div>\n        <select id=\"nav-prepareDOE-generateDOE-bounds-type2\" class=\"shiny-input-select\"><option value=\"numeric\" selected>numeric<\/option>\n<option value=\"categorical\">categorical<\/option><\/select>\n        <script type=\"application/json\" data-for=\"nav-prepareDOE-generateDOE-bounds-type2\" data-nonempty=\"\">{\"plugins\":[\"selectize-plugin-a11y\"]}<\/script>\n      <\/div>\n    <\/div>\n  <\/div>\n  <div class=\"row\">\n    <div class=\"col-sm-3\">\n      <div class=\"form-group shiny-input-container\">\n        <label class=\"control-label\" id=\"nav-prepareDOE-generateDOE-bounds-defLB2-label\" for=\"nav-prepareDOE-generateDOE-bounds-defLB2\">Lower Bound<\/label>\n        <input id=\"nav-prepareDOE-generateDOE-bounds-defLB2\" type=\"number\" class=\"shiny-input-number form-control\" value=\"0\"/>\n      <\/div>\n    <\/div>\n    <div class=\"col-sm-3\">\n      <div class=\"form-group shiny-input-container\">\n        <label class=\"control-label\" id=\"nav-prepareDOE-generateDOE-bounds-defUB2-label\" for=\"nav-prepareDOE-generateDOE-bounds-defUB2\">Upper Bound<\/label>\n        <input id=\"nav-prepareDOE-generateDOE-bounds-defUB2\" type=\"number\" class=\"shiny-input-number form-control\" value=\"1\"/>\n      <\/div>\n    <\/div>\n  <\/div>\n<\/div>\n<div class=\"row\">\n  <div class=\"col-sm-3\">\n    <div class=\"form-group shiny-input-container\">\n      <label class=\"control-label\" id=\"nav-prepareDOE-generateDOE-bounds-name3-label\" for=\"nav-prepareDOE-generateDOE-bounds-name3\">Input Name<\/label>\n      <input id=\"nav-prepareDOE-generateDOE-bounds-name3\" type=\"text\" class=\"shiny-input-text form-control\" value=\"X3\"/>\n    <\/div>\n  <\/div>\n  <div class=\"col-sm-3\">\n    <div class=\"form-group shiny-input-container\">\n      <label class=\"control-label\" id=\"nav-prepareDOE-generateDOE-bounds-type3-label\" for=\"nav-prepareDOE-generateDOE-bounds-type3\">Type<\/label>\n      <div>\n        <select id=\"nav-prepareDOE-generateDOE-bounds-type3\" class=\"shiny-input-select\"><option value=\"numeric\">numeric<\/option>\n<option value=\"categorical\" selected>categorical<\/option><\/select>\n        <script type=\"application/json\" data-for=\"nav-prepareDOE-generateDOE-bounds-type3\" data-nonempty=\"\">{\"plugins\":[\"selectize-plugin-a11y\"]}<\/script>\n      <\/div>\n    <\/div>\n  <\/div>\n  <div class=\"row\">\n    <div class=\"col-sm-3\">\n      <strong>Number of levels<\/strong>\n      <div class=\"row\">\n        <div class=\"col-sm-8\">\n          <div class=\"form-group shiny-input-container\">\n            <label class=\"control-label shiny-label-null\" for=\"nav-prepareDOE-generateDOE-bounds-nlevels3\" id=\"nav-prepareDOE-generateDOE-bounds-nlevels3-label\"><\/label>\n            <input id=\"nav-prepareDOE-generateDOE-bounds-nlevels3\" type=\"number\" class=\"shiny-input-number form-control\" value=\"2\" min=\"2\"/>\n          <\/div>\n        <\/div>\n        <div class=\"col-sm-3\" style=\"padding:0px;\">\n          <button class=\"btn btn-default action-button btn-primary\" id=\"nav-prepareDOE-generateDOE-bounds-go.nlevels3\" type=\"button\">Update<\/button>\n        <\/div>\n      <\/div>\n    <\/div>\n    <div class=\"col-sm-3\">\n      <strong>Levels<\/strong>\n      <div class=\"form-group shiny-input-container\">\n        <label class=\"control-label shiny-label-null\" for=\"nav-prepareDOE-generateDOE-bounds-level31\" id=\"nav-prepareDOE-generateDOE-bounds-level31-label\"><\/label>\n        <input id=\"nav-prepareDOE-generateDOE-bounds-level31\" type=\"text\" class=\"shiny-input-text form-control\" value=\"1\"/>\n      <\/div>\n      <div class=\"form-group shiny-input-container\">\n        <label class=\"control-label shiny-label-null\" for=\"nav-prepareDOE-generateDOE-bounds-level32\" id=\"nav-prepareDOE-generateDOE-bounds-level32-label\"><\/label>\n        <input id=\"nav-prepareDOE-generateDOE-bounds-level32\" type=\"text\" class=\"shiny-input-text form-control\" value=\"2\"/>\n      <\/div>\n    <\/div>\n  <\/div>\n<\/div>",
      "deps": [
        {
          "name": "selectize",
          "version": "0.15.2",
          "src": {
            "href": "selectize-0.15.2"
          },
          "meta": null,
          "script": [
            "js/selectize.min.js",
            "accessibility/js/selectize-plugin-a11y.min.js"
          ],
          "stylesheet": "css/selectize.bootstrap3.css",
          "head": null,
          "attachment": null,
          "all_files": true
        }
      ]
    },
    "nav-prepareDOE-generateDOE-bounds-warning.file": null,
    "nav-prepareDOE-generateDOE-nobs.UI": {
      "html": "<div class=\"form-group shiny-input-container\">\n  <label class=\"control-label\" id=\"nav-prepareDOE-generateDOE-nobs-label\" for=\"nav-prepareDOE-generateDOE-nobs\">Sample Size (recommended 10 x Inputs)<\/label>\n  <input id=\"nav-prepareDOE-generateDOE-nobs\" type=\"number\" class=\"shiny-input-number form-control\" value=\"10\" min=\"3\"/>\n<\/div>",
      "deps": [

      ]
    },
    "nav-prepareDOE-generateDOE-nobs.total": "<table  class = 'table shiny-table table- spacing-s' style = 'width:auto;'>\n<caption align=\"bottom\"> recommended 10 x Inputs <\/caption>\n<thead> <tr> <th style='text-align: right;'> Total Sample Size <\/th>  <\/tr> <\/thead> <tbody>\n  <tr> <td align=\"right\">  10 <\/td> <\/tr>\n   <\/tbody> <\/table>",
    "nav-prepareDOE-generateDOE-plotVisualize-categoricalSelection-select": {
      "html": "<div class=\"form-group shiny-input-container\">\n  <label class=\"control-label\" id=\"nav-prepareDOE-generateDOE-plotVisualize-categoricalSelection-choice-label\" for=\"nav-prepareDOE-generateDOE-plotVisualize-categoricalSelection-choice\">Categorical variables<\/label>\n  <select data-actions-box=\"true\" data-selected-text-format=\"count &gt; 3\" data-style=\"btn-primary\" data-live-search=\"true\" data-state-input=\"true\" id=\"nav-prepareDOE-generateDOE-plotVisualize-categoricalSelection-choice\" class=\"selectpicker form-control\" autocomplete=\"off\" multiple=\"multiple\"><optgroup label=\"X3\">\n<option value=\"X3|1\" selected>1<\/option>\n<option value=\"X3|2\" selected>2<\/option>\n<\/optgroup><\/select>\n<\/div>",
      "deps": [
        {
          "name": "shinyWidgets",
          "version": "0.8.7",
          "src": {
            "href": "shinyWidgets"
          },
          "meta": null,
          "script": "shinyWidgets-bindings.min.js",
          "stylesheet": "shinyWidgets.min.css",
          "head": null,
          "attachment": null,
          "all_files": false
        },
        {
          "name": "bootstrap-select",
          "version": "1.13.8",
          "src": {
            "href": "shinyWidgets/bootstrap-select"
          },
          "meta": null,
          "script": "js/bootstrap-select.min.js",
          "stylesheet": "css/bootstrap-select.min.css",
          "head": null,
          "attachment": null,
          "all_files": true
        }
      ]
    },
    "nav-prepareDOE-generateDOE-plotVisualize-numericSelection-select": {
      "html": "<div class=\"form-group shiny-input-container\">\n  <label class=\"control-label\" id=\"nav-prepareDOE-generateDOE-plotVisualize-numericSelection-choice-label\" for=\"nav-prepareDOE-generateDOE-plotVisualize-numericSelection-choice\">Numeric variables<\/label>\n  <select data-actions-box=\"true\" data-selected-text-format=\"count &gt; 3\" data-style=\"btn-primary\" data-live-search=\"true\" data-state-input=\"true\" id=\"nav-prepareDOE-generateDOE-plotVisualize-numericSelection-choice\" class=\"selectpicker form-control\" autocomplete=\"off\" multiple=\"multiple\"><option value=\"X1\" selected>X1<\/option>\n<option value=\"X2\" selected>X2<\/option><\/select>\n<\/div>",
      "deps": [
        {
          "name": "shinyWidgets",
          "version": "0.8.7",
          "src": {
            "href": "shinyWidgets"
          },
          "meta": null,
          "script": "shinyWidgets-bindings.min.js",
          "stylesheet": "shinyWidgets.min.css",
          "head": null,
          "attachment": null,
          "all_files": false
        },
        {
          "name": "bootstrap-select",
          "version": "1.13.8",
          "src": {
            "href": "shinyWidgets/bootstrap-select"
          },
          "meta": null,
          "script": "js/bootstrap-select.min.js",
          "stylesheet": "css/bootstrap-select.min.css",
          "head": null,
          "attachment": null,
          "all_files": true
        }
      ]
    },
    "nav-prepareDOE-generateDOE-plotVisualize-scatterPlotMatrix": {
      "x": {
        "data": {
          "X1": [
            0.135108694434166,
            0.5832599401473999,
            0.2764958143234253,
            0.6891671419143677,
            0.3904672861099243,
            0.8289084434509277,
            0.02996350638568401,
            0.5073020458221436,
            0.3213865756988525,
            0.8964935541152954
          ],
          "X2": [
            0.9920024871826172,
            0.734524667263031,
            0.07017102092504501,
            0.7661892771720886,
            0.413506418466568,
            0.1567631810903549,
            0.5229313969612122,
            0.05096462741494179,
            0.6287146806716919,
            0.8790491223335266
          ],
          "X3": [
            "2",
            "2",
            "1",
            "1",
            "2",
            "2",
            "1",
            "1",
            "2",
            "2"
          ],
          "group": [
            "X3=2",
            "X3=2",
            "X3=1",
            "X3=1",
            "X3=2",
            "X3=2",
            "X3=1",
            "X3=1",
            "X3=2",
            "X3=2"
          ]
        },
        "rowLabels": [
          "1",
          "2",
          "3",
          "4",
          "5",
          "6",
          "7",
          "8",
          "9",
          "10"
        ],
        "categorical": [
          null,
          null,
          null,
          [
            "X3=1",
            "X3=2"
          ]
        ],
        "inputColumns": null,
        "cutoffs": [
          {
            "xDim": "X1",
            "yDim": "group",
            "xyCutoffs": [
              [
                null,
                [
                  -0.125,
                  0.125
                ]
              ],
              [
                null,
                [
                  0.875,
                  1.125
                ]
              ]
            ]
          }
        ],
        "keptColumns": [
          true,
          true,
          false,
          false
        ],
        "zAxisDim": "group",
        "distribType": 1,
        "regressionType": 0,
        "corrPlotType": "Text",
        "corrPlotCS": "RdBu",
        "rotateTitle": false,
        "columnLabels": null,
        "continuousCS": "Viridis",
        "categoricalCS": "Category10",
        "mouseMode": "tooltip",
        "eventInputId": "nav-prepareDOE-generateDOE-plotVisualize-myPlotEvent",
        "controlWidgets": null,
        "cssRules": {
          ".jitterZone": "fill: white"
        },
        "plotProperties": {
          "noCatColor": "#1F78B4",
          "point": {
            "alpha": 0.8,
            "radius": 5
          }
        },
        "slidersPosition": {
          "dimCount": 3
        }
      },
      "evals": [

      ],
      "jsHooks": [

      ],
      "deps": [

      ]
    },
    "nav-surrogate-refinesurrogate-conditionalRefine": {
      "message": "",
      "call": "NULL",
      "type": [
        "shiny.silent.error",
        "validation"
      ]
    },
    "nav-surrogate-refinesurrogate-use_simulator": false,
    "nav-surrogateDOEtab.clicked": false
  },
  "export": {

  }
}
