{
  "bioconductor.version": null,
  "external.libraries": [],
  "ignored.packages": [],
  "package.dependency.fields": [
    "Imports",
    "Depends",
    "LinkingTo"
  ],
  "ppm.enabled": null,
  "ppm.ignored.urls": [],
  "r.version": "4.4.1",
  "snapshot.type": "all",
  "use.cache": true,
  "vcs.ignore.cellar": true,
  "vcs.ignore.library": true,
  "vcs.ignore.local": true,
  "vcs.manage.ignores": true
}
