<?xml version="1.0" encoding="UTF-8" standalone="no"?>
<!DOCTYPE svg PUBLIC "-//W3C//DTD SVG 1.1//EN" "http://www.w3.org/Graphics/SVG/1.1/DTD/svg11.dtd">
<!-- Généré par Microsoft Visio, SVG Export menuImport_diag.svg Page-1 -->
<svg xmlns="http://www.w3.org/2000/svg" xmlns:xlink="http://www.w3.org/1999/xlink" xmlns:ev="http://www.w3.org/2001/xml-events"
		xmlns:v="http://schemas.microsoft.com/visio/2003/SVGExtensions/" width="17.6192in" height="8.15087in"
		viewBox="0 0 1268.58 586.863" xml:space="preserve" color-interpolation-filters="sRGB" class="st11">
	<v:documentProperties v:langID="1036" v:metric="true" v:viewMarkup="false">
		<v:userDefs>
			<v:ud v:nameU="msvSubprocessMaster" v:prompt="" v:val="VT4(Rectangle)"/>
			<v:ud v:nameU="msvNoAutoConnect" v:val="VT0(1):26"/>
		</v:userDefs>
	</v:documentProperties>

	<style type="text/css">
	<![CDATA[
		.st1 {visibility:visible}
		.st2 {fill:#5b9bd5;fill-opacity:0.25;filter:url(#filter_2);stroke:#5b9bd5;stroke-opacity:0.25}
		.st3 {fill:#ffffff;fill-opacity:0;stroke:#40709c;stroke-width:0.75}
		.st4 {fill:#41719c;font-family:Calibri;font-size:1.5em;font-stretch:semi-expanded}
		.st5 {fill:#41719c;font-family:Calibri;font-size:1.00001em;font-stretch:semi-expanded}
		.st6 {fill:#ffffff;stroke:#759fcc;stroke-width:0.75}
		.st7 {fill:#759fcc;font-family:Calibri;font-size:1.16666em}
		.st8 {font-size:1em}
		.st9 {marker-end:url(#mrkr4-168);stroke:#41719c;stroke-linecap:round;stroke-linejoin:round;stroke-width:2}
		.st10 {fill:#41719c;fill-opacity:1;stroke:#41719c;stroke-opacity:1;stroke-width:0.52631578947368}
		.st11 {fill:none;fill-rule:evenodd;font-size:12px;overflow:visible;stroke-linecap:square;stroke-miterlimit:3}
		svg {pointer-events: none;}
	]]>
	</style>

	<defs id="Patterns_And_Gradients">
		<linearGradient id="grad0-20" x1="0" y1="0" x2="1" y2="0" gradientTransform="rotate(90 0.5 0.5)">
			<stop offset="0.01" stop-color="#fefefe" stop-opacity="1"/>
			<stop offset="0.5" stop-color="#fefefe" stop-opacity="1"/>
			<stop offset="1" stop-color="#fefefe" stop-opacity="1"/>
		</linearGradient>
		<linearGradient id="grad0-43" x1="0" y1="0" x2="1" y2="0" gradientTransform="rotate(90 0.5 0.5)">
			<stop offset="0.01" stop-color="#eeeeee" stop-opacity="1"/>
			<stop offset="0.5" stop-color="#d7d7d7" stop-opacity="1"/>
			<stop offset="1" stop-color="#eeeeee" stop-opacity="1"/>
		</linearGradient>
	</defs>
	<defs id="Markers">
		<g id="lend4">
			<path d="M 2 1 L 0 0 L 2 -1 L 2 1 " style="stroke:none"/>
		</g>
		<marker id="mrkr4-168" class="st10" v:arrowType="4" v:arrowSize="1" v:setback="3.8" refX="-3.8" orient="auto"
				markerUnits="strokeWidth" overflow="visible">
			<use xlink:href="#lend4" transform="scale(-1.9,-1.9) "/>
		</marker>
	</defs>
	<defs id="Filters">
		<filter id="filter_2">
			<feGaussianBlur stdDeviation="2"/>
		</filter>
	</defs>
	<g v:mID="0" v:index="1" v:groupContext="foregroundPage">
		<v:userDefs>
			<v:ud v:nameU="msvThemeOrder" v:val="VT0(0):26"/>
		</v:userDefs>
		<title>Page 1</title>
		<v:pageProperties v:drawingScale="0.0393701" v:pageScale="0.0393701" v:drawingUnits="24" v:shadowOffsetX="8.50394"
				v:shadowOffsetY="-8.50394"/>
		<v:layer v:name="Lien" v:index="0"/>
		<v:layer v:name="Conteneur" v:index="1"/>
		<g id="group8-1" transform="translate(21.0294,-164.694)" v:mID="8" v:groupContext="group" v:layerMember="1">
			<v:userDefs>
				<v:ud v:nameU="msvShapeCategories" v:prompt="" v:val="VT4(ContainerStyleDefaults)"/>
				<v:ud v:nameU="msvStructureType" v:prompt="" v:val="VT4(Container)"/>
				<v:ud v:nameU="msvSDContainerMargin" v:prompt="" v:val="VT0(0.11811023622047):24"/>
				<v:ud v:nameU="msvSDContainerResize" v:prompt="" v:val="VT0(1):26"/>
				<v:ud v:nameU="msvSDContainerLocked" v:prompt="" v:val="VT0(0):5"/>
				<v:ud v:nameU="msvSDContainerNoHighlight" v:prompt="" v:val="VT0(0):5"/>
				<v:ud v:nameU="msvSDContainerNoRibbon" v:prompt="" v:val="VT0(0):5"/>
				<v:ud v:nameU="msvSDContainerStyle" v:prompt="" v:val="VT0(1):26"/>
				<v:ud v:nameU="msvSDContainerStyleCount" v:prompt="" v:val="VT0(14):26"/>
				<v:ud v:nameU="msvSDContainerRequiredCategories" v:prompt="" v:val="VT0(0):26"/>
				<v:ud v:nameU="msvSDContainerExcludedCategories" v:prompt="" v:val="VT4(DoNotContain)"/>
				<v:ud v:nameU="msvSDHeadingStyle" v:prompt="" v:val="VT0(1):26"/>
				<v:ud v:nameU="msvSDHeadingStyleCount" v:prompt="" v:val="VT0(4):26"/>
				<v:ud v:nameU="HeadingSide" v:prompt="" v:val="VT0(0):26"/>
				<v:ud v:nameU="HeadingSpan" v:prompt="" v:val="VT0(0):26"/>
				<v:ud v:nameU="HeadingAlign" v:prompt="" v:val="VT0(0):26"/>
				<v:ud v:nameU="RTL" v:prompt="" v:val="VT0(0):5"/>
				<v:ud v:nameU="FnForceContrast" v:prompt="" v:val="VT5(#ffffff)"/>
				<v:ud v:nameU="BaseColor" v:prompt="" v:val="VT0(1):26"/>
				<v:ud v:nameU="HColor1" v:prompt="" v:val="VT5(#ffffff)"/>
				<v:ud v:nameU="HColor2" v:prompt="" v:val="VT5(#fefefe)"/>
				<v:ud v:nameU="HColor3" v:prompt="" v:val="VT5(#e9e9e9)"/>
				<v:ud v:nameU="HColor4" v:prompt="" v:val="VT5(#efefef)"/>
				<v:ud v:nameU="BColor1" v:prompt="" v:val="VT5(#ffffff)"/>
				<v:ud v:nameU="BColor2" v:prompt="" v:val="VT5(#ffffff)"/>
				<v:ud v:nameU="LineColor" v:prompt="" v:val="VT5(#d5d5d5)"/>
				<v:ud v:nameU="visVersion" v:prompt="" v:val="VT0(15):26"/>
				<v:ud v:nameU="Embellishment" v:prompt="" v:val="VT0(2):26"/>
				<v:ud v:nameU="BaseColor" v:prompt="" v:val="VT5(#fefefe)"/>
				<v:ud v:nameU="HColor1" v:prompt="" v:val="VT5(#fefefe)"/>
				<v:ud v:nameU="HColor4" v:prompt="" v:val="VT5(#eeeeee)"/>
				<v:ud v:nameU="BColor1" v:prompt="" v:val="VT5(#fefefe)"/>
				<v:ud v:nameU="BColor2" v:prompt="" v:val="VT5(#fefefe)"/>
				<v:ud v:nameU="LineColor" v:prompt="" v:val="VT5(#d3d3d3)"/>
			</v:userDefs>
			<title>Sans couleur</title>
			<g id="group9-2" v:mID="9" v:groupContext="group" v:layerMember="1">
				<v:userDefs>
					<v:ud v:nameU="msvStructureType" v:prompt="" v:val="VT0(0):26"/>
					<v:ud v:nameU="CStyle" v:prompt="" v:val="VT0(1):26"/>
					<v:ud v:nameU="HSide" v:prompt="" v:val="VT0(0):26"/>
					<v:ud v:nameU="HSpan" v:prompt="" v:val="VT0(0):26"/>
					<v:ud v:nameU="HAlign" v:prompt="" v:val="VT0(0):26"/>
					<v:ud v:nameU="HorzAlign" v:prompt="" v:val="VT0(0):26"/>
					<v:ud v:nameU="SquareCorners" v:prompt="" v:val="VT0(0):26"/>
					<v:ud v:nameU="Corner6" v:prompt="" v:val="VT0(0.19685039370079):24"/>
					<v:ud v:nameU="FillForegndIn" v:prompt="" v:val="VT0(1):26"/>
					<v:ud v:nameU="FillBkgndIn" v:prompt="" v:val="VT0(0):26"/>
					<v:ud v:nameU="FillPatternIn" v:prompt="" v:val="VT0(1):26"/>
					<v:ud v:nameU="BaseColor" v:prompt="" v:val="VT0(1):26"/>
					<v:ud v:nameU="BackFillColor" v:prompt="" v:val="VT5(#96afcf)"/>
					<v:ud v:nameU="BackLineColor" v:prompt="" v:val="VT5(#1f477d)"/>
					<v:ud v:nameU="DarkerColor" v:prompt="" v:val="VT5(#1f477d)"/>
					<v:ud v:nameU="FillForegndIn" v:prompt="" v:val="VT5(#ffffff)"/>
					<v:ud v:nameU="FillBkgndIn" v:prompt="" v:val="VT5(#c7c7c7)"/>
					<v:ud v:nameU="FillPatternIn" v:prompt="" v:val="VT0(1):26"/>
					<v:ud v:nameU="BaseColor" v:prompt="" v:val="VT5(#ffffff)"/>
					<v:ud v:nameU="BackFillColor" v:prompt="" v:val="VT5(#4f88bb)"/>
					<v:ud v:nameU="BackLineColor" v:prompt="" v:val="VT5(#41719c)"/>
					<v:ud v:nameU="DarkerColor" v:prompt="" v:val="VT5(#41719c)"/>
				</v:userDefs>
				<title>Feuille.9</title>
				<g id="shape10-3" v:mID="10" v:groupContext="shape" v:layerMember="1" transform="translate(2.83465,2.83465)">
					<title>Feuille.10</title>
					<v:userDefs>
						<v:ud v:nameU="msvStructureType" v:prompt="" v:val="VT0(0):26"/>
						<v:ud v:nameU="msvThemeColors" v:prompt="" v:val="VT0(0):26"/>
						<v:ud v:nameU="msvThemeEffects" v:prompt="" v:val="VT0(0):26"/>
						<v:ud v:nameU="CStyle" v:prompt="" v:val="VT0(1):26"/>
						<v:ud v:nameU="HSide" v:prompt="" v:val="VT0(0):26"/>
						<v:ud v:nameU="HSpan" v:prompt="" v:val="VT0(0):26"/>
						<v:ud v:nameU="HAlign" v:prompt="" v:val="VT0(0):26"/>
						<v:ud v:nameU="HorzAlign" v:prompt="" v:val="VT0(0):26"/>
						<v:ud v:nameU="SquareCorners" v:prompt="" v:val="VT0(0):26"/>
						<v:ud v:nameU="OffsetX10" v:prompt="" v:val="VT0(0.039370078740157):24"/>
						<v:ud v:nameU="OffsetY10" v:prompt="" v:val="VT0(-0.039370078740157):24"/>
						<v:ud v:nameU="BackFillColor" v:prompt="" v:val="VT5(#96afcf)"/>
						<v:ud v:nameU="BackLineColor" v:prompt="" v:val="VT5(#1f477d)"/>
						<v:ud v:nameU="DarkerColor" v:prompt="" v:val="VT5(#1f477d)"/>
					</v:userDefs>
					<g id="shadow10-4" v:groupContext="shadow" v:shadowOffsetX="0.3456" v:shadowOffsetY="-1.9728" v:shadowType="1"
							transform="matrix(1,0,0,1,0.3456,1.9728)" class="st1"/>
				</g>
				<g id="shape9-8" v:mID="9" v:groupContext="groupContent" v:layerMember="1">
					<g id="shadow9-9" v:groupContext="shadow" v:shadowOffsetX="0.3456" v:shadowOffsetY="-1.9728" v:shadowType="1"
							transform="matrix(1,0,0,1,0.3456,1.9728)" class="st1">
						<path d="M0 586.86 L542.83 586.86 L1085.67 586.86 L1085.67 184.1 L542.83 184.1 L0 184.1 L0 586.86 Z"
								class="st2"/>
					</g>
					<path d="M0 586.86 L542.83 586.86 L1085.67 586.86 L1085.67 184.1 L542.83 184.1 L0 184.1 L0 586.86 Z"
							class="st3"/>
				</g>
			</g>
			<g id="group11-13" transform="translate(0,-373.003)" v:mID="11" v:groupContext="group" v:layerMember="1">
				<v:userDefs>
					<v:ud v:nameU="msvStructureType" v:prompt="" v:val="VT4(Heading)"/>
					<v:ud v:nameU="CStyle" v:prompt="" v:val="VT0(1):26"/>
					<v:ud v:nameU="HSide" v:prompt="" v:val="VT0(0):26"/>
					<v:ud v:nameU="HSpan" v:prompt="" v:val="VT0(0):26"/>
					<v:ud v:nameU="HAlign" v:prompt="" v:val="VT0(0):26"/>
					<v:ud v:nameU="Hidden" v:prompt="" v:val="VT0(0):5"/>
					<v:ud v:nameU="HorzAlign" v:prompt="" v:val="VT0(0):26"/>
					<v:ud v:nameU="Rounding" v:prompt="" v:val="VT0(0):1"/>
					<v:ud v:nameU="SquareCorners" v:prompt="" v:val="VT0(3):26"/>
					<v:ud v:nameU="Inset" v:prompt="" v:val="VT0(0):24"/>
					<v:ud v:nameU="InsideRadius" v:prompt="" v:val="VT0(0):24"/>
					<v:ud v:nameU="InsetXInt" v:prompt="" v:val="VT0(0):24"/>
					<v:ud v:nameU="HTxtMargin" v:prompt="" v:val="VT0(0.059055118110236):24"/>
					<v:ud v:nameU="HTxtWidth" v:prompt="" v:val="VT0(2.9527559055118):24"/>
					<v:ud v:nameU="HLeft" v:prompt="" v:val="VT0(0):26"/>
					<v:ud v:nameU="HRight" v:prompt="" v:val="VT0(2.9527559055118):24"/>
					<v:ud v:nameU="SquareCorners7" v:prompt="" v:val="VT0(3):26"/>
					<v:ud v:nameU="Offset" v:prompt="" v:val="VT0(0):26"/>
					<v:ud v:nameU="Rounding8" v:prompt="" v:val="VT0(0.11811023622047):24"/>
					<v:ud v:nameU="InsetX9" v:prompt="" v:val="VT0(0):26"/>
					<v:ud v:nameU="InsetY9" v:prompt="" v:val="VT0(0):26"/>
					<v:ud v:nameU="OffsetY11" v:prompt="" v:val="VT0(0):26"/>
					<v:ud v:nameU="OffsetY12" v:prompt="" v:val="VT0(0):26"/>
					<v:ud v:nameU="Width12" v:prompt="" v:val="VT0(0):26"/>
					<v:ud v:nameU="msvSDContainerHeadingEdge" v:prompt="" v:val="VT4(Bottom)"/>
					<v:ud v:nameU="HLineVisible" v:prompt="" v:val="VT0(0):5"/>
					<v:ud v:nameU="HFillVisible" v:prompt="" v:val="VT0(0):5"/>
					<v:ud v:nameU="FillForegndIn" v:prompt="" v:val="VT5(#ffffff)"/>
					<v:ud v:nameU="FillBkgndIn" v:prompt="" v:val="VT0(1):26"/>
					<v:ud v:nameU="BaseColor" v:prompt="" v:val="VT0(1):26"/>
					<v:ud v:nameU="FillPatternIn" v:prompt="" v:val="VT0(30):26"/>
					<v:ud v:nameU="BackFillColor" v:prompt="" v:val="VT5(#96afcf)"/>
					<v:ud v:nameU="BackLineColor" v:prompt="" v:val="VT5(#1f477d)"/>
					<v:ud v:nameU="BackCharColor" v:prompt="" v:val="VT5(#000000)"/>
					<v:ud v:nameU="DarkerColor" v:prompt="" v:val="VT5(#000000)"/>
					<v:ud v:nameU="HTxtWidth" v:prompt="" v:val="VT0(15.07874015748):1"/>
					<v:ud v:nameU="HRight" v:prompt="" v:val="VT0(15.07874015748):1"/>
					<v:ud v:nameU="FillForegndIn" v:prompt="" v:val="VT5(#fefefe)"/>
					<v:ud v:nameU="FillBkgndIn" v:prompt="" v:val="VT5(#fefefe)"/>
					<v:ud v:nameU="BaseColor" v:prompt="" v:val="VT5(#fefefe)"/>
					<v:ud v:nameU="FillPatternIn" v:prompt="" v:val="VT0(1):26"/>
					<v:ud v:nameU="BackFillColor" v:prompt="" v:val="VT5(#4f88bb)"/>
					<v:ud v:nameU="BackLineColor" v:prompt="" v:val="VT5(#41719c)"/>
					<v:ud v:nameU="BackCharColor" v:prompt="" v:val="VT5(#feffff)"/>
					<v:ud v:nameU="DarkerColor" v:prompt="" v:val="VT5(#41719c)"/>
				</v:userDefs>
				<title>Feuille.11</title>
				<desc>MenuImport</desc>
				<g id="shape12-14" v:mID="12" v:groupContext="shape" v:layerMember="1">
					<title>Feuille.12</title>
					<v:userDefs>
						<v:ud v:nameU="msvStructureType" v:prompt="" v:val="VT0(0):26"/>
						<v:ud v:nameU="msvThemeColors" v:prompt="" v:val="VT0(0):26"/>
						<v:ud v:nameU="msvThemeEffects" v:prompt="" v:val="VT0(0):26"/>
						<v:ud v:nameU="CStyle" v:prompt="" v:val="VT0(1):26"/>
						<v:ud v:nameU="Rounding" v:prompt="" v:val="VT0(0):1"/>
						<v:ud v:nameU="SquareCorners" v:prompt="" v:val="VT0(3):26"/>
						<v:ud v:nameU="HLeft" v:prompt="" v:val="VT0(0):26"/>
						<v:ud v:nameU="HRight" v:prompt="" v:val="VT0(2.9527559055118):24"/>
						<v:ud v:nameU="Hidden" v:prompt="" v:val="VT0(0):5"/>
						<v:ud v:nameU="BowHeight7" v:prompt="" v:val="VT0(0.11811023622047):24"/>
						<v:ud v:nameU="Offset7" v:prompt="" v:val="VT0(0.0052083333333333):3"/>
						<v:ud v:nameU="AnchorPt7" v:prompt="" v:val="VT0(0.64439796587927):24"/>
						<v:ud v:nameU="HSide" v:prompt="" v:val="VT0(0):26"/>
						<v:ud v:nameU="HAlign" v:prompt="" v:val="VT0(0):26"/>
						<v:ud v:nameU="HRight" v:prompt="" v:val="VT0(15.07874015748):1"/>
						<v:ud v:nameU="Offset7" v:prompt="" v:val="VT0(0.0052083333333333):29"/>
						<v:ud v:nameU="AnchorPt7" v:prompt="" v:val="VT0(0.73298064304462):24"/>
					</v:userDefs>
					<g id="shadow12-15" v:groupContext="shadow" v:shadowOffsetX="0.345598" v:shadowOffsetY="-1.97279"
							v:shadowType="1" transform="matrix(1,0,0,1,0.345598,1.97279)" class="st1"/>
				</g>
				<g id="shape11-21" v:mID="11" v:groupContext="groupContent" v:layerMember="1">
					<v:textBlock v:margins="rect(4,6,4,6)" v:tabSpace="42.5197"/>
					<v:textRect cx="542.835" cy="571.981" width="1085.67" height="29.7638"/>
					<text x="6" y="577.38" class="st4" v:langID="1036"><v:paragraph/><v:tabList/>MenuImport</text>				</g>
			</g>
		</g>
		<g id="group15-24" transform="translate(21.0294,-23.3478)" v:mID="15" v:groupContext="group" v:layerMember="1">
			<v:userDefs>
				<v:ud v:nameU="msvShapeCategories" v:prompt="" v:val="VT4(ContainerStyleDefaults)"/>
				<v:ud v:nameU="msvStructureType" v:prompt="" v:val="VT4(Container)"/>
				<v:ud v:nameU="msvSDContainerMargin" v:prompt="" v:val="VT0(0.11811023622047):24"/>
				<v:ud v:nameU="msvSDContainerResize" v:prompt="" v:val="VT0(1):26"/>
				<v:ud v:nameU="msvSDContainerLocked" v:prompt="" v:val="VT0(0):5"/>
				<v:ud v:nameU="msvSDContainerNoHighlight" v:prompt="" v:val="VT0(0):5"/>
				<v:ud v:nameU="msvSDContainerNoRibbon" v:prompt="" v:val="VT0(0):5"/>
				<v:ud v:nameU="msvSDContainerStyle" v:prompt="" v:val="VT0(1):26"/>
				<v:ud v:nameU="msvSDContainerStyleCount" v:prompt="" v:val="VT0(14):26"/>
				<v:ud v:nameU="msvSDContainerRequiredCategories" v:prompt="" v:val="VT0(0):26"/>
				<v:ud v:nameU="msvSDContainerExcludedCategories" v:prompt="" v:val="VT4(DoNotContain)"/>
				<v:ud v:nameU="msvSDHeadingStyle" v:prompt="" v:val="VT0(1):26"/>
				<v:ud v:nameU="msvSDHeadingStyleCount" v:prompt="" v:val="VT0(4):26"/>
				<v:ud v:nameU="HeadingSide" v:prompt="" v:val="VT0(0):26"/>
				<v:ud v:nameU="HeadingSpan" v:prompt="" v:val="VT0(0):26"/>
				<v:ud v:nameU="HeadingAlign" v:prompt="" v:val="VT0(0):26"/>
				<v:ud v:nameU="RTL" v:prompt="" v:val="VT0(0):5"/>
				<v:ud v:nameU="FnForceContrast" v:prompt="" v:val="VT5(#ffffff)"/>
				<v:ud v:nameU="BaseColor" v:prompt="" v:val="VT0(1):26"/>
				<v:ud v:nameU="HColor1" v:prompt="" v:val="VT5(#ffffff)"/>
				<v:ud v:nameU="HColor2" v:prompt="" v:val="VT5(#fefefe)"/>
				<v:ud v:nameU="HColor3" v:prompt="" v:val="VT5(#e9e9e9)"/>
				<v:ud v:nameU="HColor4" v:prompt="" v:val="VT5(#efefef)"/>
				<v:ud v:nameU="BColor1" v:prompt="" v:val="VT5(#ffffff)"/>
				<v:ud v:nameU="BColor2" v:prompt="" v:val="VT5(#ffffff)"/>
				<v:ud v:nameU="LineColor" v:prompt="" v:val="VT5(#d5d5d5)"/>
				<v:ud v:nameU="visVersion" v:prompt="" v:val="VT0(15):26"/>
				<v:ud v:nameU="Embellishment" v:prompt="" v:val="VT0(2):26"/>
				<v:ud v:nameU="BaseColor" v:prompt="" v:val="VT5(#c7c7c7)"/>
				<v:ud v:nameU="HColor1" v:prompt="" v:val="VT5(#eeeeee)"/>
				<v:ud v:nameU="HColor2" v:prompt="" v:val="VT5(#d7d7d7)"/>
				<v:ud v:nameU="HColor3" v:prompt="" v:val="VT5(#bababa)"/>
				<v:ud v:nameU="HColor4" v:prompt="" v:val="VT5(#d7d7d7)"/>
				<v:ud v:nameU="BColor1" v:prompt="" v:val="VT5(#f7f7f7)"/>
				<v:ud v:nameU="BColor2" v:prompt="" v:val="VT5(#efefef)"/>
				<v:ud v:nameU="LineColor" v:prompt="" v:val="VT5(#9c9c9c)"/>
			</v:userDefs>
			<title>Sans couleur.15</title>
			<g id="group16-25" v:mID="16" v:groupContext="group" v:layerMember="1">
				<v:userDefs>
					<v:ud v:nameU="msvStructureType" v:prompt="" v:val="VT0(0):26"/>
					<v:ud v:nameU="CStyle" v:prompt="" v:val="VT0(1):26"/>
					<v:ud v:nameU="HSide" v:prompt="" v:val="VT0(0):26"/>
					<v:ud v:nameU="HSpan" v:prompt="" v:val="VT0(0):26"/>
					<v:ud v:nameU="HAlign" v:prompt="" v:val="VT0(0):26"/>
					<v:ud v:nameU="HorzAlign" v:prompt="" v:val="VT0(0):26"/>
					<v:ud v:nameU="SquareCorners" v:prompt="" v:val="VT0(0):26"/>
					<v:ud v:nameU="Corner6" v:prompt="" v:val="VT0(0.19685039370079):24"/>
					<v:ud v:nameU="FillForegndIn" v:prompt="" v:val="VT0(1):26"/>
					<v:ud v:nameU="FillBkgndIn" v:prompt="" v:val="VT0(0):26"/>
					<v:ud v:nameU="FillPatternIn" v:prompt="" v:val="VT0(1):26"/>
					<v:ud v:nameU="BaseColor" v:prompt="" v:val="VT0(1):26"/>
					<v:ud v:nameU="BackFillColor" v:prompt="" v:val="VT5(#96afcf)"/>
					<v:ud v:nameU="BackLineColor" v:prompt="" v:val="VT5(#1f477d)"/>
					<v:ud v:nameU="DarkerColor" v:prompt="" v:val="VT5(#1f477d)"/>
					<v:ud v:nameU="FillForegndIn" v:prompt="" v:val="VT5(#ffffff)"/>
					<v:ud v:nameU="FillBkgndIn" v:prompt="" v:val="VT5(#c7c7c7)"/>
					<v:ud v:nameU="FillPatternIn" v:prompt="" v:val="VT0(1):26"/>
					<v:ud v:nameU="BaseColor" v:prompt="" v:val="VT5(#ffffff)"/>
					<v:ud v:nameU="BackFillColor" v:prompt="" v:val="VT5(#4f88bb)"/>
					<v:ud v:nameU="BackLineColor" v:prompt="" v:val="VT5(#41719c)"/>
					<v:ud v:nameU="DarkerColor" v:prompt="" v:val="VT5(#41719c)"/>
				</v:userDefs>
				<title>Feuille.16</title>
				<g id="shape17-26" v:mID="17" v:groupContext="shape" v:layerMember="1" transform="translate(2.83465,2.83465)">
					<title>Feuille.17</title>
					<v:userDefs>
						<v:ud v:nameU="msvStructureType" v:prompt="" v:val="VT0(0):26"/>
						<v:ud v:nameU="msvThemeColors" v:prompt="" v:val="VT0(0):26"/>
						<v:ud v:nameU="msvThemeEffects" v:prompt="" v:val="VT0(0):26"/>
						<v:ud v:nameU="CStyle" v:prompt="" v:val="VT0(1):26"/>
						<v:ud v:nameU="HSide" v:prompt="" v:val="VT0(0):26"/>
						<v:ud v:nameU="HSpan" v:prompt="" v:val="VT0(0):26"/>
						<v:ud v:nameU="HAlign" v:prompt="" v:val="VT0(0):26"/>
						<v:ud v:nameU="HorzAlign" v:prompt="" v:val="VT0(0):26"/>
						<v:ud v:nameU="SquareCorners" v:prompt="" v:val="VT0(0):26"/>
						<v:ud v:nameU="OffsetX10" v:prompt="" v:val="VT0(0.039370078740157):24"/>
						<v:ud v:nameU="OffsetY10" v:prompt="" v:val="VT0(-0.039370078740157):24"/>
						<v:ud v:nameU="BackFillColor" v:prompt="" v:val="VT5(#96afcf)"/>
						<v:ud v:nameU="BackLineColor" v:prompt="" v:val="VT5(#1f477d)"/>
						<v:ud v:nameU="DarkerColor" v:prompt="" v:val="VT5(#1f477d)"/>
					</v:userDefs>
					<g id="shadow17-27" v:groupContext="shadow" v:shadowOffsetX="0.3456" v:shadowOffsetY="-1.9728" v:shadowType="1"
							transform="matrix(1,0,0,1,0.3456,1.9728)" class="st1"/>
				</g>
				<g id="shape16-31" v:mID="16" v:groupContext="groupContent" v:layerMember="1">
					<g id="shadow16-32" v:groupContext="shadow" v:shadowOffsetX="0.3456" v:shadowOffsetY="-1.9728" v:shadowType="1"
							transform="matrix(1,0,0,1,0.3456,1.9728)" class="st1">
						<path d="M0 586.86 L612.92 586.86 L1225.83 586.86 L1225.83 463.91 L612.92 463.91 L0 463.91 L0 586.86 Z"
								class="st2"/>
					</g>
					<path d="M0 586.86 L612.92 586.86 L1225.83 586.86 L1225.83 463.91 L612.92 463.91 L0 463.91 L0 586.86 Z"
							class="st3"/>
				</g>
			</g>
			<g id="group18-36" transform="translate(0,-93.189)" v:mID="18" v:groupContext="group" v:layerMember="1">
				<v:userDefs>
					<v:ud v:nameU="msvStructureType" v:prompt="" v:val="VT4(Heading)"/>
					<v:ud v:nameU="CStyle" v:prompt="" v:val="VT0(1):26"/>
					<v:ud v:nameU="HSide" v:prompt="" v:val="VT0(0):26"/>
					<v:ud v:nameU="HSpan" v:prompt="" v:val="VT0(0):26"/>
					<v:ud v:nameU="HAlign" v:prompt="" v:val="VT0(0):26"/>
					<v:ud v:nameU="Hidden" v:prompt="" v:val="VT0(0):5"/>
					<v:ud v:nameU="HorzAlign" v:prompt="" v:val="VT0(0):26"/>
					<v:ud v:nameU="Rounding" v:prompt="" v:val="VT0(0):1"/>
					<v:ud v:nameU="SquareCorners" v:prompt="" v:val="VT0(3):26"/>
					<v:ud v:nameU="Inset" v:prompt="" v:val="VT0(0):24"/>
					<v:ud v:nameU="InsideRadius" v:prompt="" v:val="VT0(0):24"/>
					<v:ud v:nameU="InsetXInt" v:prompt="" v:val="VT0(0):24"/>
					<v:ud v:nameU="HTxtMargin" v:prompt="" v:val="VT0(0.059055118110236):24"/>
					<v:ud v:nameU="HTxtWidth" v:prompt="" v:val="VT0(2.9527559055118):24"/>
					<v:ud v:nameU="HLeft" v:prompt="" v:val="VT0(0):26"/>
					<v:ud v:nameU="HRight" v:prompt="" v:val="VT0(2.9527559055118):24"/>
					<v:ud v:nameU="SquareCorners7" v:prompt="" v:val="VT0(3):26"/>
					<v:ud v:nameU="Offset" v:prompt="" v:val="VT0(0):26"/>
					<v:ud v:nameU="Rounding8" v:prompt="" v:val="VT0(0.11811023622047):24"/>
					<v:ud v:nameU="InsetX9" v:prompt="" v:val="VT0(0):26"/>
					<v:ud v:nameU="InsetY9" v:prompt="" v:val="VT0(0):26"/>
					<v:ud v:nameU="OffsetY11" v:prompt="" v:val="VT0(0):26"/>
					<v:ud v:nameU="OffsetY12" v:prompt="" v:val="VT0(0):26"/>
					<v:ud v:nameU="Width12" v:prompt="" v:val="VT0(0):26"/>
					<v:ud v:nameU="msvSDContainerHeadingEdge" v:prompt="" v:val="VT4(Bottom)"/>
					<v:ud v:nameU="HLineVisible" v:prompt="" v:val="VT0(0):5"/>
					<v:ud v:nameU="HFillVisible" v:prompt="" v:val="VT0(0):5"/>
					<v:ud v:nameU="FillForegndIn" v:prompt="" v:val="VT5(#ffffff)"/>
					<v:ud v:nameU="FillBkgndIn" v:prompt="" v:val="VT0(1):26"/>
					<v:ud v:nameU="BaseColor" v:prompt="" v:val="VT0(1):26"/>
					<v:ud v:nameU="FillPatternIn" v:prompt="" v:val="VT0(30):26"/>
					<v:ud v:nameU="BackFillColor" v:prompt="" v:val="VT5(#96afcf)"/>
					<v:ud v:nameU="BackLineColor" v:prompt="" v:val="VT5(#1f477d)"/>
					<v:ud v:nameU="BackCharColor" v:prompt="" v:val="VT5(#000000)"/>
					<v:ud v:nameU="DarkerColor" v:prompt="" v:val="VT5(#000000)"/>
					<v:ud v:nameU="HTxtWidth" v:prompt="" v:val="VT0(17.025454065666):1"/>
					<v:ud v:nameU="HRight" v:prompt="" v:val="VT0(17.025454065666):1"/>
					<v:ud v:nameU="FillForegndIn" v:prompt="" v:val="VT5(#c7c7c7)"/>
					<v:ud v:nameU="FillBkgndIn" v:prompt="" v:val="VT5(#ffffff)"/>
					<v:ud v:nameU="BaseColor" v:prompt="" v:val="VT5(#c7c7c7)"/>
					<v:ud v:nameU="FillPatternIn" v:prompt="" v:val="VT0(1):26"/>
					<v:ud v:nameU="BackFillColor" v:prompt="" v:val="VT5(#4f88bb)"/>
					<v:ud v:nameU="BackLineColor" v:prompt="" v:val="VT5(#41719c)"/>
					<v:ud v:nameU="BackCharColor" v:prompt="" v:val="VT5(#feffff)"/>
					<v:ud v:nameU="DarkerColor" v:prompt="" v:val="VT5(#41719c)"/>
				</v:userDefs>
				<title>Feuille.18</title>
				<desc>Shared</desc>
				<g id="shape19-37" v:mID="19" v:groupContext="shape" v:layerMember="1">
					<title>Feuille.19</title>
					<v:userDefs>
						<v:ud v:nameU="msvStructureType" v:prompt="" v:val="VT0(0):26"/>
						<v:ud v:nameU="msvThemeColors" v:prompt="" v:val="VT0(0):26"/>
						<v:ud v:nameU="msvThemeEffects" v:prompt="" v:val="VT0(0):26"/>
						<v:ud v:nameU="CStyle" v:prompt="" v:val="VT0(1):26"/>
						<v:ud v:nameU="Rounding" v:prompt="" v:val="VT0(0):1"/>
						<v:ud v:nameU="SquareCorners" v:prompt="" v:val="VT0(3):26"/>
						<v:ud v:nameU="HLeft" v:prompt="" v:val="VT0(0):26"/>
						<v:ud v:nameU="HRight" v:prompt="" v:val="VT0(2.9527559055118):24"/>
						<v:ud v:nameU="Hidden" v:prompt="" v:val="VT0(0):5"/>
						<v:ud v:nameU="BowHeight7" v:prompt="" v:val="VT0(0.11811023622047):24"/>
						<v:ud v:nameU="Offset7" v:prompt="" v:val="VT0(0.0052083333333333):3"/>
						<v:ud v:nameU="AnchorPt7" v:prompt="" v:val="VT0(0.64439796587927):24"/>
						<v:ud v:nameU="HSide" v:prompt="" v:val="VT0(0):26"/>
						<v:ud v:nameU="HAlign" v:prompt="" v:val="VT0(0):26"/>
						<v:ud v:nameU="HRight" v:prompt="" v:val="VT0(17.025454065666):1"/>
						<v:ud v:nameU="Offset7" v:prompt="" v:val="VT0(0.0052083333333333):29"/>
						<v:ud v:nameU="AnchorPt7" v:prompt="" v:val="VT0(0.73298064304462):24"/>
					</v:userDefs>
					<g id="shadow19-38" v:groupContext="shadow" v:shadowOffsetX="0.345598" v:shadowOffsetY="-1.97279"
							v:shadowType="1" transform="matrix(1,0,0,1,0.345598,1.97279)" class="st1"/>
				</g>
				<g id="shape18-44" v:mID="18" v:groupContext="groupContent" v:layerMember="1">
					<v:textBlock v:margins="rect(4,6,4,6)" v:tabSpace="42.5197"/>
					<v:textRect cx="612.916" cy="571.981" width="1225.84" height="29.7638"/>
					<text x="6" y="577.38" class="st4" v:langID="1036"><v:paragraph/><v:tabList/>Shared</text>				</g>
			</g>
		</g>
		<g id="group41-47" transform="translate(29.8369,-174.407)" v:mID="41" v:groupContext="group" v:layerMember="1">
			<v:userDefs>
				<v:ud v:nameU="msvShapeCategories" v:prompt="" v:val="VT4(ContainerStyleDefaults)"/>
				<v:ud v:nameU="msvStructureType" v:prompt="" v:val="VT4(Container)"/>
				<v:ud v:nameU="msvSDContainerMargin" v:prompt="" v:val="VT0(0.11811023622047):24"/>
				<v:ud v:nameU="msvSDContainerResize" v:prompt="" v:val="VT0(1):26"/>
				<v:ud v:nameU="msvSDContainerLocked" v:prompt="" v:val="VT0(0):5"/>
				<v:ud v:nameU="msvSDContainerNoHighlight" v:prompt="" v:val="VT0(0):5"/>
				<v:ud v:nameU="msvSDContainerNoRibbon" v:prompt="" v:val="VT0(0):5"/>
				<v:ud v:nameU="msvSDContainerStyle" v:prompt="" v:val="VT0(1):26"/>
				<v:ud v:nameU="msvSDContainerStyleCount" v:prompt="" v:val="VT0(14):26"/>
				<v:ud v:nameU="msvSDContainerRequiredCategories" v:prompt="" v:val="VT0(0):26"/>
				<v:ud v:nameU="msvSDContainerExcludedCategories" v:prompt="" v:val="VT4(DoNotContain)"/>
				<v:ud v:nameU="msvSDHeadingStyle" v:prompt="" v:val="VT0(1):26"/>
				<v:ud v:nameU="msvSDHeadingStyleCount" v:prompt="" v:val="VT0(4):26"/>
				<v:ud v:nameU="HeadingSide" v:prompt="" v:val="VT0(0):26"/>
				<v:ud v:nameU="HeadingSpan" v:prompt="" v:val="VT0(0):26"/>
				<v:ud v:nameU="HeadingAlign" v:prompt="" v:val="VT0(0):26"/>
				<v:ud v:nameU="RTL" v:prompt="" v:val="VT0(0):5"/>
				<v:ud v:nameU="FnForceContrast" v:prompt="" v:val="VT5(#ffffff)"/>
				<v:ud v:nameU="BaseColor" v:prompt="" v:val="VT0(1):26"/>
				<v:ud v:nameU="HColor1" v:prompt="" v:val="VT5(#ffffff)"/>
				<v:ud v:nameU="HColor2" v:prompt="" v:val="VT5(#fefefe)"/>
				<v:ud v:nameU="HColor3" v:prompt="" v:val="VT5(#e9e9e9)"/>
				<v:ud v:nameU="HColor4" v:prompt="" v:val="VT5(#efefef)"/>
				<v:ud v:nameU="BColor1" v:prompt="" v:val="VT5(#ffffff)"/>
				<v:ud v:nameU="BColor2" v:prompt="" v:val="VT5(#ffffff)"/>
				<v:ud v:nameU="LineColor" v:prompt="" v:val="VT5(#d5d5d5)"/>
				<v:ud v:nameU="visVersion" v:prompt="" v:val="VT0(15):26"/>
				<v:ud v:nameU="Embellishment" v:prompt="" v:val="VT0(2):26"/>
				<v:ud v:nameU="BaseColor" v:prompt="" v:val="VT5(#c7c7c7)"/>
				<v:ud v:nameU="HColor1" v:prompt="" v:val="VT5(#eeeeee)"/>
				<v:ud v:nameU="HColor2" v:prompt="" v:val="VT5(#d7d7d7)"/>
				<v:ud v:nameU="HColor3" v:prompt="" v:val="VT5(#bababa)"/>
				<v:ud v:nameU="HColor4" v:prompt="" v:val="VT5(#d7d7d7)"/>
				<v:ud v:nameU="BColor1" v:prompt="" v:val="VT5(#f7f7f7)"/>
				<v:ud v:nameU="BColor2" v:prompt="" v:val="VT5(#efefef)"/>
				<v:ud v:nameU="LineColor" v:prompt="" v:val="VT5(#9c9c9c)"/>
			</v:userDefs>
			<title>Sans couleur.41</title>
			<g id="group42-48" v:mID="42" v:groupContext="group" v:layerMember="1">
				<v:userDefs>
					<v:ud v:nameU="msvStructureType" v:prompt="" v:val="VT0(0):26"/>
					<v:ud v:nameU="CStyle" v:prompt="" v:val="VT0(1):26"/>
					<v:ud v:nameU="HSide" v:prompt="" v:val="VT0(0):26"/>
					<v:ud v:nameU="HSpan" v:prompt="" v:val="VT0(0):26"/>
					<v:ud v:nameU="HAlign" v:prompt="" v:val="VT0(0):26"/>
					<v:ud v:nameU="HorzAlign" v:prompt="" v:val="VT0(0):26"/>
					<v:ud v:nameU="SquareCorners" v:prompt="" v:val="VT0(0):26"/>
					<v:ud v:nameU="Corner6" v:prompt="" v:val="VT0(0.19685039370079):24"/>
					<v:ud v:nameU="FillForegndIn" v:prompt="" v:val="VT0(1):26"/>
					<v:ud v:nameU="FillBkgndIn" v:prompt="" v:val="VT0(0):26"/>
					<v:ud v:nameU="FillPatternIn" v:prompt="" v:val="VT0(1):26"/>
					<v:ud v:nameU="BaseColor" v:prompt="" v:val="VT0(1):26"/>
					<v:ud v:nameU="BackFillColor" v:prompt="" v:val="VT5(#96afcf)"/>
					<v:ud v:nameU="BackLineColor" v:prompt="" v:val="VT5(#1f477d)"/>
					<v:ud v:nameU="DarkerColor" v:prompt="" v:val="VT5(#1f477d)"/>
					<v:ud v:nameU="FillForegndIn" v:prompt="" v:val="VT5(#ffffff)"/>
					<v:ud v:nameU="FillBkgndIn" v:prompt="" v:val="VT5(#c7c7c7)"/>
					<v:ud v:nameU="FillPatternIn" v:prompt="" v:val="VT0(1):26"/>
					<v:ud v:nameU="BaseColor" v:prompt="" v:val="VT5(#ffffff)"/>
					<v:ud v:nameU="BackFillColor" v:prompt="" v:val="VT5(#4f88bb)"/>
					<v:ud v:nameU="BackLineColor" v:prompt="" v:val="VT5(#41719c)"/>
					<v:ud v:nameU="DarkerColor" v:prompt="" v:val="VT5(#41719c)"/>
				</v:userDefs>
				<title>Feuille.42</title>
				<g id="shape43-49" v:mID="43" v:groupContext="shape" v:layerMember="1" transform="translate(2.83465,2.83465)">
					<title>Feuille.43</title>
					<v:userDefs>
						<v:ud v:nameU="msvStructureType" v:prompt="" v:val="VT0(0):26"/>
						<v:ud v:nameU="msvThemeColors" v:prompt="" v:val="VT0(0):26"/>
						<v:ud v:nameU="msvThemeEffects" v:prompt="" v:val="VT0(0):26"/>
						<v:ud v:nameU="CStyle" v:prompt="" v:val="VT0(1):26"/>
						<v:ud v:nameU="HSide" v:prompt="" v:val="VT0(0):26"/>
						<v:ud v:nameU="HSpan" v:prompt="" v:val="VT0(0):26"/>
						<v:ud v:nameU="HAlign" v:prompt="" v:val="VT0(0):26"/>
						<v:ud v:nameU="HorzAlign" v:prompt="" v:val="VT0(0):26"/>
						<v:ud v:nameU="SquareCorners" v:prompt="" v:val="VT0(0):26"/>
						<v:ud v:nameU="OffsetX10" v:prompt="" v:val="VT0(0.039370078740157):24"/>
						<v:ud v:nameU="OffsetY10" v:prompt="" v:val="VT0(-0.039370078740157):24"/>
						<v:ud v:nameU="BackFillColor" v:prompt="" v:val="VT5(#96afcf)"/>
						<v:ud v:nameU="BackLineColor" v:prompt="" v:val="VT5(#1f477d)"/>
						<v:ud v:nameU="DarkerColor" v:prompt="" v:val="VT5(#1f477d)"/>
					</v:userDefs>
					<g id="shadow43-50" v:groupContext="shadow" v:shadowOffsetX="0.3456" v:shadowOffsetY="-1.9728" v:shadowType="1"
							transform="matrix(1,0,0,1,0.3456,1.9728)" class="st1"/>
				</g>
				<g id="shape42-54" v:mID="42" v:groupContext="groupContent" v:layerMember="1">
					<g id="shadow42-55" v:groupContext="shadow" v:shadowOffsetX="0.3456" v:shadowOffsetY="-1.9728" v:shadowType="1"
							transform="matrix(1,0,0,1,0.3456,1.9728)" class="st1">
						<path d="M0 586.86 L121.14 586.86 L242.28 586.86 L242.28 334.7 L121.14 334.7 L0 334.7 L0 586.86 Z"
								class="st2"/>
					</g>
					<path d="M0 586.86 L121.14 586.86 L242.28 586.86 L242.28 334.7 L121.14 334.7 L0 334.7 L0 586.86 Z" class="st3"/>
				</g>
			</g>
			<g id="group44-59" transform="translate(0,-226.656)" v:mID="44" v:groupContext="group" v:layerMember="1">
				<v:userDefs>
					<v:ud v:nameU="msvStructureType" v:prompt="" v:val="VT4(Heading)"/>
					<v:ud v:nameU="CStyle" v:prompt="" v:val="VT0(1):26"/>
					<v:ud v:nameU="HSide" v:prompt="" v:val="VT0(0):26"/>
					<v:ud v:nameU="HSpan" v:prompt="" v:val="VT0(0):26"/>
					<v:ud v:nameU="HAlign" v:prompt="" v:val="VT0(0):26"/>
					<v:ud v:nameU="Hidden" v:prompt="" v:val="VT0(0):5"/>
					<v:ud v:nameU="HorzAlign" v:prompt="" v:val="VT0(0):26"/>
					<v:ud v:nameU="Rounding" v:prompt="" v:val="VT0(0):1"/>
					<v:ud v:nameU="SquareCorners" v:prompt="" v:val="VT0(3):26"/>
					<v:ud v:nameU="Inset" v:prompt="" v:val="VT0(0):24"/>
					<v:ud v:nameU="InsideRadius" v:prompt="" v:val="VT0(0):24"/>
					<v:ud v:nameU="InsetXInt" v:prompt="" v:val="VT0(0):24"/>
					<v:ud v:nameU="HTxtMargin" v:prompt="" v:val="VT0(0.059055118110236):24"/>
					<v:ud v:nameU="HTxtWidth" v:prompt="" v:val="VT0(2.9527559055118):24"/>
					<v:ud v:nameU="HLeft" v:prompt="" v:val="VT0(0):26"/>
					<v:ud v:nameU="HRight" v:prompt="" v:val="VT0(2.9527559055118):24"/>
					<v:ud v:nameU="SquareCorners7" v:prompt="" v:val="VT0(3):26"/>
					<v:ud v:nameU="Offset" v:prompt="" v:val="VT0(0):26"/>
					<v:ud v:nameU="Rounding8" v:prompt="" v:val="VT0(0.11811023622047):24"/>
					<v:ud v:nameU="InsetX9" v:prompt="" v:val="VT0(0):26"/>
					<v:ud v:nameU="InsetY9" v:prompt="" v:val="VT0(0):26"/>
					<v:ud v:nameU="OffsetY11" v:prompt="" v:val="VT0(0):26"/>
					<v:ud v:nameU="OffsetY12" v:prompt="" v:val="VT0(0):26"/>
					<v:ud v:nameU="Width12" v:prompt="" v:val="VT0(0):26"/>
					<v:ud v:nameU="msvSDContainerHeadingEdge" v:prompt="" v:val="VT4(Bottom)"/>
					<v:ud v:nameU="HLineVisible" v:prompt="" v:val="VT0(0):5"/>
					<v:ud v:nameU="HFillVisible" v:prompt="" v:val="VT0(0):5"/>
					<v:ud v:nameU="FillForegndIn" v:prompt="" v:val="VT5(#ffffff)"/>
					<v:ud v:nameU="FillBkgndIn" v:prompt="" v:val="VT0(1):26"/>
					<v:ud v:nameU="BaseColor" v:prompt="" v:val="VT0(1):26"/>
					<v:ud v:nameU="FillPatternIn" v:prompt="" v:val="VT0(30):26"/>
					<v:ud v:nameU="BackFillColor" v:prompt="" v:val="VT5(#96afcf)"/>
					<v:ud v:nameU="BackLineColor" v:prompt="" v:val="VT5(#1f477d)"/>
					<v:ud v:nameU="BackCharColor" v:prompt="" v:val="VT5(#000000)"/>
					<v:ud v:nameU="DarkerColor" v:prompt="" v:val="VT5(#000000)"/>
					<v:ud v:nameU="HTxtWidth" v:prompt="" v:val="VT0(3.3650583048981):1"/>
					<v:ud v:nameU="HRight" v:prompt="" v:val="VT0(3.3650583048981):1"/>
					<v:ud v:nameU="FillForegndIn" v:prompt="" v:val="VT5(#c7c7c7)"/>
					<v:ud v:nameU="FillBkgndIn" v:prompt="" v:val="VT5(#ffffff)"/>
					<v:ud v:nameU="BaseColor" v:prompt="" v:val="VT5(#c7c7c7)"/>
					<v:ud v:nameU="FillPatternIn" v:prompt="" v:val="VT0(1):26"/>
					<v:ud v:nameU="BackFillColor" v:prompt="" v:val="VT5(#4f88bb)"/>
					<v:ud v:nameU="BackLineColor" v:prompt="" v:val="VT5(#41719c)"/>
					<v:ud v:nameU="BackCharColor" v:prompt="" v:val="VT5(#feffff)"/>
					<v:ud v:nameU="DarkerColor" v:prompt="" v:val="VT5(#41719c)"/>
				</v:userDefs>
				<title>Feuille.44</title>
				<desc>ExploreDOE</desc>
				<g id="shape45-60" v:mID="45" v:groupContext="shape" v:layerMember="1">
					<title>Feuille.45</title>
					<v:userDefs>
						<v:ud v:nameU="msvStructureType" v:prompt="" v:val="VT0(0):26"/>
						<v:ud v:nameU="msvThemeColors" v:prompt="" v:val="VT0(0):26"/>
						<v:ud v:nameU="msvThemeEffects" v:prompt="" v:val="VT0(0):26"/>
						<v:ud v:nameU="CStyle" v:prompt="" v:val="VT0(1):26"/>
						<v:ud v:nameU="Rounding" v:prompt="" v:val="VT0(0):1"/>
						<v:ud v:nameU="SquareCorners" v:prompt="" v:val="VT0(3):26"/>
						<v:ud v:nameU="HLeft" v:prompt="" v:val="VT0(0):26"/>
						<v:ud v:nameU="HRight" v:prompt="" v:val="VT0(2.9527559055118):24"/>
						<v:ud v:nameU="Hidden" v:prompt="" v:val="VT0(0):5"/>
						<v:ud v:nameU="BowHeight7" v:prompt="" v:val="VT0(0.11811023622047):24"/>
						<v:ud v:nameU="Offset7" v:prompt="" v:val="VT0(0.0052083333333333):3"/>
						<v:ud v:nameU="AnchorPt7" v:prompt="" v:val="VT0(0.64439796587927):24"/>
						<v:ud v:nameU="HSide" v:prompt="" v:val="VT0(0):26"/>
						<v:ud v:nameU="HAlign" v:prompt="" v:val="VT0(0):26"/>
						<v:ud v:nameU="HRight" v:prompt="" v:val="VT0(3.3650583048981):1"/>
						<v:ud v:nameU="Offset7" v:prompt="" v:val="VT0(0.0052083333333333):29"/>
					</v:userDefs>
					<g id="shadow45-61" v:groupContext="shadow" v:shadowOffsetX="0.345598" v:shadowOffsetY="-1.97279"
							v:shadowType="1" transform="matrix(1,0,0,1,0.345598,1.97279)" class="st1"/>
				</g>
				<g id="shape44-66" v:mID="44" v:groupContext="groupContent" v:layerMember="1">
					<v:textBlock v:margins="rect(4,6,4,6)" v:tabSpace="42.5197"/>
					<v:textRect cx="121.142" cy="574.107" width="242.29" height="25.5118"/>
					<text x="6" y="577.71" class="st5" v:langID="1036"><v:paragraph/><v:tabList/>ExploreDOE</text>				</g>
			</g>
		</g>
		<g id="group54-69" transform="translate(714.178,-173.325)" v:mID="54" v:groupContext="group" v:layerMember="1">
			<v:userDefs>
				<v:ud v:nameU="msvShapeCategories" v:prompt="" v:val="VT4(ContainerStyleDefaults)"/>
				<v:ud v:nameU="msvStructureType" v:prompt="" v:val="VT4(Container)"/>
				<v:ud v:nameU="msvSDContainerMargin" v:prompt="" v:val="VT0(0.11811023622047):24"/>
				<v:ud v:nameU="msvSDContainerResize" v:prompt="" v:val="VT0(1):26"/>
				<v:ud v:nameU="msvSDContainerLocked" v:prompt="" v:val="VT0(0):5"/>
				<v:ud v:nameU="msvSDContainerNoHighlight" v:prompt="" v:val="VT0(0):5"/>
				<v:ud v:nameU="msvSDContainerNoRibbon" v:prompt="" v:val="VT0(0):5"/>
				<v:ud v:nameU="msvSDContainerStyle" v:prompt="" v:val="VT0(1):26"/>
				<v:ud v:nameU="msvSDContainerStyleCount" v:prompt="" v:val="VT0(14):26"/>
				<v:ud v:nameU="msvSDContainerRequiredCategories" v:prompt="" v:val="VT0(0):26"/>
				<v:ud v:nameU="msvSDContainerExcludedCategories" v:prompt="" v:val="VT4(DoNotContain)"/>
				<v:ud v:nameU="msvSDHeadingStyle" v:prompt="" v:val="VT0(1):26"/>
				<v:ud v:nameU="msvSDHeadingStyleCount" v:prompt="" v:val="VT0(4):26"/>
				<v:ud v:nameU="HeadingSide" v:prompt="" v:val="VT0(0):26"/>
				<v:ud v:nameU="HeadingSpan" v:prompt="" v:val="VT0(0):26"/>
				<v:ud v:nameU="HeadingAlign" v:prompt="" v:val="VT0(0):26"/>
				<v:ud v:nameU="RTL" v:prompt="" v:val="VT0(0):5"/>
				<v:ud v:nameU="FnForceContrast" v:prompt="" v:val="VT5(#ffffff)"/>
				<v:ud v:nameU="BaseColor" v:prompt="" v:val="VT0(1):26"/>
				<v:ud v:nameU="HColor1" v:prompt="" v:val="VT5(#ffffff)"/>
				<v:ud v:nameU="HColor2" v:prompt="" v:val="VT5(#fefefe)"/>
				<v:ud v:nameU="HColor3" v:prompt="" v:val="VT5(#e9e9e9)"/>
				<v:ud v:nameU="HColor4" v:prompt="" v:val="VT5(#efefef)"/>
				<v:ud v:nameU="BColor1" v:prompt="" v:val="VT5(#ffffff)"/>
				<v:ud v:nameU="BColor2" v:prompt="" v:val="VT5(#ffffff)"/>
				<v:ud v:nameU="LineColor" v:prompt="" v:val="VT5(#d5d5d5)"/>
				<v:ud v:nameU="visVersion" v:prompt="" v:val="VT0(15):26"/>
				<v:ud v:nameU="Embellishment" v:prompt="" v:val="VT0(2):26"/>
				<v:ud v:nameU="BaseColor" v:prompt="" v:val="VT5(#c7c7c7)"/>
				<v:ud v:nameU="HColor1" v:prompt="" v:val="VT5(#eeeeee)"/>
				<v:ud v:nameU="HColor2" v:prompt="" v:val="VT5(#d7d7d7)"/>
				<v:ud v:nameU="HColor3" v:prompt="" v:val="VT5(#bababa)"/>
				<v:ud v:nameU="HColor4" v:prompt="" v:val="VT5(#d7d7d7)"/>
				<v:ud v:nameU="BColor1" v:prompt="" v:val="VT5(#f7f7f7)"/>
				<v:ud v:nameU="BColor2" v:prompt="" v:val="VT5(#efefef)"/>
				<v:ud v:nameU="LineColor" v:prompt="" v:val="VT5(#9c9c9c)"/>
			</v:userDefs>
			<title>Sans couleur.54</title>
			<g id="group55-70" v:mID="55" v:groupContext="group" v:layerMember="1">
				<v:userDefs>
					<v:ud v:nameU="msvStructureType" v:prompt="" v:val="VT0(0):26"/>
					<v:ud v:nameU="CStyle" v:prompt="" v:val="VT0(1):26"/>
					<v:ud v:nameU="HSide" v:prompt="" v:val="VT0(0):26"/>
					<v:ud v:nameU="HSpan" v:prompt="" v:val="VT0(0):26"/>
					<v:ud v:nameU="HAlign" v:prompt="" v:val="VT0(0):26"/>
					<v:ud v:nameU="HorzAlign" v:prompt="" v:val="VT0(0):26"/>
					<v:ud v:nameU="SquareCorners" v:prompt="" v:val="VT0(0):26"/>
					<v:ud v:nameU="Corner6" v:prompt="" v:val="VT0(0.19685039370079):24"/>
					<v:ud v:nameU="FillForegndIn" v:prompt="" v:val="VT0(1):26"/>
					<v:ud v:nameU="FillBkgndIn" v:prompt="" v:val="VT0(0):26"/>
					<v:ud v:nameU="FillPatternIn" v:prompt="" v:val="VT0(1):26"/>
					<v:ud v:nameU="BaseColor" v:prompt="" v:val="VT0(1):26"/>
					<v:ud v:nameU="BackFillColor" v:prompt="" v:val="VT5(#96afcf)"/>
					<v:ud v:nameU="BackLineColor" v:prompt="" v:val="VT5(#1f477d)"/>
					<v:ud v:nameU="DarkerColor" v:prompt="" v:val="VT5(#1f477d)"/>
					<v:ud v:nameU="FillForegndIn" v:prompt="" v:val="VT5(#ffffff)"/>
					<v:ud v:nameU="FillBkgndIn" v:prompt="" v:val="VT5(#c7c7c7)"/>
					<v:ud v:nameU="FillPatternIn" v:prompt="" v:val="VT0(1):26"/>
					<v:ud v:nameU="BaseColor" v:prompt="" v:val="VT5(#ffffff)"/>
					<v:ud v:nameU="BackFillColor" v:prompt="" v:val="VT5(#4f88bb)"/>
					<v:ud v:nameU="BackLineColor" v:prompt="" v:val="VT5(#41719c)"/>
					<v:ud v:nameU="DarkerColor" v:prompt="" v:val="VT5(#41719c)"/>
				</v:userDefs>
				<title>Feuille.55</title>
				<g id="shape56-71" v:mID="56" v:groupContext="shape" v:layerMember="1" transform="translate(2.83465,2.83465)">
					<title>Feuille.56</title>
					<v:userDefs>
						<v:ud v:nameU="msvStructureType" v:prompt="" v:val="VT0(0):26"/>
						<v:ud v:nameU="msvThemeColors" v:prompt="" v:val="VT0(0):26"/>
						<v:ud v:nameU="msvThemeEffects" v:prompt="" v:val="VT0(0):26"/>
						<v:ud v:nameU="CStyle" v:prompt="" v:val="VT0(1):26"/>
						<v:ud v:nameU="HSide" v:prompt="" v:val="VT0(0):26"/>
						<v:ud v:nameU="HSpan" v:prompt="" v:val="VT0(0):26"/>
						<v:ud v:nameU="HAlign" v:prompt="" v:val="VT0(0):26"/>
						<v:ud v:nameU="HorzAlign" v:prompt="" v:val="VT0(0):26"/>
						<v:ud v:nameU="SquareCorners" v:prompt="" v:val="VT0(0):26"/>
						<v:ud v:nameU="OffsetX10" v:prompt="" v:val="VT0(0.039370078740157):24"/>
						<v:ud v:nameU="OffsetY10" v:prompt="" v:val="VT0(-0.039370078740157):24"/>
						<v:ud v:nameU="BackFillColor" v:prompt="" v:val="VT5(#96afcf)"/>
						<v:ud v:nameU="BackLineColor" v:prompt="" v:val="VT5(#1f477d)"/>
						<v:ud v:nameU="DarkerColor" v:prompt="" v:val="VT5(#1f477d)"/>
					</v:userDefs>
					<g id="shadow56-72" v:groupContext="shadow" v:shadowOffsetX="0.3456" v:shadowOffsetY="-1.9728" v:shadowType="1"
							transform="matrix(1,0,0,1,0.3456,1.9728)" class="st1"/>
				</g>
				<g id="shape55-76" v:mID="55" v:groupContext="groupContent" v:layerMember="1">
					<g id="shadow55-77" v:groupContext="shadow" v:shadowOffsetX="0.3456" v:shadowOffsetY="-1.9728" v:shadowType="1"
							transform="matrix(1,0,0,1,0.3456,1.9728)" class="st1">
						<path d="M0 586.86 L192.01 586.86 L384.02 586.86 L384.02 333.61 L192.01 333.61 L0 333.61 L0 586.86 Z"
								class="st2"/>
					</g>
					<path d="M0 586.86 L192.01 586.86 L384.02 586.86 L384.02 333.61 L192.01 333.61 L0 333.61 L0 586.86 Z"
							class="st3"/>
				</g>
			</g>
			<g id="group57-81" transform="translate(0,-227.738)" v:mID="57" v:groupContext="group" v:layerMember="1">
				<v:userDefs>
					<v:ud v:nameU="msvStructureType" v:prompt="" v:val="VT4(Heading)"/>
					<v:ud v:nameU="CStyle" v:prompt="" v:val="VT0(1):26"/>
					<v:ud v:nameU="HSide" v:prompt="" v:val="VT0(0):26"/>
					<v:ud v:nameU="HSpan" v:prompt="" v:val="VT0(0):26"/>
					<v:ud v:nameU="HAlign" v:prompt="" v:val="VT0(0):26"/>
					<v:ud v:nameU="Hidden" v:prompt="" v:val="VT0(0):5"/>
					<v:ud v:nameU="HorzAlign" v:prompt="" v:val="VT0(0):26"/>
					<v:ud v:nameU="Rounding" v:prompt="" v:val="VT0(0):1"/>
					<v:ud v:nameU="SquareCorners" v:prompt="" v:val="VT0(3):26"/>
					<v:ud v:nameU="Inset" v:prompt="" v:val="VT0(0):24"/>
					<v:ud v:nameU="InsideRadius" v:prompt="" v:val="VT0(0):24"/>
					<v:ud v:nameU="InsetXInt" v:prompt="" v:val="VT0(0):24"/>
					<v:ud v:nameU="HTxtMargin" v:prompt="" v:val="VT0(0.059055118110236):24"/>
					<v:ud v:nameU="HTxtWidth" v:prompt="" v:val="VT0(2.9527559055118):24"/>
					<v:ud v:nameU="HLeft" v:prompt="" v:val="VT0(0):26"/>
					<v:ud v:nameU="HRight" v:prompt="" v:val="VT0(2.9527559055118):24"/>
					<v:ud v:nameU="SquareCorners7" v:prompt="" v:val="VT0(3):26"/>
					<v:ud v:nameU="Offset" v:prompt="" v:val="VT0(0):26"/>
					<v:ud v:nameU="Rounding8" v:prompt="" v:val="VT0(0.11811023622047):24"/>
					<v:ud v:nameU="InsetX9" v:prompt="" v:val="VT0(0):26"/>
					<v:ud v:nameU="InsetY9" v:prompt="" v:val="VT0(0):26"/>
					<v:ud v:nameU="OffsetY11" v:prompt="" v:val="VT0(0):26"/>
					<v:ud v:nameU="OffsetY12" v:prompt="" v:val="VT0(0):26"/>
					<v:ud v:nameU="Width12" v:prompt="" v:val="VT0(0):26"/>
					<v:ud v:nameU="msvSDContainerHeadingEdge" v:prompt="" v:val="VT4(Bottom)"/>
					<v:ud v:nameU="HLineVisible" v:prompt="" v:val="VT0(0):5"/>
					<v:ud v:nameU="HFillVisible" v:prompt="" v:val="VT0(0):5"/>
					<v:ud v:nameU="FillForegndIn" v:prompt="" v:val="VT5(#ffffff)"/>
					<v:ud v:nameU="FillBkgndIn" v:prompt="" v:val="VT0(1):26"/>
					<v:ud v:nameU="BaseColor" v:prompt="" v:val="VT0(1):26"/>
					<v:ud v:nameU="FillPatternIn" v:prompt="" v:val="VT0(30):26"/>
					<v:ud v:nameU="BackFillColor" v:prompt="" v:val="VT5(#96afcf)"/>
					<v:ud v:nameU="BackLineColor" v:prompt="" v:val="VT5(#1f477d)"/>
					<v:ud v:nameU="BackCharColor" v:prompt="" v:val="VT5(#000000)"/>
					<v:ud v:nameU="DarkerColor" v:prompt="" v:val="VT5(#000000)"/>
					<v:ud v:nameU="HTxtWidth" v:prompt="" v:val="VT0(5.333562241906):1"/>
					<v:ud v:nameU="HRight" v:prompt="" v:val="VT0(5.333562241906):1"/>
					<v:ud v:nameU="FillForegndIn" v:prompt="" v:val="VT5(#c7c7c7)"/>
					<v:ud v:nameU="FillBkgndIn" v:prompt="" v:val="VT5(#ffffff)"/>
					<v:ud v:nameU="BaseColor" v:prompt="" v:val="VT5(#c7c7c7)"/>
					<v:ud v:nameU="FillPatternIn" v:prompt="" v:val="VT0(1):26"/>
					<v:ud v:nameU="BackFillColor" v:prompt="" v:val="VT5(#4f88bb)"/>
					<v:ud v:nameU="BackLineColor" v:prompt="" v:val="VT5(#41719c)"/>
					<v:ud v:nameU="BackCharColor" v:prompt="" v:val="VT5(#feffff)"/>
					<v:ud v:nameU="DarkerColor" v:prompt="" v:val="VT5(#41719c)"/>
				</v:userDefs>
				<title>Feuille.57</title>
				<desc>ImportDOE</desc>
				<g id="shape58-82" v:mID="58" v:groupContext="shape" v:layerMember="1">
					<title>Feuille.58</title>
					<v:userDefs>
						<v:ud v:nameU="msvStructureType" v:prompt="" v:val="VT0(0):26"/>
						<v:ud v:nameU="msvThemeColors" v:prompt="" v:val="VT0(0):26"/>
						<v:ud v:nameU="msvThemeEffects" v:prompt="" v:val="VT0(0):26"/>
						<v:ud v:nameU="CStyle" v:prompt="" v:val="VT0(1):26"/>
						<v:ud v:nameU="Rounding" v:prompt="" v:val="VT0(0):1"/>
						<v:ud v:nameU="SquareCorners" v:prompt="" v:val="VT0(3):26"/>
						<v:ud v:nameU="HLeft" v:prompt="" v:val="VT0(0):26"/>
						<v:ud v:nameU="HRight" v:prompt="" v:val="VT0(2.9527559055118):24"/>
						<v:ud v:nameU="Hidden" v:prompt="" v:val="VT0(0):5"/>
						<v:ud v:nameU="BowHeight7" v:prompt="" v:val="VT0(0.11811023622047):24"/>
						<v:ud v:nameU="Offset7" v:prompt="" v:val="VT0(0.0052083333333333):3"/>
						<v:ud v:nameU="AnchorPt7" v:prompt="" v:val="VT0(0.64439796587927):24"/>
						<v:ud v:nameU="HSide" v:prompt="" v:val="VT0(0):26"/>
						<v:ud v:nameU="HAlign" v:prompt="" v:val="VT0(0):26"/>
						<v:ud v:nameU="HRight" v:prompt="" v:val="VT0(5.333562241906):1"/>
						<v:ud v:nameU="Offset7" v:prompt="" v:val="VT0(0.0052083333333333):29"/>
					</v:userDefs>
					<g id="shadow58-83" v:groupContext="shadow" v:shadowOffsetX="0.345598" v:shadowOffsetY="-1.97279"
							v:shadowType="1" transform="matrix(1,0,0,1,0.345598,1.97279)" class="st1"/>
				</g>
				<g id="shape57-88" v:mID="57" v:groupContext="groupContent" v:layerMember="1">
					<v:textBlock v:margins="rect(4,6,4,6)" v:tabSpace="42.5197"/>
					<v:textRect cx="192.008" cy="574.107" width="384.02" height="25.5118"/>
					<text x="6" y="577.71" class="st5" v:langID="1036"><v:paragraph/><v:tabList/>ImportDOE</text>				</g>
			</g>
		</g>
		<g id="group74-91" transform="translate(1126.54,-164.694)" v:mID="74" v:groupContext="group" v:layerMember="1">
			<v:userDefs>
				<v:ud v:nameU="msvShapeCategories" v:prompt="" v:val="VT4(ContainerStyleDefaults)"/>
				<v:ud v:nameU="msvStructureType" v:prompt="" v:val="VT4(Container)"/>
				<v:ud v:nameU="msvSDContainerMargin" v:prompt="" v:val="VT0(0.11811023622047):24"/>
				<v:ud v:nameU="msvSDContainerResize" v:prompt="" v:val="VT0(1):26"/>
				<v:ud v:nameU="msvSDContainerLocked" v:prompt="" v:val="VT0(0):5"/>
				<v:ud v:nameU="msvSDContainerNoHighlight" v:prompt="" v:val="VT0(0):5"/>
				<v:ud v:nameU="msvSDContainerNoRibbon" v:prompt="" v:val="VT0(0):5"/>
				<v:ud v:nameU="msvSDContainerStyle" v:prompt="" v:val="VT0(1):26"/>
				<v:ud v:nameU="msvSDContainerStyleCount" v:prompt="" v:val="VT0(14):26"/>
				<v:ud v:nameU="msvSDContainerRequiredCategories" v:prompt="" v:val="VT0(0):26"/>
				<v:ud v:nameU="msvSDContainerExcludedCategories" v:prompt="" v:val="VT4(DoNotContain)"/>
				<v:ud v:nameU="msvSDHeadingStyle" v:prompt="" v:val="VT0(1):26"/>
				<v:ud v:nameU="msvSDHeadingStyleCount" v:prompt="" v:val="VT0(4):26"/>
				<v:ud v:nameU="HeadingSide" v:prompt="" v:val="VT0(0):26"/>
				<v:ud v:nameU="HeadingSpan" v:prompt="" v:val="VT0(0):26"/>
				<v:ud v:nameU="HeadingAlign" v:prompt="" v:val="VT0(0):26"/>
				<v:ud v:nameU="RTL" v:prompt="" v:val="VT0(0):5"/>
				<v:ud v:nameU="FnForceContrast" v:prompt="" v:val="VT5(#ffffff)"/>
				<v:ud v:nameU="BaseColor" v:prompt="" v:val="VT0(1):26"/>
				<v:ud v:nameU="HColor1" v:prompt="" v:val="VT5(#ffffff)"/>
				<v:ud v:nameU="HColor2" v:prompt="" v:val="VT5(#fefefe)"/>
				<v:ud v:nameU="HColor3" v:prompt="" v:val="VT5(#e9e9e9)"/>
				<v:ud v:nameU="HColor4" v:prompt="" v:val="VT5(#efefef)"/>
				<v:ud v:nameU="BColor1" v:prompt="" v:val="VT5(#ffffff)"/>
				<v:ud v:nameU="BColor2" v:prompt="" v:val="VT5(#ffffff)"/>
				<v:ud v:nameU="LineColor" v:prompt="" v:val="VT5(#d5d5d5)"/>
				<v:ud v:nameU="visVersion" v:prompt="" v:val="VT0(15):26"/>
				<v:ud v:nameU="Embellishment" v:prompt="" v:val="VT0(2):26"/>
				<v:ud v:nameU="BaseColor" v:prompt="" v:val="VT5(#c7c7c7)"/>
				<v:ud v:nameU="HColor1" v:prompt="" v:val="VT5(#eeeeee)"/>
				<v:ud v:nameU="HColor2" v:prompt="" v:val="VT5(#d7d7d7)"/>
				<v:ud v:nameU="HColor3" v:prompt="" v:val="VT5(#bababa)"/>
				<v:ud v:nameU="HColor4" v:prompt="" v:val="VT5(#d7d7d7)"/>
				<v:ud v:nameU="BColor1" v:prompt="" v:val="VT5(#f7f7f7)"/>
				<v:ud v:nameU="BColor2" v:prompt="" v:val="VT5(#efefef)"/>
				<v:ud v:nameU="LineColor" v:prompt="" v:val="VT5(#9c9c9c)"/>
			</v:userDefs>
			<title>Sans couleur.74</title>
			<g id="group75-92" v:mID="75" v:groupContext="group" v:layerMember="1">
				<v:userDefs>
					<v:ud v:nameU="msvStructureType" v:prompt="" v:val="VT0(0):26"/>
					<v:ud v:nameU="CStyle" v:prompt="" v:val="VT0(1):26"/>
					<v:ud v:nameU="HSide" v:prompt="" v:val="VT0(0):26"/>
					<v:ud v:nameU="HSpan" v:prompt="" v:val="VT0(0):26"/>
					<v:ud v:nameU="HAlign" v:prompt="" v:val="VT0(0):26"/>
					<v:ud v:nameU="HorzAlign" v:prompt="" v:val="VT0(0):26"/>
					<v:ud v:nameU="SquareCorners" v:prompt="" v:val="VT0(0):26"/>
					<v:ud v:nameU="Corner6" v:prompt="" v:val="VT0(0.19685039370079):24"/>
					<v:ud v:nameU="FillForegndIn" v:prompt="" v:val="VT0(1):26"/>
					<v:ud v:nameU="FillBkgndIn" v:prompt="" v:val="VT0(0):26"/>
					<v:ud v:nameU="FillPatternIn" v:prompt="" v:val="VT0(1):26"/>
					<v:ud v:nameU="BaseColor" v:prompt="" v:val="VT0(1):26"/>
					<v:ud v:nameU="BackFillColor" v:prompt="" v:val="VT5(#96afcf)"/>
					<v:ud v:nameU="BackLineColor" v:prompt="" v:val="VT5(#1f477d)"/>
					<v:ud v:nameU="DarkerColor" v:prompt="" v:val="VT5(#1f477d)"/>
					<v:ud v:nameU="FillForegndIn" v:prompt="" v:val="VT5(#ffffff)"/>
					<v:ud v:nameU="FillBkgndIn" v:prompt="" v:val="VT5(#c7c7c7)"/>
					<v:ud v:nameU="FillPatternIn" v:prompt="" v:val="VT0(1):26"/>
					<v:ud v:nameU="BaseColor" v:prompt="" v:val="VT5(#ffffff)"/>
					<v:ud v:nameU="BackFillColor" v:prompt="" v:val="VT5(#4f88bb)"/>
					<v:ud v:nameU="BackLineColor" v:prompt="" v:val="VT5(#41719c)"/>
					<v:ud v:nameU="DarkerColor" v:prompt="" v:val="VT5(#41719c)"/>
				</v:userDefs>
				<title>Feuille.75</title>
				<g id="shape76-93" v:mID="76" v:groupContext="shape" v:layerMember="1" transform="translate(2.83465,2.83465)">
					<title>Feuille.76</title>
					<v:userDefs>
						<v:ud v:nameU="msvStructureType" v:prompt="" v:val="VT0(0):26"/>
						<v:ud v:nameU="msvThemeColors" v:prompt="" v:val="VT0(0):26"/>
						<v:ud v:nameU="msvThemeEffects" v:prompt="" v:val="VT0(0):26"/>
						<v:ud v:nameU="CStyle" v:prompt="" v:val="VT0(1):26"/>
						<v:ud v:nameU="HSide" v:prompt="" v:val="VT0(0):26"/>
						<v:ud v:nameU="HSpan" v:prompt="" v:val="VT0(0):26"/>
						<v:ud v:nameU="HAlign" v:prompt="" v:val="VT0(0):26"/>
						<v:ud v:nameU="HorzAlign" v:prompt="" v:val="VT0(0):26"/>
						<v:ud v:nameU="SquareCorners" v:prompt="" v:val="VT0(0):26"/>
						<v:ud v:nameU="OffsetX10" v:prompt="" v:val="VT0(0.039370078740157):24"/>
						<v:ud v:nameU="OffsetY10" v:prompt="" v:val="VT0(-0.039370078740157):24"/>
						<v:ud v:nameU="BackFillColor" v:prompt="" v:val="VT5(#96afcf)"/>
						<v:ud v:nameU="BackLineColor" v:prompt="" v:val="VT5(#1f477d)"/>
						<v:ud v:nameU="DarkerColor" v:prompt="" v:val="VT5(#1f477d)"/>
					</v:userDefs>
					<g id="shadow76-94" v:groupContext="shadow" v:shadowOffsetX="0.3456" v:shadowOffsetY="-1.9728" v:shadowType="1"
							transform="matrix(1,0,0,1,0.3456,1.9728)" class="st1"/>
				</g>
				<g id="shape75-98" v:mID="75" v:groupContext="groupContent" v:layerMember="1">
					<g id="shadow75-99" v:groupContext="shadow" v:shadowOffsetX="0.3456" v:shadowOffsetY="-1.9728" v:shadowType="1"
							transform="matrix(1,0,0,1,0.3456,1.9728)" class="st1">
						<path d="M0 586.86 L60.16 586.86 L120.32 586.86 L120.32 184.1 L60.16 184.1 L0 184.1 L0 586.86 Z"
								class="st2"/>
					</g>
					<path d="M0 586.86 L60.16 586.86 L120.32 586.86 L120.32 184.1 L60.16 184.1 L0 184.1 L0 586.86 Z" class="st3"/>
				</g>
			</g>
			<g id="group77-103" transform="translate(0,-373.003)" v:mID="77" v:groupContext="group" v:layerMember="1">
				<v:userDefs>
					<v:ud v:nameU="msvStructureType" v:prompt="" v:val="VT4(Heading)"/>
					<v:ud v:nameU="CStyle" v:prompt="" v:val="VT0(1):26"/>
					<v:ud v:nameU="HSide" v:prompt="" v:val="VT0(0):26"/>
					<v:ud v:nameU="HSpan" v:prompt="" v:val="VT0(0):26"/>
					<v:ud v:nameU="HAlign" v:prompt="" v:val="VT0(0):26"/>
					<v:ud v:nameU="Hidden" v:prompt="" v:val="VT0(0):5"/>
					<v:ud v:nameU="HorzAlign" v:prompt="" v:val="VT0(0):26"/>
					<v:ud v:nameU="Rounding" v:prompt="" v:val="VT0(0):1"/>
					<v:ud v:nameU="SquareCorners" v:prompt="" v:val="VT0(3):26"/>
					<v:ud v:nameU="Inset" v:prompt="" v:val="VT0(0):24"/>
					<v:ud v:nameU="InsideRadius" v:prompt="" v:val="VT0(0):24"/>
					<v:ud v:nameU="InsetXInt" v:prompt="" v:val="VT0(0):24"/>
					<v:ud v:nameU="HTxtMargin" v:prompt="" v:val="VT0(0.059055118110236):24"/>
					<v:ud v:nameU="HTxtWidth" v:prompt="" v:val="VT0(2.9527559055118):24"/>
					<v:ud v:nameU="HLeft" v:prompt="" v:val="VT0(0):26"/>
					<v:ud v:nameU="HRight" v:prompt="" v:val="VT0(2.9527559055118):24"/>
					<v:ud v:nameU="SquareCorners7" v:prompt="" v:val="VT0(3):26"/>
					<v:ud v:nameU="Offset" v:prompt="" v:val="VT0(0):26"/>
					<v:ud v:nameU="Rounding8" v:prompt="" v:val="VT0(0.11811023622047):24"/>
					<v:ud v:nameU="InsetX9" v:prompt="" v:val="VT0(0):26"/>
					<v:ud v:nameU="InsetY9" v:prompt="" v:val="VT0(0):26"/>
					<v:ud v:nameU="OffsetY11" v:prompt="" v:val="VT0(0):26"/>
					<v:ud v:nameU="OffsetY12" v:prompt="" v:val="VT0(0):26"/>
					<v:ud v:nameU="Width12" v:prompt="" v:val="VT0(0):26"/>
					<v:ud v:nameU="msvSDContainerHeadingEdge" v:prompt="" v:val="VT4(Bottom)"/>
					<v:ud v:nameU="HLineVisible" v:prompt="" v:val="VT0(0):5"/>
					<v:ud v:nameU="HFillVisible" v:prompt="" v:val="VT0(0):5"/>
					<v:ud v:nameU="FillForegndIn" v:prompt="" v:val="VT5(#ffffff)"/>
					<v:ud v:nameU="FillBkgndIn" v:prompt="" v:val="VT0(1):26"/>
					<v:ud v:nameU="BaseColor" v:prompt="" v:val="VT0(1):26"/>
					<v:ud v:nameU="FillPatternIn" v:prompt="" v:val="VT0(30):26"/>
					<v:ud v:nameU="BackFillColor" v:prompt="" v:val="VT5(#96afcf)"/>
					<v:ud v:nameU="BackLineColor" v:prompt="" v:val="VT5(#1f477d)"/>
					<v:ud v:nameU="BackCharColor" v:prompt="" v:val="VT5(#000000)"/>
					<v:ud v:nameU="DarkerColor" v:prompt="" v:val="VT5(#000000)"/>
					<v:ud v:nameU="HTxtWidth" v:prompt="" v:val="VT0(1.6711233570046):1"/>
					<v:ud v:nameU="HRight" v:prompt="" v:val="VT0(1.6711233570046):1"/>
					<v:ud v:nameU="FillForegndIn" v:prompt="" v:val="VT5(#c7c7c7)"/>
					<v:ud v:nameU="FillBkgndIn" v:prompt="" v:val="VT5(#ffffff)"/>
					<v:ud v:nameU="BaseColor" v:prompt="" v:val="VT5(#c7c7c7)"/>
					<v:ud v:nameU="FillPatternIn" v:prompt="" v:val="VT0(1):26"/>
					<v:ud v:nameU="BackFillColor" v:prompt="" v:val="VT5(#4f88bb)"/>
					<v:ud v:nameU="BackLineColor" v:prompt="" v:val="VT5(#41719c)"/>
					<v:ud v:nameU="BackCharColor" v:prompt="" v:val="VT5(#feffff)"/>
					<v:ud v:nameU="DarkerColor" v:prompt="" v:val="VT5(#41719c)"/>
				</v:userDefs>
				<title>Feuille.77</title>
				<desc>PrepareDOE</desc>
				<g id="shape78-104" v:mID="78" v:groupContext="shape" v:layerMember="1">
					<title>Feuille.78</title>
					<v:userDefs>
						<v:ud v:nameU="msvStructureType" v:prompt="" v:val="VT0(0):26"/>
						<v:ud v:nameU="msvThemeColors" v:prompt="" v:val="VT0(0):26"/>
						<v:ud v:nameU="msvThemeEffects" v:prompt="" v:val="VT0(0):26"/>
						<v:ud v:nameU="CStyle" v:prompt="" v:val="VT0(1):26"/>
						<v:ud v:nameU="Rounding" v:prompt="" v:val="VT0(0):1"/>
						<v:ud v:nameU="SquareCorners" v:prompt="" v:val="VT0(3):26"/>
						<v:ud v:nameU="HLeft" v:prompt="" v:val="VT0(0):26"/>
						<v:ud v:nameU="HRight" v:prompt="" v:val="VT0(2.9527559055118):24"/>
						<v:ud v:nameU="Hidden" v:prompt="" v:val="VT0(0):5"/>
						<v:ud v:nameU="BowHeight7" v:prompt="" v:val="VT0(0.11811023622047):24"/>
						<v:ud v:nameU="Offset7" v:prompt="" v:val="VT0(0.0052083333333333):3"/>
						<v:ud v:nameU="AnchorPt7" v:prompt="" v:val="VT0(0.64439796587927):24"/>
						<v:ud v:nameU="HSide" v:prompt="" v:val="VT0(0):26"/>
						<v:ud v:nameU="HAlign" v:prompt="" v:val="VT0(0):26"/>
						<v:ud v:nameU="HRight" v:prompt="" v:val="VT0(1.6711233570046):1"/>
						<v:ud v:nameU="Offset7" v:prompt="" v:val="VT0(0.0052083333333333):29"/>
						<v:ud v:nameU="AnchorPt7" v:prompt="" v:val="VT0(0.73298064304462):24"/>
					</v:userDefs>
					<g id="shadow78-105" v:groupContext="shadow" v:shadowOffsetX="0.345598" v:shadowOffsetY="-1.97279"
							v:shadowType="1" transform="matrix(1,0,0,1,0.345598,1.97279)" class="st1"/>
				</g>
				<g id="shape77-110" v:mID="77" v:groupContext="groupContent" v:layerMember="1">
					<v:textBlock v:margins="rect(4,6,4,6)" v:tabSpace="42.5197"/>
					<v:textRect cx="60.1604" cy="571.981" width="120.33" height="29.7638"/>
					<text x="6" y="577.38" class="st4" v:langID="1036"><v:paragraph/><v:tabList/>PrepareDOE</text>				</g>
			</g>
		</g>
		<g id="group125-113" transform="translate(301.141,-173.198)" v:mID="125" v:groupContext="group" v:layerMember="1">
			<v:userDefs>
				<v:ud v:nameU="msvShapeCategories" v:prompt="" v:val="VT4(ContainerStyleDefaults)"/>
				<v:ud v:nameU="msvStructureType" v:prompt="" v:val="VT4(Container)"/>
				<v:ud v:nameU="msvSDContainerMargin" v:prompt="" v:val="VT0(0.11811023622047):24"/>
				<v:ud v:nameU="msvSDContainerResize" v:prompt="" v:val="VT0(1):26"/>
				<v:ud v:nameU="msvSDContainerLocked" v:prompt="" v:val="VT0(0):5"/>
				<v:ud v:nameU="msvSDContainerNoHighlight" v:prompt="" v:val="VT0(0):5"/>
				<v:ud v:nameU="msvSDContainerNoRibbon" v:prompt="" v:val="VT0(0):5"/>
				<v:ud v:nameU="msvSDContainerStyle" v:prompt="" v:val="VT0(1):26"/>
				<v:ud v:nameU="msvSDContainerStyleCount" v:prompt="" v:val="VT0(14):26"/>
				<v:ud v:nameU="msvSDContainerRequiredCategories" v:prompt="" v:val="VT0(0):26"/>
				<v:ud v:nameU="msvSDContainerExcludedCategories" v:prompt="" v:val="VT4(DoNotContain)"/>
				<v:ud v:nameU="msvSDHeadingStyle" v:prompt="" v:val="VT0(1):26"/>
				<v:ud v:nameU="msvSDHeadingStyleCount" v:prompt="" v:val="VT0(4):26"/>
				<v:ud v:nameU="HeadingSide" v:prompt="" v:val="VT0(0):26"/>
				<v:ud v:nameU="HeadingSpan" v:prompt="" v:val="VT0(0):26"/>
				<v:ud v:nameU="HeadingAlign" v:prompt="" v:val="VT0(0):26"/>
				<v:ud v:nameU="RTL" v:prompt="" v:val="VT0(0):5"/>
				<v:ud v:nameU="FnForceContrast" v:prompt="" v:val="VT5(#ffffff)"/>
				<v:ud v:nameU="BaseColor" v:prompt="" v:val="VT0(1):26"/>
				<v:ud v:nameU="HColor1" v:prompt="" v:val="VT5(#ffffff)"/>
				<v:ud v:nameU="HColor2" v:prompt="" v:val="VT5(#fefefe)"/>
				<v:ud v:nameU="HColor3" v:prompt="" v:val="VT5(#e9e9e9)"/>
				<v:ud v:nameU="HColor4" v:prompt="" v:val="VT5(#efefef)"/>
				<v:ud v:nameU="BColor1" v:prompt="" v:val="VT5(#ffffff)"/>
				<v:ud v:nameU="BColor2" v:prompt="" v:val="VT5(#ffffff)"/>
				<v:ud v:nameU="LineColor" v:prompt="" v:val="VT5(#d5d5d5)"/>
				<v:ud v:nameU="visVersion" v:prompt="" v:val="VT0(15):26"/>
				<v:ud v:nameU="Embellishment" v:prompt="" v:val="VT0(2):26"/>
				<v:ud v:nameU="BaseColor" v:prompt="" v:val="VT5(#c7c7c7)"/>
				<v:ud v:nameU="HColor1" v:prompt="" v:val="VT5(#eeeeee)"/>
				<v:ud v:nameU="HColor2" v:prompt="" v:val="VT5(#d7d7d7)"/>
				<v:ud v:nameU="HColor3" v:prompt="" v:val="VT5(#bababa)"/>
				<v:ud v:nameU="HColor4" v:prompt="" v:val="VT5(#d7d7d7)"/>
				<v:ud v:nameU="BColor1" v:prompt="" v:val="VT5(#f7f7f7)"/>
				<v:ud v:nameU="BColor2" v:prompt="" v:val="VT5(#efefef)"/>
				<v:ud v:nameU="LineColor" v:prompt="" v:val="VT5(#9c9c9c)"/>
			</v:userDefs>
			<title>Sans couleur.125</title>
			<g id="group126-114" v:mID="126" v:groupContext="group" v:layerMember="1">
				<v:userDefs>
					<v:ud v:nameU="msvStructureType" v:prompt="" v:val="VT0(0):26"/>
					<v:ud v:nameU="CStyle" v:prompt="" v:val="VT0(1):26"/>
					<v:ud v:nameU="HSide" v:prompt="" v:val="VT0(0):26"/>
					<v:ud v:nameU="HSpan" v:prompt="" v:val="VT0(0):26"/>
					<v:ud v:nameU="HAlign" v:prompt="" v:val="VT0(0):26"/>
					<v:ud v:nameU="HorzAlign" v:prompt="" v:val="VT0(0):26"/>
					<v:ud v:nameU="SquareCorners" v:prompt="" v:val="VT0(0):26"/>
					<v:ud v:nameU="Corner6" v:prompt="" v:val="VT0(0.19685039370079):24"/>
					<v:ud v:nameU="FillForegndIn" v:prompt="" v:val="VT0(1):26"/>
					<v:ud v:nameU="FillBkgndIn" v:prompt="" v:val="VT0(0):26"/>
					<v:ud v:nameU="FillPatternIn" v:prompt="" v:val="VT0(1):26"/>
					<v:ud v:nameU="BaseColor" v:prompt="" v:val="VT0(1):26"/>
					<v:ud v:nameU="BackFillColor" v:prompt="" v:val="VT5(#96afcf)"/>
					<v:ud v:nameU="BackLineColor" v:prompt="" v:val="VT5(#1f477d)"/>
					<v:ud v:nameU="DarkerColor" v:prompt="" v:val="VT5(#1f477d)"/>
					<v:ud v:nameU="FillForegndIn" v:prompt="" v:val="VT5(#ffffff)"/>
					<v:ud v:nameU="FillBkgndIn" v:prompt="" v:val="VT5(#c7c7c7)"/>
					<v:ud v:nameU="FillPatternIn" v:prompt="" v:val="VT0(1):26"/>
					<v:ud v:nameU="BaseColor" v:prompt="" v:val="VT5(#ffffff)"/>
					<v:ud v:nameU="BackFillColor" v:prompt="" v:val="VT5(#4f88bb)"/>
					<v:ud v:nameU="BackLineColor" v:prompt="" v:val="VT5(#41719c)"/>
					<v:ud v:nameU="DarkerColor" v:prompt="" v:val="VT5(#41719c)"/>
				</v:userDefs>
				<title>Feuille.126</title>
				<g id="shape127-115" v:mID="127" v:groupContext="shape" v:layerMember="1" transform="translate(2.83465,2.83465)">
					<title>Feuille.127</title>
					<v:userDefs>
						<v:ud v:nameU="msvStructureType" v:prompt="" v:val="VT0(0):26"/>
						<v:ud v:nameU="msvThemeColors" v:prompt="" v:val="VT0(0):26"/>
						<v:ud v:nameU="msvThemeEffects" v:prompt="" v:val="VT0(0):26"/>
						<v:ud v:nameU="CStyle" v:prompt="" v:val="VT0(1):26"/>
						<v:ud v:nameU="HSide" v:prompt="" v:val="VT0(0):26"/>
						<v:ud v:nameU="HSpan" v:prompt="" v:val="VT0(0):26"/>
						<v:ud v:nameU="HAlign" v:prompt="" v:val="VT0(0):26"/>
						<v:ud v:nameU="HorzAlign" v:prompt="" v:val="VT0(0):26"/>
						<v:ud v:nameU="SquareCorners" v:prompt="" v:val="VT0(0):26"/>
						<v:ud v:nameU="OffsetX10" v:prompt="" v:val="VT0(0.039370078740157):24"/>
						<v:ud v:nameU="OffsetY10" v:prompt="" v:val="VT0(-0.039370078740157):24"/>
						<v:ud v:nameU="BackFillColor" v:prompt="" v:val="VT5(#96afcf)"/>
						<v:ud v:nameU="BackLineColor" v:prompt="" v:val="VT5(#1f477d)"/>
						<v:ud v:nameU="DarkerColor" v:prompt="" v:val="VT5(#1f477d)"/>
					</v:userDefs>
					<g id="shadow127-116" v:groupContext="shadow" v:shadowOffsetX="0.3456" v:shadowOffsetY="-1.9728"
							v:shadowType="1" transform="matrix(1,0,0,1,0.3456,1.9728)" class="st1"/>
				</g>
				<g id="shape126-120" v:mID="126" v:groupContext="groupContent" v:layerMember="1">
					<g id="shadow126-121" v:groupContext="shadow" v:shadowOffsetX="0.3456" v:shadowOffsetY="-1.9728"
							v:shadowType="1" transform="matrix(1,0,0,1,0.3456,1.9728)" class="st1">
						<path d="M0 586.86 L192.01 586.86 L384.02 586.86 L384.02 333.61 L192.01 333.61 L0 333.61 L0 586.86 Z"
								class="st2"/>
					</g>
					<path d="M0 586.86 L192.01 586.86 L384.02 586.86 L384.02 333.61 L192.01 333.61 L0 333.61 L0 586.86 Z"
							class="st3"/>
				</g>
			</g>
			<g id="group128-125" transform="translate(0,-227.738)" v:mID="128" v:groupContext="group" v:layerMember="1">
				<v:userDefs>
					<v:ud v:nameU="msvStructureType" v:prompt="" v:val="VT4(Heading)"/>
					<v:ud v:nameU="CStyle" v:prompt="" v:val="VT0(1):26"/>
					<v:ud v:nameU="HSide" v:prompt="" v:val="VT0(0):26"/>
					<v:ud v:nameU="HSpan" v:prompt="" v:val="VT0(0):26"/>
					<v:ud v:nameU="HAlign" v:prompt="" v:val="VT0(0):26"/>
					<v:ud v:nameU="Hidden" v:prompt="" v:val="VT0(0):5"/>
					<v:ud v:nameU="HorzAlign" v:prompt="" v:val="VT0(0):26"/>
					<v:ud v:nameU="Rounding" v:prompt="" v:val="VT0(0):1"/>
					<v:ud v:nameU="SquareCorners" v:prompt="" v:val="VT0(3):26"/>
					<v:ud v:nameU="Inset" v:prompt="" v:val="VT0(0):24"/>
					<v:ud v:nameU="InsideRadius" v:prompt="" v:val="VT0(0):24"/>
					<v:ud v:nameU="InsetXInt" v:prompt="" v:val="VT0(0):24"/>
					<v:ud v:nameU="HTxtMargin" v:prompt="" v:val="VT0(0.059055118110236):24"/>
					<v:ud v:nameU="HTxtWidth" v:prompt="" v:val="VT0(2.9527559055118):24"/>
					<v:ud v:nameU="HLeft" v:prompt="" v:val="VT0(0):26"/>
					<v:ud v:nameU="HRight" v:prompt="" v:val="VT0(2.9527559055118):24"/>
					<v:ud v:nameU="SquareCorners7" v:prompt="" v:val="VT0(3):26"/>
					<v:ud v:nameU="Offset" v:prompt="" v:val="VT0(0):26"/>
					<v:ud v:nameU="Rounding8" v:prompt="" v:val="VT0(0.11811023622047):24"/>
					<v:ud v:nameU="InsetX9" v:prompt="" v:val="VT0(0):26"/>
					<v:ud v:nameU="InsetY9" v:prompt="" v:val="VT0(0):26"/>
					<v:ud v:nameU="OffsetY11" v:prompt="" v:val="VT0(0):26"/>
					<v:ud v:nameU="OffsetY12" v:prompt="" v:val="VT0(0):26"/>
					<v:ud v:nameU="Width12" v:prompt="" v:val="VT0(0):26"/>
					<v:ud v:nameU="msvSDContainerHeadingEdge" v:prompt="" v:val="VT4(Bottom)"/>
					<v:ud v:nameU="HLineVisible" v:prompt="" v:val="VT0(0):5"/>
					<v:ud v:nameU="HFillVisible" v:prompt="" v:val="VT0(0):5"/>
					<v:ud v:nameU="FillForegndIn" v:prompt="" v:val="VT5(#ffffff)"/>
					<v:ud v:nameU="FillBkgndIn" v:prompt="" v:val="VT0(1):26"/>
					<v:ud v:nameU="BaseColor" v:prompt="" v:val="VT0(1):26"/>
					<v:ud v:nameU="FillPatternIn" v:prompt="" v:val="VT0(30):26"/>
					<v:ud v:nameU="BackFillColor" v:prompt="" v:val="VT5(#96afcf)"/>
					<v:ud v:nameU="BackLineColor" v:prompt="" v:val="VT5(#1f477d)"/>
					<v:ud v:nameU="BackCharColor" v:prompt="" v:val="VT5(#000000)"/>
					<v:ud v:nameU="DarkerColor" v:prompt="" v:val="VT5(#000000)"/>
					<v:ud v:nameU="HTxtWidth" v:prompt="" v:val="VT0(5.333562241906):1"/>
					<v:ud v:nameU="HRight" v:prompt="" v:val="VT0(5.333562241906):1"/>
					<v:ud v:nameU="FillForegndIn" v:prompt="" v:val="VT5(#c7c7c7)"/>
					<v:ud v:nameU="FillBkgndIn" v:prompt="" v:val="VT5(#ffffff)"/>
					<v:ud v:nameU="BaseColor" v:prompt="" v:val="VT5(#c7c7c7)"/>
					<v:ud v:nameU="FillPatternIn" v:prompt="" v:val="VT0(1):26"/>
					<v:ud v:nameU="BackFillColor" v:prompt="" v:val="VT5(#4f88bb)"/>
					<v:ud v:nameU="BackLineColor" v:prompt="" v:val="VT5(#41719c)"/>
					<v:ud v:nameU="BackCharColor" v:prompt="" v:val="VT5(#feffff)"/>
					<v:ud v:nameU="DarkerColor" v:prompt="" v:val="VT5(#41719c)"/>
				</v:userDefs>
				<title>Feuille.128</title>
				<desc>Calibration</desc>
				<g id="shape129-126" v:mID="129" v:groupContext="shape" v:layerMember="1">
					<title>Feuille.129</title>
					<v:userDefs>
						<v:ud v:nameU="msvStructureType" v:prompt="" v:val="VT0(0):26"/>
						<v:ud v:nameU="msvThemeColors" v:prompt="" v:val="VT0(0):26"/>
						<v:ud v:nameU="msvThemeEffects" v:prompt="" v:val="VT0(0):26"/>
						<v:ud v:nameU="CStyle" v:prompt="" v:val="VT0(1):26"/>
						<v:ud v:nameU="Rounding" v:prompt="" v:val="VT0(0):1"/>
						<v:ud v:nameU="SquareCorners" v:prompt="" v:val="VT0(3):26"/>
						<v:ud v:nameU="HLeft" v:prompt="" v:val="VT0(0):26"/>
						<v:ud v:nameU="HRight" v:prompt="" v:val="VT0(2.9527559055118):24"/>
						<v:ud v:nameU="Hidden" v:prompt="" v:val="VT0(0):5"/>
						<v:ud v:nameU="BowHeight7" v:prompt="" v:val="VT0(0.11811023622047):24"/>
						<v:ud v:nameU="Offset7" v:prompt="" v:val="VT0(0.0052083333333333):3"/>
						<v:ud v:nameU="AnchorPt7" v:prompt="" v:val="VT0(0.64439796587927):24"/>
						<v:ud v:nameU="HSide" v:prompt="" v:val="VT0(0):26"/>
						<v:ud v:nameU="HAlign" v:prompt="" v:val="VT0(0):26"/>
						<v:ud v:nameU="HRight" v:prompt="" v:val="VT0(5.333562241906):1"/>
						<v:ud v:nameU="Offset7" v:prompt="" v:val="VT0(0.0052083333333333):29"/>
					</v:userDefs>
					<g id="shadow129-127" v:groupContext="shadow" v:shadowOffsetX="0.345598" v:shadowOffsetY="-1.97279"
							v:shadowType="1" transform="matrix(1,0,0,1,0.345598,1.97279)" class="st1"/>
				</g>
				<g id="shape128-132" v:mID="128" v:groupContext="groupContent" v:layerMember="1">
					<v:textBlock v:margins="rect(4,6,4,6)" v:tabSpace="42.5197"/>
					<v:textRect cx="192.008" cy="574.107" width="384.02" height="25.5118"/>
					<text x="6" y="577.71" class="st5" v:langID="1036"><v:paragraph/><v:tabList/>Calibration</text>				</g>
			</g>
		</g>
		<g id="shape2-135" v:mID="2" v:groupContext="shape" transform="translate(441.797,-453.709)">
			<title>Rectangle.2</title>
			<desc>MenuImport</desc>
			<v:userDefs>
				<v:ud v:nameU="visVersion" v:val="VT0(15):26"/>
			</v:userDefs>
			<v:textBlock v:margins="rect(4,4,4,4)" v:tabSpace="42.5197"/>
			<v:textRect cx="51.353" cy="549.121" width="102.71" height="75.4837"/>
			<rect x="0" y="511.379" width="102.706" height="75.4837" class="st6"/>
			<text x="15.02" y="553.32" class="st7" v:langID="1036"><v:paragraph v:horizAlign="1"/><v:tabList/>MenuImport</text>		</g>
		<g id="shape3-138" v:mID="3" v:groupContext="shape" transform="translate(854.985,-317.075)">
			<title>Rectangle.3</title>
			<desc>ImportDOE</desc>
			<v:userDefs>
				<v:ud v:nameU="visVersion" v:val="VT0(15):26"/>
			</v:userDefs>
			<v:textBlock v:margins="rect(4,4,4,4)" v:tabSpace="42.5197"/>
			<v:textRect cx="51.353" cy="549.121" width="102.71" height="75.4837"/>
			<rect x="0" y="511.379" width="102.706" height="75.4837" class="st6"/>
			<text x="19.48" y="553.32" class="st7" v:langID="1036"><v:paragraph v:horizAlign="1"/><v:tabList/>ImportDOE</text>		</g>
		<g id="shape13-141" v:mID="13" v:groupContext="shape" transform="translate(97.2355,-31.9785)">
			<title>Rectangle.13</title>
			<desc>DynamicSelect- Picker</desc>
			<v:userDefs>
				<v:ud v:nameU="visVersion" v:val="VT0(15):26"/>
			</v:userDefs>
			<v:textBlock v:margins="rect(4,4,4,4)" v:tabSpace="42.5197"/>
			<v:textRect cx="51.353" cy="549.121" width="102.71" height="75.4837"/>
			<rect x="0" y="511.379" width="102.706" height="75.4837" class="st6"/>
			<text x="7.45" y="544.92" class="st7" v:langID="1036"><v:paragraph v:horizAlign="1"/><v:tabList/>DynamicSelect-<v:newlineChar/><tspan
						x="34.07" dy="1.2em" class="st8">Picker</tspan></text>		</g>
		<g id="group40-145" transform="translate(38.6443,-222.214)" v:mID="40" v:groupContext="group">
			<title>Feuille.40</title>
			<g id="shape1-146" v:mID="1" v:groupContext="shape" transform="translate(63.2969,-94.3547)">
				<title>Rectangle</title>
				<desc>ExploreDOE</desc>
				<v:userDefs>
					<v:ud v:nameU="visVersion" v:val="VT0(15):26"/>
				</v:userDefs>
				<v:textBlock v:margins="rect(4,4,4,4)" v:tabSpace="42.5197"/>
				<v:textRect cx="51.353" cy="549.121" width="102.71" height="75.4837"/>
				<rect x="0" y="511.379" width="102.706" height="75.4837" class="st6"/>
				<text x="17.65" y="553.32" class="st7" v:langID="1036"><v:paragraph v:horizAlign="1"/><v:tabList/>ExploreDOE</text>			</g>
			<g id="shape38-149" v:mID="38" v:groupContext="shape" transform="translate(-2.70279,40.258)">
				<title>Rectangle.38</title>
				<desc>Qualitative- Exploration</desc>
				<v:userDefs>
					<v:ud v:nameU="visVersion" v:val="VT0(15):26"/>
				</v:userDefs>
				<v:textBlock v:margins="rect(4,4,4,4)" v:tabSpace="42.5197"/>
				<v:textRect cx="51.353" cy="549.121" width="102.71" height="75.4837"/>
				<rect x="0" y="511.379" width="102.706" height="75.4837" class="st6"/>
				<text x="17.96" y="544.92" class="st7" v:langID="1036"><v:paragraph v:horizAlign="1"/><v:tabList/>Qualitative-<v:newlineChar/><tspan
							x="18.81" dy="1.2em" class="st8">Exploration</tspan></text>			</g>
			<g id="shape39-153" v:mID="39" v:groupContext="shape" transform="translate(124.666,40.258)">
				<title>Rectangle.39</title>
				<desc>Quantitative- Exploration</desc>
				<v:userDefs>
					<v:ud v:nameU="visVersion" v:val="VT0(15):26"/>
				</v:userDefs>
				<v:textBlock v:margins="rect(4,4,4,4)" v:tabSpace="42.5197"/>
				<v:textRect cx="51.353" cy="549.121" width="102.71" height="75.4837"/>
				<rect x="0" y="511.379" width="102.706" height="75.4837" class="st6"/>
				<text x="13.55" y="544.92" class="st7" v:langID="1036"><v:paragraph v:horizAlign="1"/><v:tabList/>Quantitative-<v:newlineChar/><tspan
							x="18.81" dy="1.2em" class="st8">Exploration</tspan></text>			</g>
		</g>
		<g id="shape46-157" v:mID="46" v:groupContext="shape" transform="translate(722.986,-181.956)">
			<title>Rectangle.38</title>
			<desc>ConfSimulator</desc>
			<v:userDefs>
				<v:ud v:nameU="visVersion" v:val="VT0(15):26"/>
			</v:userDefs>
			<v:textBlock v:margins="rect(4,4,4,4)" v:tabSpace="42.5197"/>
			<v:textRect cx="51.353" cy="549.121" width="102.71" height="75.4837"/>
			<rect x="0" y="511.379" width="102.706" height="75.4837" class="st6"/>
			<text x="10.59" y="553.32" class="st7" v:langID="1036"><v:paragraph v:horizAlign="1"/><v:tabList/>ConfSimulator</text>		</g>
		<g id="shape47-160" v:mID="47" v:groupContext="shape" transform="translate(986.985,-181.829)">
			<title>Rectangle.39</title>
			<desc>UploadDOE</desc>
			<v:userDefs>
				<v:ud v:nameU="visVersion" v:val="VT0(15):26"/>
			</v:userDefs>
			<v:textBlock v:margins="rect(4,4,4,4)" v:tabSpace="42.5197"/>
			<v:textRect cx="51.353" cy="549.121" width="102.71" height="75.4837"/>
			<rect x="0" y="511.379" width="102.706" height="75.4837" class="st6"/>
			<text x="18.5" y="553.32" class="st7" v:langID="1036"><v:paragraph v:horizAlign="1"/><v:tabList/>UploadDOE</text>		</g>
		<g id="shape48-163" v:mID="48" v:groupContext="shape" v:layerMember="0" transform="translate(153.294,-316.568)">
			<title>Lien dynamique.48</title>
			<path d="M0 586.86 L0 618.33 L-66 618.33 L-66 638.39" class="st9"/>
		</g>
		<g id="shape53-169" v:mID="53" v:groupContext="shape" v:layerMember="0" transform="translate(153.294,-316.568)">
			<title>Lien dynamique.53</title>
			<path d="M0 586.86 L0 618.42 L61.37 618.42 L61.37 638.39" class="st9"/>
		</g>
		<g id="shape59-174" v:mID="59" v:groupContext="shape" v:layerMember="0" transform="translate(906.338,-317.075)">
			<title>Lien dynamique.59</title>
			<path d="M0 586.86 L0 605.77 L132 605.77 L132 639.03" class="st9"/>
		</g>
		<g id="shape60-179" v:mID="60" v:groupContext="shape" v:layerMember="0" transform="translate(906.338,-317.075)">
			<title>Lien dynamique.60</title>
			<path d="M0 586.86 L0 605.77 L-132 605.77 L-132 638.9" class="st9"/>
		</g>
		<g id="shape66-184" v:mID="66" v:groupContext="shape" transform="translate(258.755,-31.9785)">
			<title>Rectangle.66</title>
			<desc>DynamicSelect</desc>
			<v:userDefs>
				<v:ud v:nameU="visVersion" v:val="VT0(15):26"/>
			</v:userDefs>
			<v:textBlock v:margins="rect(4,4,4,4)" v:tabSpace="42.5197"/>
			<v:textRect cx="51.353" cy="549.121" width="102.71" height="75.4837"/>
			<rect x="0" y="511.379" width="102.706" height="75.4837" class="st6"/>
			<text x="9.6" y="553.32" class="st7" v:langID="1036"><v:paragraph v:horizAlign="1"/><v:tabList/>DynamicSelect</text>		</g>
		<g id="shape69-187" v:mID="69" v:groupContext="shape" transform="translate(420.275,-31.9785)">
			<title>Rectangle.69</title>
			<desc>MissingVal-Change</desc>
			<v:userDefs>
				<v:ud v:nameU="visVersion" v:val="VT0(15):26"/>
			</v:userDefs>
			<v:textBlock v:margins="rect(4,4,4,4)" v:tabSpace="42.5197"/>
			<v:textRect cx="51.353" cy="549.121" width="102.71" height="75.4837"/>
			<rect x="0" y="511.379" width="102.706" height="75.4837" class="st6"/>
			<text x="18.63" y="544.92" class="st7" v:langID="1036"><v:paragraph v:horizAlign="1"/><v:tabList/>MissingVal-<tspan
						x="30.13" dy="1.2em" class="st8">Change</tspan></text>		</g>
		<g id="shape70-191" v:mID="70" v:groupContext="shape" transform="translate(581.795,-31.9785)">
			<title>Rectangle.70</title>
			<desc>XYNames-Change</desc>
			<v:userDefs>
				<v:ud v:nameU="visVersion" v:val="VT0(15):26"/>
			</v:userDefs>
			<v:textBlock v:margins="rect(4,4,4,4)" v:tabSpace="42.5197"/>
			<v:textRect cx="51.353" cy="549.121" width="102.71" height="75.4837"/>
			<rect x="0" y="511.379" width="102.706" height="75.4837" class="st6"/>
			<text x="22.48" y="544.92" class="st7" v:langID="1036"><v:paragraph v:horizAlign="1"/><v:tabList/>XYNames-<tspan
						x="30.13" dy="1.2em" class="st8">Change</tspan></text>		</g>
		<g id="shape71-195" v:mID="71" v:groupContext="shape" transform="translate(743.315,-31.9785)">
			<title>Rectangle.71</title>
			<desc>YInfosChange</desc>
			<v:userDefs>
				<v:ud v:nameU="visVersion" v:val="VT0(15):26"/>
			</v:userDefs>
			<v:textBlock v:margins="rect(4,4,4,4)" v:tabSpace="42.5197"/>
			<v:textRect cx="51.353" cy="549.121" width="102.71" height="75.4837"/>
			<rect x="0" y="511.379" width="102.706" height="75.4837" class="st6"/>
			<text x="12.72" y="553.32" class="st7" v:langID="1036"><v:paragraph v:horizAlign="1"/><v:tabList/>YInfosChange</text>		</g>
		<g id="shape72-198" v:mID="72" v:groupContext="shape" transform="translate(904.835,-31.9785)">
			<title>Rectangle.72</title>
			<desc>XInfosChange</desc>
			<v:userDefs>
				<v:ud v:nameU="visVersion" v:val="VT0(15):26"/>
			</v:userDefs>
			<v:textBlock v:margins="rect(4,4,4,4)" v:tabSpace="42.5197"/>
			<v:textRect cx="51.353" cy="549.121" width="102.71" height="75.4837"/>
			<rect x="0" y="511.379" width="102.706" height="75.4837" class="st6"/>
			<text x="12.49" y="553.32" class="st7" v:langID="1036"><v:paragraph v:horizAlign="1"/><v:tabList/>XInfosChange</text>		</g>
		<g id="shape73-201" v:mID="73" v:groupContext="shape" transform="translate(1135.65,-351.091)">
			<title>Rectangle.73</title>
			<desc>EvaluateDOE</desc>
			<v:userDefs>
				<v:ud v:nameU="visVersion" v:val="VT0(15):26"/>
			</v:userDefs>
			<v:textBlock v:margins="rect(4,4,4,4)" v:tabSpace="42.5197"/>
			<v:textRect cx="51.353" cy="549.121" width="102.71" height="75.4837"/>
			<rect x="0" y="511.379" width="102.706" height="75.4837" class="st6"/>
			<text x="14.6" y="553.32" class="st7" v:langID="1036"><v:paragraph v:horizAlign="1"/><v:tabList/>EvaluateDOE</text>		</g>
		<g id="shape79-204" v:mID="79" v:groupContext="shape" v:layerMember="0" transform="translate(1089.69,-219.571)">
			<title>Lien dynamique.79</title>
			<path d="M0 586.86 L26.41 586.86 L26.41 478.36 L97.31 478.36 L97.31 462.94" class="st9"/>
		</g>
		<g id="shape80-209" v:mID="80" v:groupContext="shape" transform="translate(1066.35,-32.5491)">
			<title>Rectangle.80</title>
			<desc>XActiveChange</desc>
			<v:userDefs>
				<v:ud v:nameU="visVersion" v:val="VT0(15):26"/>
			</v:userDefs>
			<v:textBlock v:margins="rect(4,4,4,4)" v:tabSpace="42.5197"/>
			<v:textRect cx="51.353" cy="549.121" width="102.71" height="75.4837"/>
			<rect x="0" y="511.379" width="102.706" height="75.4837" class="st6"/>
			<text x="8.9" y="553.32" class="st7" v:langID="1036"><v:paragraph v:horizAlign="1"/><v:tabList/>XActiveChange</text>		</g>
		<g id="shape107-212" v:mID="107" v:groupContext="shape" v:layerMember="0" transform="translate(214.663,-181.956)">
			<title>Lien dynamique.107</title>
			<path d="M0 586.86 L0 612.91 L-66.07 612.91 L-66.07 653.76" class="st9"/>
		</g>
		<g id="shape108-217" v:mID="108" v:groupContext="shape" v:layerMember="0" transform="translate(774.339,-181.956)">
			<title>Lien dynamique.108</title>
			<path d="M0 586.86 L0 612.91 L-625.75 612.91 L-625.75 653.76" class="st9"/>
		</g>
		<g id="shape109-222" v:mID="109" v:groupContext="shape" v:layerMember="0" transform="translate(1038.34,-181.829)">
			<title>Lien dynamique.109</title>
			<path d="M0 586.86 L0 633 L79.37 633 L79.37 653.06" class="st9"/>
		</g>
		<g id="shape110-227" v:mID="110" v:groupContext="shape" v:layerMember="0" transform="translate(1038.34,-181.829)">
			<title>Lien dynamique.110</title>
			<path d="M0 586.86 L0 633.09 L-82.15 633.09 L-82.15 653.63" class="st9"/>
		</g>
		<g id="shape112-232" v:mID="112" v:groupContext="shape" v:layerMember="0" transform="translate(1038.34,-181.829)">
			<title>Lien dynamique.112</title>
			<path d="M0 586.86 L0 632.9 L-728.23 632.9 L-728.23 653.63" class="st9"/>
		</g>
		<g id="shape113-237" v:mID="113" v:groupContext="shape" v:layerMember="0" transform="translate(1038.34,-181.829)">
			<title>Lien dynamique.113</title>
			<path d="M0 586.86 L0 632.9 L-566.71 632.9 L-566.71 653.63" class="st9"/>
		</g>
		<g id="shape114-242" v:mID="114" v:groupContext="shape" v:layerMember="0" transform="translate(1038.34,-181.829)">
			<title>Lien dynamique.114</title>
			<path d="M0 586.86 L0 632.9 L-405.19 632.9 L-405.19 653.63" class="st9"/>
		</g>
		<g id="shape115-247" v:mID="115" v:groupContext="shape" v:layerMember="0" transform="translate(1038.34,-181.829)">
			<title>Lien dynamique.115</title>
			<path d="M0 586.86 L0 633.09 L-243.67 633.09 L-243.67 653.63" class="st9"/>
		</g>
		<g id="shape117-252" v:mID="117" v:groupContext="shape" transform="translate(1135.65,-230.986)">
			<title>Rectangle.117</title>
			<desc>VisualizeDOE</desc>
			<v:userDefs>
				<v:ud v:nameU="visVersion" v:val="VT0(15):26"/>
			</v:userDefs>
			<v:textBlock v:margins="rect(4,4,4,4)" v:tabSpace="42.5197"/>
			<v:textRect cx="51.353" cy="549.121" width="102.71" height="75.4837"/>
			<rect x="0" y="511.379" width="102.706" height="75.4837" class="st6"/>
			<text x="14.19" y="553.32" class="st7" v:langID="1036"><v:paragraph v:horizAlign="1"/><v:tabList/>VisualizeDOE</text>		</g>
		<g id="shape118-255" v:mID="118" v:groupContext="shape" v:layerMember="0" transform="translate(1089.69,-219.571)">
			<title>Lien dynamique.118</title>
			<path d="M0 586.86 L26.41 586.86 L26.41 478.36 L97.31 478.36 L97.31 492.36" class="st9"/>
		</g>
		<g id="shape120-260" v:mID="120" v:groupContext="shape" transform="translate(854.985,-181.956)">
			<title>Rectangle.120</title>
			<desc>Composite-Function</desc>
			<v:userDefs>
				<v:ud v:nameU="visVersion" v:val="VT0(15):26"/>
			</v:userDefs>
			<v:textBlock v:margins="rect(4,4,4,4)" v:tabSpace="42.5197"/>
			<v:textRect cx="51.353" cy="549.121" width="102.71" height="75.4837"/>
			<rect x="0" y="511.379" width="102.706" height="75.4837" class="st6"/>
			<text x="18.65" y="544.92" class="st7" v:langID="1036"><v:paragraph v:horizAlign="1"/><v:tabList/>Composite-<tspan
						x="26.5" dy="1.2em" class="st8">Function</tspan></text>		</g>
		<g id="shape123-264" v:mID="123" v:groupContext="shape" v:layerMember="0" transform="translate(441.797,-491.451)">
			<title>Lien dynamique</title>
			<path d="M0 586.86 L-288.5 586.86 L-288.5 678.66" class="st9"/>
		</g>
		<g id="shape124-269" v:mID="124" v:groupContext="shape" v:layerMember="0" transform="translate(986.985,-212.548)">
			<title>Lien dynamique.124</title>
			<path d="M0 579.84 L-10.63 579.84 L-10.63 579.71 L-21.69 579.71" class="st9"/>
		</g>
		<g id="shape130-274" v:mID="130" v:groupContext="shape" transform="translate(441.948,-316.949)">
			<title>Rectangle.130</title>
			<desc>Define-Calibration</desc>
			<v:userDefs>
				<v:ud v:nameU="visVersion" v:val="VT0(15):26"/>
			</v:userDefs>
			<v:textBlock v:margins="rect(4,4,4,4)" v:tabSpace="42.5197"/>
			<v:textRect cx="51.353" cy="549.121" width="102.71" height="75.4837"/>
			<rect x="0" y="511.379" width="102.706" height="75.4837" class="st6"/>
			<text x="30.52" y="544.92" class="st7" v:langID="1036"><v:paragraph v:horizAlign="1"/><v:tabList/>Define-<tspan
						x="20.26" dy="1.2em" class="st8">Calibration</tspan></text>		</g>
		<g id="shape131-278" v:mID="131" v:groupContext="shape" transform="translate(309.949,-181.829)">
			<title>Rectangle.131</title>
			<desc>DefineObjective</desc>
			<v:userDefs>
				<v:ud v:nameU="visVersion" v:val="VT0(15):26"/>
			</v:userDefs>
			<v:textBlock v:margins="rect(4,4,4,4)" v:tabSpace="42.5197"/>
			<v:textRect cx="51.353" cy="549.121" width="102.71" height="75.4837"/>
			<rect x="0" y="511.379" width="102.706" height="75.4837" class="st6"/>
			<text x="5.63" y="553.32" class="st7" v:langID="1036"><v:paragraph v:horizAlign="1"/><v:tabList/>DefineObjective</text>		</g>
		<g id="shape132-281" v:mID="132" v:groupContext="shape" transform="translate(573.948,-181.702)">
			<title>Rectangle.132</title>
			<desc>Import-Discretization</desc>
			<v:userDefs>
				<v:ud v:nameU="visVersion" v:val="VT0(15):26"/>
			</v:userDefs>
			<v:textBlock v:margins="rect(4,4,4,4)" v:tabSpace="42.5197"/>
			<v:textRect cx="51.353" cy="549.121" width="102.71" height="75.4837"/>
			<rect x="0" y="511.379" width="102.706" height="75.4837" class="st6"/>
			<text x="29.7" y="544.92" class="st7" v:langID="1036"><v:paragraph v:horizAlign="1"/><v:tabList/>Import-<tspan
						x="12.43" dy="1.2em" class="st8">Discretization</tspan></text>		</g>
		<g id="shape134-285" v:mID="134" v:groupContext="shape" v:layerMember="0" transform="translate(493.301,-316.949)">
			<title>Lien dynamique.134</title>
			<path d="M0 586.86 L0 614.98 L-132 614.98 L-132 638.9" class="st9"/>
		</g>
		<g id="shape135-290" v:mID="135" v:groupContext="shape" transform="translate(441.948,-181.829)">
			<title>Rectangle.135</title>
			<desc>Import-Experimental-Data</desc>
			<v:userDefs>
				<v:ud v:nameU="visVersion" v:val="VT0(15):26"/>
			</v:userDefs>
			<v:textBlock v:margins="rect(4,4,4,4)" v:tabSpace="42.5197"/>
			<v:textRect cx="51.353" cy="549.121" width="102.71" height="75.4837"/>
			<rect x="0" y="511.379" width="102.706" height="75.4837" class="st6"/>
			<text x="29.7" y="536.52" class="st7" v:langID="1036"><v:paragraph v:horizAlign="1"/><v:tabList/>Import-<tspan x="11.5"
						dy="1.2em" class="st8">Experimental</tspan>-<tspan x="38" dy="1.2em" class="st8">Data</tspan></text>		</g>
		<g id="shape137-295" v:mID="137" v:groupContext="shape" v:layerMember="0" transform="translate(486.215,-316.949)">
			<title>Lien dynamique.137</title>
			<path d="M7.09 586.86 L7.09 638.9" class="st9"/>
		</g>
		<g id="shape138-300" v:mID="138" v:groupContext="shape" v:layerMember="0" transform="translate(87.2945,-181.956)">
			<title>Lien dynamique.138</title>
			<path d="M0 586.86 L0 612.99 L61.29 612.99 L61.29 653.76" class="st9"/>
		</g>
		<g id="shape139-305" v:mID="139" v:groupContext="shape" v:layerMember="0" transform="translate(544.503,-491.451)">
			<title>Lien dynamique.139</title>
			<path d="M0 586.86 L361.84 586.86 L361.84 678.15" class="st9"/>
		</g>
		<g id="shape140-310" v:mID="140" v:groupContext="shape" v:layerMember="0" transform="translate(486.139,-453.709)">
			<title>Lien dynamique.140</title>
			<path d="M7.01 586.86 L7.01 597.49 L7.16 597.49 L7.16 640.54" class="st9"/>
		</g>
		<g id="shape143-315" v:mID="143" v:groupContext="shape" v:layerMember="0" transform="translate(986.985,-219.571)">
			<title>Lien dynamique.143</title>
			<path d="M0 586.86 L-13.31 586.86 L-13.31 526.64 L-210.28 526.64 A2.3622 2.3622 -180 0 0 -215.01 526.64 L-361.68 526.64
						 L-361.68 541.65" class="st9"/>
		</g>
	</g>
</svg>
