{
    "storing_dir": "../../runningDir",
    "simulator_configs": [
        {
            "config_name": "UM-Bridge",
            "config_descr": "2 inputs and 4 outputs (Tsunami model)",
            "simulator_exe": "../../simulator-examples/UM-Bridge/RSimulator.bat",
            "argument": "",
            "cluster_size": 1,
            "host": "localhost",
            "simulation_dir": "../../simulator-examples/UM-Bridge/simulationFiles",
            "simulation_param_files": [
                "paramFile.txt"
            ],
            "simulation_data_files": [
                "lagunClient.R"
            ],
            "result_file_name": "outputFile.csv",
            "res_count": 4
        }
    ]
}