{
    "storing_dir": "../../runningDir",
    "simulator_configs": [
	{
            "config_name": "PySimulator",
			"config_descr": "3 inputs and 1 output. A classical function for sensitivity analysis.",
            "simulator_exe": "../../simulator-examples/PySimulator/PySimulator.bat",
			"argument": "ishigami",
            "cluster_size": 2,
			"host": "localhost",
            "simulation_dir": "../../simulator-examples/PySimulator/simulationFiles",
            "simulation_param_files": ["paramFile_ishigami.txt"],
            "simulation_data_files": ["simu.py"],
			"result_file_name": "outputFile.csv",
            "res_count": 1
     }
    ],
    "default_simulator_config": 0
}
