y1@0;y1@0.1;y1@0.2;y1@0.3;y1@0.4;y1@0.5;y1@0.6;y1@0.7;y1@0.8;y1@0.9;y1@1;y2@0;y2@0.1;y2@0.2;y2@0.3;y2@0.4;y2@0.5;y2@0.6;y2@0.7;y2@0.8;y2@0.9;y3@0;y3@0.1;y3@0.2;y3@0.3;y3@0.4;y3@0.5;y3@0.6;y3@0.7;y3@0.8;y3@0.9
1.53E+00;4.45E-02;-2.71E+00;-6.10E+00;-1.07E+01;-1.63E+01;-2.28E+01;-3.03E+01;-3.87E+01;-4.83E+01;-5.90E+01;1.68E+00;1.79E+00;1.80E+00;1.95E+00;2.04E+00;2.11E+00;2.24E+00;2.37E+00;2.56E+00;2.67E+00;1.1552814;0.5598575;-0.5196724;-0.9951467;-0.4753783;0.4483111;0.8842924;0.3902064;-0.3955627;-0.7348027
0.5;0.5;0.5;0.5;0.5;0.5;0.5;0.5;0.5;0.5;0.5;0.2;0.2;0.2;0.2;0.2;0.2;0.2;0.2;0.2;0.2;0.1;0.1;0.1;0.1;0.1;0.1;0.1;0.1;0.1;0.1
