{
  "input": {
    "collapse0125555": "Import",
    "collapse0212143": "Generate DOE",
    "collapse0258017": "Define Optimization Problem",
    "collapse0382388": [
      "Direct Optimization",
      "Direct Optimization"
    ],
    "collapse0386114": "Configure simulator",
    "collapse0459066": null,
    "collapse0869690": [
      "Define Simulator for Direct Optimization",
      "Define Optimization Problem",
      "Define Optimization Problem"
    ],
    "dimension": [
      1611,
      922
    ],
    "drop169018874": 0,
    "drop463649094": 0,
    "drop695822375": 0,
    "nav-clickedtab": "nav-menuImport-tabimportDOE",
    "nav-introduction-activeCollapseIntro": "",
    "nav-introduction-castest1_1": 0,
    "nav-introduction-castest1_2": 0,
    "nav-introduction-castest2": 0,
    "nav-introduction-castest3": 0,
    "nav-introduction-castest4": 0,
    "nav-introduction-castest5": 0,
    "nav-introduction-castest6": 0,
    "nav-introduction-collapseIntro": null,
    "nav-introduction-desactiveCollapseIntro": "",
    "nav-introduction-git": 0,
    "nav-introduction-tuto1": 0,
    "nav-introduction-tuto2.1": 0,
    "nav-introduction-tuto2.2": 0,
    "nav-introduction-tuto3": 0,
    "nav-introduction-tuto4": 0,
    "nav-introduction-tuto5": 0,
    "nav-introduction-tuto6": 0,
    "nav-introduction-tuto7": 0,
    "nav-introduction-tuto8": 0,
    "nav-introduction-tuto9": 0,
    "nav-introduction-tuto_intro": 0,
    "nav-introduction-workflowcomplete": 0,
    "nav-introduction-workflowexploreData": 0,
    "nav-introduction-workflowprepareDOE": 0,
    "nav-introduction-workflowsurrogate": 0,
    "nav-menuExplore-UQModel-closePanelUQModel": "",
    "nav-menuExplore-UQModel-collapseUQModel": "Step 1: Uncertainty Definition",
    "nav-menuExplore-UQModel-openPanelUQModel": "",
    "nav-menuExplore-UQModel-sensitivityAnalysis-closeModalHighOrder": 0,
    "nav-menuExplore-UQModel-sensitivityAnalysis-goGSAanyway": 0,
    "nav-menuExplore-UQModel-sensitivityAnalysis-modalDependence": false,
    "nav-menuExplore-UQModel-sensitivityAnalysis-modalGSA": false,
    "nav-menuExplore-UQModel-sensitivityAnalysis-modalHighOrder": false,
    "nav-menuExplore-UQModel-sensitivityAnalysis-modalSelectLevelsShapley": false,
    "nav-menuExplore-UQModel-sensitivityAnalysis-modalSelectLevelsSobol": false,
    "nav-menuExplore-UQModel-sensitivityAnalysis-modalShapley": false,
    "nav-menuExplore-UQModel-sensitivityAnalysis-saveModalHighOrder": 0,
    "nav-menuExplore-UQModel-sensitivityAnalysis-tabs": "nav-menuExplore-UQModel-sensitivityAnalysis-first-sobol",
    "nav-menuExplore-UQModel-uncertaintyDefinition-UQparams-allEstimated": 0,
    "nav-menuExplore-UQModel-uncertaintyDefinition-UQparams-change": 0,
    "nav-menuExplore-UQModel-uncertaintyDefinition-UQparams-decimal": ".",
    "nav-menuExplore-UQModel-uncertaintyDefinition-UQparams-file": null,
    "nav-menuExplore-UQModel-uncertaintyDefinition-UQparams-modal": false,
    "nav-menuExplore-UQModel-uncertaintyDefinition-UQparams-reset": 0,
    "nav-menuExplore-UQModel-uncertaintyDefinition-UQparams-separator": ",",
    "nav-menuExplore-UQModel-uncertaintyDefinition-UQparams-unifReset": 0,
    "nav-menuExplore-UQModel-uncertaintyDefinition-listCopulas-change": 0,
    "nav-menuExplore-UQModel-uncertaintyDefinition-listCopulas-modal": false,
    "nav-menuExplore-UQModel-uncertaintyDefinition-tabs": "nav-menuExplore-UQModel-uncertaintyDefinition-definition",
    "nav-menuExplore-UQModel-uncertaintyPropagation-chooseVisu": "Probability Distribution Function",
    "nav-menuExplore-UQModel-uncertaintyPropagation-dobootproba": true,
    "nav-menuExplore-UQModel-uncertaintyPropagation-generate": 0,
    "nav-menuExplore-UQModel-uncertaintyPropagation-go": 0,
    "nav-menuExplore-UQModel-uncertaintyPropagation-goUQproba": 0,
    "nav-menuExplore-UQModel-uncertaintyPropagation-launch.simu": 0,
    "nav-menuExplore-UQModel-uncertaintyPropagation-modalLaunchSimu": false,
    "nav-menuExplore-UQModel-uncertaintyPropagation-naddproba": 1,
    "nav-menuExplore-UQModel-uncertaintyPropagation-nsample": 10000,
    "nav-menuExplore-UQModel-uncertaintyPropagation-nsampleUQproba": 10000,
    "nav-menuExplore-UQModel-uncertaintyPropagation-simu.automatic": 0,
    "nav-menuExplore-UQModel-uncertaintyPropagation-simu.manual": 0,
    "nav-menuExplore-UQModel-uncertaintyPropagation-tabs-propagation": "nav-menuExplore-UQModel-uncertaintyPropagation-global",
    "nav-menuExplore-exploreModel-closePanelExploreModel": "",
    "nav-menuExplore-exploreModel-collapseExploreModel": "Qualitative Exploration",
    "nav-menuExplore-exploreModel-modelManualExploration-choice": "1",
    "nav-menuExplore-exploreModel-modelManualExploration-close": 0,
    "nav-menuExplore-exploreModel-modelManualExploration-compute": 0,
    "nav-menuExplore-exploreModel-modelManualExploration-decimal": ".",
    "nav-menuExplore-exploreModel-modelManualExploration-file": null,
    "nav-menuExplore-exploreModel-modelManualExploration-modal.file": false,
    "nav-menuExplore-exploreModel-modelManualExploration-modalmanual": false,
    "nav-menuExplore-exploreModel-modelManualExploration-proceed": 0,
    "nav-menuExplore-exploreModel-modelManualExploration-save": 0,
    "nav-menuExplore-exploreModel-modelManualExploration-separator": ",",
    "nav-menuExplore-exploreModel-modelQualitativeExploration-Loadsampling": 0,
    "nav-menuExplore-exploreModel-modelQualitativeExploration-SMCsettings": 0,
    "nav-menuExplore-exploreModel-modelQualitativeExploration-arrange.method": "fromRight",
    "nav-menuExplore-exploreModel-modelQualitativeExploration-boundclose": 0,
    "nav-menuExplore-exploreModel-modelQualitativeExploration-bounddecimal": ".",
    "nav-menuExplore-exploreModel-modelQualitativeExploration-bounds-change": 0,
    "nav-menuExplore-exploreModel-modelQualitativeExploration-bounds-decimal": ".",
    "nav-menuExplore-exploreModel-modelQualitativeExploration-bounds-file": null,
    "nav-menuExplore-exploreModel-modelQualitativeExploration-bounds-modal": false,
    "nav-menuExplore-exploreModel-modelQualitativeExploration-bounds-reset": 0,
    "nav-menuExplore-exploreModel-modelQualitativeExploration-bounds-separator": ",",
    "nav-menuExplore-exploreModel-modelQualitativeExploration-boundsave": 0,
    "nav-menuExplore-exploreModel-modelQualitativeExploration-boundseparator": ",",
    "nav-menuExplore-exploreModel-modelQualitativeExploration-choose.palette.cat": "Category10",
    "nav-menuExplore-exploreModel-modelQualitativeExploration-choose.palette.num": "Viridis",
    "nav-menuExplore-exploreModel-modelQualitativeExploration-corrPlotCs": "RdBu",
    "nav-menuExplore-exploreModel-modelQualitativeExploration-corrPlotType": "Text",
    "nav-menuExplore-exploreModel-modelQualitativeExploration-decimal": ".",
    "nav-menuExplore-exploreModel-modelQualitativeExploration-display": false,
    "nav-menuExplore-exploreModel-modelQualitativeExploration-distribType": "1",
    "nav-menuExplore-exploreModel-modelQualitativeExploration-downloadPcpButton": 0,
    "nav-menuExplore-exploreModel-modelQualitativeExploration-downloadSpmButton": 0,
    "nav-menuExplore-exploreModel-modelQualitativeExploration-fileBound": null,
    "nav-menuExplore-exploreModel-modelQualitativeExploration-filePCP": null,
    "nav-menuExplore-exploreModel-modelQualitativeExploration-initPCP": 0,
    "nav-menuExplore-exploreModel-modelQualitativeExploration-keepbounds": false,
    "nav-menuExplore-exploreModel-modelQualitativeExploration-launchSMC": 0,
    "nav-menuExplore-exploreModel-modelQualitativeExploration-layout": "Vertical",
    "nav-menuExplore-exploreModel-modelQualitativeExploration-loadPCPfile": 0,
    "nav-menuExplore-exploreModel-modelQualitativeExploration-modalBoundfile": false,
    "nav-menuExplore-exploreModel-modelQualitativeExploration-modalPCPfile": false,
    "nav-menuExplore-exploreModel-modelQualitativeExploration-modalSMC": false,
    "nav-menuExplore-exploreModel-modelQualitativeExploration-nSMCiter": 25,
    "nav-menuExplore-exploreModel-modelQualitativeExploration-nSMCsample": 1000,
    "nav-menuExplore-exploreModel-modelQualitativeExploration-separator": ",",
    "nav-menuExplore-exploreModel-modelQuantitativeExploration-tabs": "<h4>Regression plot - One by One<\/h4>",
    "nav-menuExplore-exploreModel-openPanelExploreModel": "",
    "nav-menuImport-defineCalibration-closeCollapseCalibration": "",
    "nav-menuImport-defineCalibration-collapseCalibration": "Import Experimental Data",
    "nav-menuImport-defineCalibration-defineObjective-changeWeights": 0,
    "nav-menuImport-defineCalibration-defineObjective-close": 0,
    "nav-menuImport-defineCalibration-defineObjective-modalWeights": false,
    "nav-menuImport-defineCalibration-defineObjective-save": 0,
    "nav-menuImport-defineCalibration-importXPdata-file": null,
    "nav-menuImport-defineCalibration-openCollapseCalibration": "",
    "nav-menuImport-exploreDOE-activePanel": "",
    "nav-menuImport-exploreDOE-collapseExplore": "Qualitative Exploration",
    "nav-menuImport-exploreDOE-desactivePanel": "",
    "nav-menuImport-exploreDOE-modalViewDOE": false,
    "nav-menuImport-exploreDOE-qualitativeExploration-funcPlotTab-showErrBars": false,
    "nav-menuImport-exploreDOE-qualitativeExploration-funcPlotTab-showExpData": true,
    "nav-menuImport-exploreDOE-qualitativeExploration-pcpTab-arrange.method": "fromRight",
    "nav-menuImport-exploreDOE-qualitativeExploration-pcpTab-buildclusters": 0,
    "nav-menuImport-exploreDOE-qualitativeExploration-pcpTab-centerref": false,
    "nav-menuImport-exploreDOE-qualitativeExploration-pcpTab-choose.palette.cat": "Category10",
    "nav-menuImport-exploreDOE-qualitativeExploration-pcpTab-choose.palette.num": "Viridis",
    "nav-menuImport-exploreDOE-qualitativeExploration-pcpTab-cluster": 0,
    "nav-menuImport-exploreDOE-qualitativeExploration-pcpTab-corrPlotCs": "RdBu",
    "nav-menuImport-exploreDOE-qualitativeExploration-pcpTab-corrPlotType": "Text",
    "nav-menuImport-exploreDOE-qualitativeExploration-pcpTab-distribType": "1",
    "nav-menuImport-exploreDOE-qualitativeExploration-pcpTab-downloadPcpButton": 0,
    "nav-menuImport-exploreDOE-qualitativeExploration-pcpTab-downloadSpmButton": 0,
    "nav-menuImport-exploreDOE-qualitativeExploration-pcpTab-keepbounds": false,
    "nav-menuImport-exploreDOE-qualitativeExploration-pcpTab-layout": "Vertical",
    "nav-menuImport-exploreDOE-qualitativeExploration-pcpTab-modalcluster": false,
    "nav-menuImport-exploreDOE-qualitativeExploration-pcpTab-nbclust": 2,
    "nav-menuImport-exploreDOE-qualitativeExploration-pcpTab-removeclusters": 0,
    "nav-menuImport-exploreDOE-qualitativeExploration-pcpTab-scaleclust": true,
    "nav-menuImport-exploreDOE-qualitativeExploration-regression-plot-tab-showhist": false,
    "nav-menuImport-exploreDOE-qualitativeExploration-tabs": "nav-menuImport-exploreDOE-qualitativeExploration-regression-plot",
    "nav-menuImport-exploreDOE-quantitativeExploration-clickedtab": "nav-menuImport-exploreDOE-quantitativeExploration-COR",
    "nav-menuImport-importDOE-confSimulator-config.simulator": 0,
    "nav-menuImport-importDOE-confSimulator-disc-close": 0,
    "nav-menuImport-importDOE-confSimulator-disc-decimal": ".",
    "nav-menuImport-importDOE-confSimulator-disc-file": null,
    "nav-menuImport-importDOE-confSimulator-disc-modal": false,
    "nav-menuImport-importDOE-confSimulator-disc-save": 0,
    "nav-menuImport-importDOE-confSimulator-disc-separator": ",",
    "nav-menuImport-importDOE-confSimulator-launchSimu": 0,
    "nav-menuImport-importDOE-confSimulator-modalConfigSimu": false,
    "nav-menuImport-importDOE-confSimulator-outtype-change": 0,
    "nav-menuImport-importDOE-confSimulator-outtype-file": null,
    "nav-menuImport-importDOE-confSimulator-outtype-modal": false,
    "nav-menuImport-importDOE-confSimulator-outtype-reset": 0,
    "nav-menuImport-importDOE-confSimulator-outtype-separator": ",",
    "nav-menuImport-importDOE-confSimulator-stopSimu": 0,
    "nav-menuImport-importDOE-confirm.import.mode": 1,
    "nav-menuImport-importDOE-directOptim-config.simulator": 0,
    "nav-menuImport-importDOE-directOptim-constrainedDefine-bounds-change": 0,
    "nav-menuImport-importDOE-directOptim-constrainedDefine-bounds-decimal": ".",
    "nav-menuImport-importDOE-directOptim-constrainedDefine-bounds-file": null,
    "nav-menuImport-importDOE-directOptim-constrainedDefine-bounds-modal": false,
    "nav-menuImport-importDOE-directOptim-constrainedDefine-bounds-reset": 0,
    "nav-menuImport-importDOE-directOptim-constrainedDefine-bounds-separator": ",",
    "nav-menuImport-importDOE-directOptim-constrainedDefine-closeoptimdef": 0,
    "nav-menuImport-importDOE-directOptim-constrainedDefine-file": null,
    "nav-menuImport-importDOE-directOptim-constrainedDefine-modalDefineOptim": false,
    "nav-menuImport-importDOE-directOptim-constrainedDefine-optimdef": 0,
    "nav-menuImport-importDOE-directOptim-constrainedDefine-resetConstrOptim": 0,
    "nav-menuImport-importDOE-directOptim-constrainedDefine-saveoptimdef": 0,
    "nav-menuImport-importDOE-directOptim-constrainedDefine-x0change-change": 0,
    "nav-menuImport-importDOE-directOptim-constrainedDefine-x0change-file": null,
    "nav-menuImport-importDOE-directOptim-constrainedDefine-x0change-modal": false,
    "nav-menuImport-importDOE-directOptim-defineCalibration-closeCollapseCalibration": "",
    "nav-menuImport-importDOE-directOptim-defineCalibration-collapseCalibration": "Import Experimental Data",
    "nav-menuImport-importDOE-directOptim-defineCalibration-defineObjective-changeWeights": 0,
    "nav-menuImport-importDOE-directOptim-defineCalibration-defineObjective-close": 0,
    "nav-menuImport-importDOE-directOptim-defineCalibration-defineObjective-modalWeights": false,
    "nav-menuImport-importDOE-directOptim-defineCalibration-defineObjective-save": 0,
    "nav-menuImport-importDOE-directOptim-defineCalibration-importXPdata-file": null,
    "nav-menuImport-importDOE-directOptim-defineCalibration-openCollapseCalibration": "",
    "nav-menuImport-importDOE-directOptim-funcPlotTab-showErrBars": false,
    "nav-menuImport-importDOE-directOptim-funcPlotTab-showExpData": true,
    "nav-menuImport-importDOE-directOptim-launchInitValue": 0,
    "nav-menuImport-importDOE-directOptim-launchOptim": 0,
    "nav-menuImport-importDOE-directOptim-modalConfigSimu": false,
    "nav-menuImport-importDOE-directOptim-modalPreviousOptim": false,
    "nav-menuImport-importDOE-directOptim-optimizer": "Optimization problem undefined",
    "nav-menuImport-importDOE-directOptim-previous.optim": 0,
    "nav-menuImport-importDOE-directOptim-stopOptim": 0,
    "nav-menuImport-importDOE-directOptim-tabs": "nav-menuImport-importDOE-directOptim-resultsPlot",
    "nav-menuImport-importDOE-directOptim-wfType": "Run by Lagun",
    "nav-menuImport-importDOE-import.type": "Import DOE from previous tab",
    "nav-menuImport-importDOE-loadStudy-loadMethod": "app",
    "nav-menuImport-importDOE-loadStudy-uploadedFile": null,
    "nav-menuImport-importDOE-mode": "new",
    "nav-menuImport-importDOE-uploadDOE-bounds-change": 1,
    "nav-menuImport-importDOE-uploadDOE-bounds-close": 0,
    "nav-menuImport-importDOE-uploadDOE-bounds-decimal": ".",
    "nav-menuImport-importDOE-uploadDOE-bounds-defLB1": 63070,
    "nav-menuImport-importDOE-uploadDOE-bounds-defLB3": 990,
    "nav-menuImport-importDOE-uploadDOE-bounds-defLB4": 63.1,
    "nav-menuImport-importDOE-uploadDOE-bounds-defLB5": 1120,
    "nav-menuImport-importDOE-uploadDOE-bounds-defLB6": 1500,
    "nav-menuImport-importDOE-uploadDOE-bounds-defLB7": 100,
    "nav-menuImport-importDOE-uploadDOE-bounds-defUB1": 115600,
    "nav-menuImport-importDOE-uploadDOE-bounds-defUB3": 1110,
    "nav-menuImport-importDOE-uploadDOE-bounds-defUB4": 116,
    "nav-menuImport-importDOE-uploadDOE-bounds-defUB5": 1680,
    "nav-menuImport-importDOE-uploadDOE-bounds-defUB6": 15000,
    "nav-menuImport-importDOE-uploadDOE-bounds-defUB7": 50000,
    "nav-menuImport-importDOE-uploadDOE-bounds-file": {
      "name": [
        "Xinfos.txt"
      ],
      "size": [
        187
      ],
      "type": [
        "text/plain"
      ],
      "datapath": [
        "0.txt"
      ]
    },
    "nav-menuImport-importDOE-uploadDOE-bounds-level21": "Cat1",
    "nav-menuImport-importDOE-uploadDOE-bounds-level22": "Cat2",
    "nav-menuImport-importDOE-uploadDOE-bounds-level23": "Cat3",
    "nav-menuImport-importDOE-uploadDOE-bounds-level81": "700",
    "nav-menuImport-importDOE-uploadDOE-bounds-level82": "740",
    "nav-menuImport-importDOE-uploadDOE-bounds-level83": "780",
    "nav-menuImport-importDOE-uploadDOE-bounds-level84": "820",
    "nav-menuImport-importDOE-uploadDOE-bounds-modal": false,
    "nav-menuImport-importDOE-uploadDOE-bounds-name1": "Tu",
    "nav-menuImport-importDOE-uploadDOE-bounds-name2": "rw",
    "nav-menuImport-importDOE-uploadDOE-bounds-name3": "Hu",
    "nav-menuImport-importDOE-uploadDOE-bounds-name4": "Tl",
    "nav-menuImport-importDOE-uploadDOE-bounds-name5": "L",
    "nav-menuImport-importDOE-uploadDOE-bounds-name6": "Kw",
    "nav-menuImport-importDOE-uploadDOE-bounds-name7": "r",
    "nav-menuImport-importDOE-uploadDOE-bounds-name8": "Hl",
    "nav-menuImport-importDOE-uploadDOE-bounds-nlevels2": 3,
    "nav-menuImport-importDOE-uploadDOE-bounds-nlevels8": 4,
    "nav-menuImport-importDOE-uploadDOE-bounds-preview_cell_clicked": {

    },
    "nav-menuImport-importDOE-uploadDOE-bounds-preview_cells_selected": [

    ],
    "nav-menuImport-importDOE-uploadDOE-bounds-preview_columns_selected": null,
    "nav-menuImport-importDOE-uploadDOE-bounds-preview_rows_all": [
      1,
      2,
      3,
      4,
      5
    ],
    "nav-menuImport-importDOE-uploadDOE-bounds-preview_rows_current": [
      1,
      2,
      3,
      4,
      5
    ],
    "nav-menuImport-importDOE-uploadDOE-bounds-preview_rows_selected": null,
    "nav-menuImport-importDOE-uploadDOE-bounds-preview_search": "",
    "nav-menuImport-importDOE-uploadDOE-bounds-preview_state": {
      "start": 0,
      "length": 9,
      "order": [

      ],
      "search": {
        "search": "",
        "smart": true,
        "regex": false,
        "caseInsensitive": true
      },
      "columns": [
        {
          "visible": true,
          "search": {
            "search": "",
            "smart": true,
            "regex": false,
            "caseInsensitive": true
          }
        },
        {
          "visible": true,
          "search": {
            "search": "",
            "smart": true,
            "regex": false,
            "caseInsensitive": true
          }
        },
        {
          "visible": true,
          "search": {
            "search": "",
            "smart": true,
            "regex": false,
            "caseInsensitive": true
          }
        },
        {
          "visible": true,
          "search": {
            "search": "",
            "smart": true,
            "regex": false,
            "caseInsensitive": true
          }
        },
        {
          "visible": true,
          "search": {
            "search": "",
            "smart": true,
            "regex": false,
            "caseInsensitive": true
          }
        },
        {
          "visible": true,
          "search": {
            "search": "",
            "smart": true,
            "regex": false,
            "caseInsensitive": true
          }
        },
        {
          "visible": true,
          "search": {
            "search": "",
            "smart": true,
            "regex": false,
            "caseInsensitive": true
          }
        },
        {
          "visible": true,
          "search": {
            "search": "",
            "smart": true,
            "regex": false,
            "caseInsensitive": true
          }
        },
        {
          "visible": true,
          "search": {
            "search": "",
            "smart": true,
            "regex": false,
            "caseInsensitive": true
          }
        }
      ],
      "scroller": {
        "topRow": 0,
        "baseScrollTop": 0,
        "baseRowTop": 0,
        "scrollTop": 0
      }
    },
    "nav-menuImport-importDOE-uploadDOE-bounds-reset": 0,
    "nav-menuImport-importDOE-uploadDOE-bounds-save": 1,
    "nav-menuImport-importDOE-uploadDOE-bounds-separator": ",",
    "nav-menuImport-importDOE-uploadDOE-bounds-type1": "numeric",
    "nav-menuImport-importDOE-uploadDOE-bounds-type2": "categorical",
    "nav-menuImport-importDOE-uploadDOE-bounds-type3": "numeric",
    "nav-menuImport-importDOE-uploadDOE-bounds-type4": "numeric",
    "nav-menuImport-importDOE-uploadDOE-bounds-type5": "numeric",
    "nav-menuImport-importDOE-uploadDOE-bounds-type6": "numeric",
    "nav-menuImport-importDOE-uploadDOE-bounds-type7": "numeric",
    "nav-menuImport-importDOE-uploadDOE-bounds-type8": "categorical",
    "nav-menuImport-importDOE-uploadDOE-change.names-change": 0,
    "nav-menuImport-importDOE-uploadDOE-change.names-modal": false,
    "nav-menuImport-importDOE-uploadDOE-close": 0,
    "nav-menuImport-importDOE-uploadDOE-decimal": ".",
    "nav-menuImport-importDOE-uploadDOE-file": {
      "name": [
        "DOEXY.csv"
      ],
      "size": [
        12951
      ],
      "type": [
        "text/csv"
      ],
      "datapath": [
        "0.csv"
      ]
    },
    "nav-menuImport-importDOE-uploadDOE-headerdf_cell_clicked": {

    },
    "nav-menuImport-importDOE-uploadDOE-headerdf_cells_selected": [

    ],
    "nav-menuImport-importDOE-uploadDOE-headerdf_columns_selected": null,
    "nav-menuImport-importDOE-uploadDOE-headerdf_rows_all": [
      1,
      2,
      3,
      4,
      5
    ],
    "nav-menuImport-importDOE-uploadDOE-headerdf_rows_current": [
      1,
      2,
      3,
      4,
      5
    ],
    "nav-menuImport-importDOE-uploadDOE-headerdf_rows_selected": null,
    "nav-menuImport-importDOE-uploadDOE-headerdf_search": "",
    "nav-menuImport-importDOE-uploadDOE-headerdf_search_columns": [
      "",
      "",
      "",
      "",
      "",
      "",
      "",
      "",
      ""
    ],
    "nav-menuImport-importDOE-uploadDOE-headerdf_state": {
      "start": 0,
      "length": 9,
      "order": [

      ],
      "search": {
        "search": "",
        "smart": true,
        "regex": false,
        "caseInsensitive": true
      },
      "columns": [
        {
          "visible": true,
          "search": {
            "search": "",
            "smart": true,
            "regex": false,
            "caseInsensitive": true
          }
        },
        {
          "visible": true,
          "search": {
            "search": "",
            "smart": true,
            "regex": false,
            "caseInsensitive": true
          }
        },
        {
          "visible": true,
          "search": {
            "search": "",
            "smart": true,
            "regex": false,
            "caseInsensitive": true
          }
        },
        {
          "visible": true,
          "search": {
            "search": "",
            "smart": true,
            "regex": false,
            "caseInsensitive": true
          }
        },
        {
          "visible": true,
          "search": {
            "search": "",
            "smart": true,
            "regex": false,
            "caseInsensitive": true
          }
        },
        {
          "visible": true,
          "search": {
            "search": "",
            "smart": true,
            "regex": false,
            "caseInsensitive": true
          }
        },
        {
          "visible": true,
          "search": {
            "search": "",
            "smart": true,
            "regex": false,
            "caseInsensitive": true
          }
        },
        {
          "visible": true,
          "search": {
            "search": "",
            "smart": true,
            "regex": false,
            "caseInsensitive": true
          }
        },
        {
          "visible": true,
          "search": {
            "search": "",
            "smart": true,
            "regex": false,
            "caseInsensitive": true
          }
        },
        {
          "visible": true,
          "search": {
            "search": "",
            "smart": true,
            "regex": false,
            "caseInsensitive": true
          }
        }
      ],
      "scroller": {
        "topRow": 0,
        "baseScrollTop": 0,
        "baseRowTop": 0,
        "scrollTop": 0
      }
    },
    "nav-menuImport-importDOE-uploadDOE-importconfirm": 0,
    "nav-menuImport-importDOE-uploadDOE-inputsconfirm": 0,
    "nav-menuImport-importDOE-uploadDOE-inputsdismiss": 0,
    "nav-menuImport-importDOE-uploadDOE-modalBlockNA": false,
    "nav-menuImport-importDOE-uploadDOE-modalDuplicateColnames": false,
    "nav-menuImport-importDOE-uploadDOE-modalFusedDOE": false,
    "nav-menuImport-importDOE-uploadDOE-modalNAcolumns": false,
    "nav-menuImport-importDOE-uploadDOE-modalduplicate": false,
    "nav-menuImport-importDOE-uploadDOE-nX": 8,
    "nav-menuImport-importDOE-uploadDOE-nobs.firstcol": false,
    "nav-menuImport-importDOE-uploadDOE-nvalues": 5,
    "nav-menuImport-importDOE-uploadDOE-separator": ",",
    "nav-menuMore-settings-activeCollapseSettings": "",
    "nav-menuMore-settings-collapseSettingsDOE": null,
    "nav-menuMore-settings-collapseSettingsExploration": null,
    "nav-menuMore-settings-collapseSettingsGSA": null,
    "nav-menuMore-settings-collapseSettingsOptimization": null,
    "nav-menuMore-settings-collapseSettingsRobust": null,
    "nav-menuMore-settings-collapseSettingsSurrogate": null,
    "nav-menuMore-settings-collapseSettingsUQ": null,
    "nav-menuMore-settings-desactiveCollapseSettings": "",
    "nav-menuMore-settings-panelDownload": null,
    "nav-menuMore-settings-settingsDOE-nrepML": 50,
    "nav-menuMore-settings-settingsDOE-ntestMC": 100,
    "nav-menuMore-settings-settingsExploration-ftemp": 0.5,
    "nav-menuMore-settings-settingsExploration-ncontours": 20,
    "nav-menuMore-settings-settingsExploration-nobsparcoords": 5000,
    "nav-menuMore-settings-settingsExploration-nsignif": 3,
    "nav-menuMore-settings-settingsExploration-nsteps": 20,
    "nav-menuMore-settings-settingsGSA-nrepGSA": 50,
    "nav-menuMore-settings-settingsGSA-nsample": 1000,
    "nav-menuMore-settings-settingsGSA-nsampleShapley": 5000,
    "nav-menuMore-settings-settingsOptimization-COalgo": "ISRES",
    "nav-menuMore-settings-settingsOptimization-nmultistart": 50,
    "nav-menuMore-settings-settingsRobust-ROalgo": "ISRES",
    "nav-menuMore-settings-settingsRobust-nRmultistart": 50,
    "nav-menuMore-settings-settingsSurrogate-KMalgo": "Maximum Likelihood",
    "nav-menuMore-settings-settingsSurrogate-nfaure": 10000,
    "nav-menuMore-settings-settingsSurrogate-tlength": 5,
    "nav-menuMore-settings-settingsUQ-nrepproba": 50,
    "nav-menuOptimize-closeCollapseOptim": "",
    "nav-menuOptimize-collapseOptim": null,
    "nav-menuOptimize-constrained-closeCollapseConstrainedOptim": "",
    "nav-menuOptimize-constrained-collapseConstrainedOptim": null,
    "nav-menuOptimize-constrained-constrainedDefine-bounds-change": 0,
    "nav-menuOptimize-constrained-constrainedDefine-bounds-decimal": ".",
    "nav-menuOptimize-constrained-constrainedDefine-bounds-file": null,
    "nav-menuOptimize-constrained-constrainedDefine-bounds-modal": false,
    "nav-menuOptimize-constrained-constrainedDefine-bounds-reset": 0,
    "nav-menuOptimize-constrained-constrainedDefine-bounds-separator": ",",
    "nav-menuOptimize-constrained-constrainedDefine-closeoptimdef": 0,
    "nav-menuOptimize-constrained-constrainedDefine-file": null,
    "nav-menuOptimize-constrained-constrainedDefine-modalDefineOptim": false,
    "nav-menuOptimize-constrained-constrainedDefine-optimdef": 0,
    "nav-menuOptimize-constrained-constrainedDefine-resetConstrOptim": 0,
    "nav-menuOptimize-constrained-constrainedDefine-saveoptimdef": 0,
    "nav-menuOptimize-constrained-constrainedDefine-x0change-change": 0,
    "nav-menuOptimize-constrained-constrainedDefine-x0change-file": null,
    "nav-menuOptimize-constrained-constrainedDefine-x0change-modal": false,
    "nav-menuOptimize-constrained-constrainedExplore-arrange.method": "fromRight",
    "nav-menuOptimize-constrained-constrainedExplore-choose.palette.cat": "Paired",
    "nav-menuOptimize-constrained-constrainedExplore-choose.palette.num": "Blues",
    "nav-menuOptimize-constrained-constrainedExplore-corrPlotCs": "RdBu",
    "nav-menuOptimize-constrained-constrainedExplore-corrPlotType": "Text",
    "nav-menuOptimize-constrained-constrainedExplore-distribType": "1",
    "nav-menuOptimize-constrained-constrainedExplore-downloadPcpButton": 0,
    "nav-menuOptimize-constrained-constrainedExplore-downloadSpmButton": 0,
    "nav-menuOptimize-constrained-constrainedExplore-layout": "Vertical",
    "nav-menuOptimize-constrained-constrainedSolve-OptimFailed": "All Criteria",
    "nav-menuOptimize-constrained-constrainedSolve-closeCollapse": "",
    "nav-menuOptimize-constrained-constrainedSolve-collapse": null,
    "nav-menuOptimize-constrained-constrainedSolve-generate": 0,
    "nav-menuOptimize-constrained-constrainedSolve-go": 0,
    "nav-menuOptimize-constrained-constrainedSolve-launch.simu": 0,
    "nav-menuOptimize-constrained-constrainedSolve-modalLaunchSimu": false,
    "nav-menuOptimize-constrained-constrainedSolve-modalPostOptimPlot": false,
    "nav-menuOptimize-constrained-constrainedSolve-nadd": 1,
    "nav-menuOptimize-constrained-constrainedSolve-openCollapse": "",
    "nav-menuOptimize-constrained-constrainedSolve-postOptimPlot": 0,
    "nav-menuOptimize-constrained-constrainedSolve-ranseed": 0,
    "nav-menuOptimize-constrained-constrainedSolve-simu.automatic": 0,
    "nav-menuOptimize-constrained-constrainedSolve-simu.manual": 0,
    "nav-menuOptimize-constrained-openCollapseConstrainedOptim": "",
    "nav-menuOptimize-openCollapseOptim": "",
    "nav-menuOptimize-robust-robustAnalysis-go": 0,
    "nav-menuOptimize-robust-robustDefine-file": null,
    "nav-menuOptimize-robust-robustSolve-ROcrit": "Mean",
    "nav-menuOptimize-robust-robustSolve-collapse": null,
    "nav-menuOptimize-robust-robustSolve-go": 0,
    "nav-menuOptimize-robust-robustSolve-threshproba": 0.9,
    "nav-menuOptimize-sequential-sequentialDefine-bounds-change": 0,
    "nav-menuOptimize-sequential-sequentialDefine-bounds-decimal": ".",
    "nav-menuOptimize-sequential-sequentialDefine-bounds-file": null,
    "nav-menuOptimize-sequential-sequentialDefine-bounds-modal": false,
    "nav-menuOptimize-sequential-sequentialDefine-bounds-reset": 0,
    "nav-menuOptimize-sequential-sequentialDefine-bounds-separator": ",",
    "nav-menuOptimize-sequential-sequentialDefine-closeoptimdef": 0,
    "nav-menuOptimize-sequential-sequentialDefine-file": null,
    "nav-menuOptimize-sequential-sequentialDefine-modalDefineOptim": false,
    "nav-menuOptimize-sequential-sequentialDefine-optimdef": 0,
    "nav-menuOptimize-sequential-sequentialDefine-resetConstrOptim": 0,
    "nav-menuOptimize-sequential-sequentialDefine-saveoptimdef": 0,
    "nav-menuOptimize-sequential-sequentialDefine-x0change-change": 0,
    "nav-menuOptimize-sequential-sequentialDefine-x0change-file": null,
    "nav-menuOptimize-sequential-sequentialDefine-x0change-modal": false,
    "nav-menuOptimize-sequential-sequentialSolve-modalConvergedOptim": false,
    "nav-menuOptimize-sequential-sequentialSolve-modalIter": false,
    "nav-menuOptimize-sequential-sequentialSolve-modalSettings": false,
    "nav-menuOptimize-sequential-sequentialSolve-modalfailOptimStep1": false,
    "nav-menuOptimize-sequential-sequentialSolve-modalfailOptimStep3": false,
    "nav-menuOptimize-sequential-sequentialSolve-nitermax": 1,
    "nav-menuOptimize-sequential-sequentialSolve-nptsiter": 1,
    "nav-menuOptimize-sequential-sequentialSolve-optimsettings": 0,
    "nav-menuOptimize-sequential-sequentialSolve-restartOptim": 0,
    "nav-menuOptimize-sequential-sequentialSolve-stopOptim": 0,
    "nav-menuOptimize-sequential-sequentialSolve-studyIter": 0,
    "nav-menuOptimize-unconstrained-bounds-change": 0,
    "nav-menuOptimize-unconstrained-bounds-decimal": ".",
    "nav-menuOptimize-unconstrained-bounds-file": null,
    "nav-menuOptimize-unconstrained-bounds-modal": false,
    "nav-menuOptimize-unconstrained-bounds-reset": 0,
    "nav-menuOptimize-unconstrained-bounds-separator": ",",
    "nav-menuOptimize-unconstrained-generate": 0,
    "nav-menuOptimize-unconstrained-goOptim": 0,
    "nav-menuOptimize-unconstrained-launch.simu": 0,
    "nav-menuOptimize-unconstrained-modalLaunchSimu": false,
    "nav-menuOptimize-unconstrained-modalPostOptimPlot": false,
    "nav-menuOptimize-unconstrained-nadd": 1,
    "nav-menuOptimize-unconstrained-postOptimPlot": 0,
    "nav-menuOptimize-unconstrained-resetUnconstrOptim": 0,
    "nav-menuOptimize-unconstrained-sign1": "Minimize",
    "nav-menuOptimize-unconstrained-sign2": "Minimize",
    "nav-menuOptimize-unconstrained-simu.automatic": 0,
    "nav-menuOptimize-unconstrained-simu.manual": 0,
    "nav-prepareDOE-generateDOE-bounds-change": 0,
    "nav-prepareDOE-generateDOE-bounds-decimal": ".",
    "nav-prepareDOE-generateDOE-bounds-file": null,
    "nav-prepareDOE-generateDOE-bounds-modal": false,
    "nav-prepareDOE-generateDOE-bounds-reset": 0,
    "nav-prepareDOE-generateDOE-bounds-separator": ",",
    "nav-prepareDOE-generateDOE-evaluateDOE-check": 0,
    "nav-prepareDOE-generateDOE-goDOE": 0,
    "nav-prepareDOE-generateDOE-nX": 2,
    "nav-prepareDOE-generateDOE-plotVisualize-advancedSettings": 0,
    "nav-prepareDOE-generateDOE-plotVisualize-advancedSettings_state": false,
    "nav-prepareDOE-generateDOE-plotVisualize-choose.palette.cat": "Category10",
    "nav-prepareDOE-generateDOE-plotVisualize-choose.palette.num": "Viridis",
    "nav-prepareDOE-generateDOE-plotVisualize-corrPlotCs": "RdBu",
    "nav-prepareDOE-generateDOE-plotVisualize-corrPlotType": "Text",
    "nav-prepareDOE-generateDOE-plotVisualize-distribType": "1",
    "nav-prepareDOE-generateDOE-plotVisualize-downloadSpmButton": 0,
    "nav-prepareDOE-generateDOE-plotVisualize-mouseMode": "tooltip",
    "nav-prepareDOE-generateDOE-prepare-modalcheckDOE": false,
    "nav-prepareDOE-generateDOE-prepare.gocheckDOE": 0,
    "nav-saveStudy-elementsToSave": null,
    "nav-saveStudy-saveOrDownload": "Save in app",
    "nav-surrogate-buildsurrogate-acosso1outputs": "1",
    "nav-surrogate-buildsurrogate-acosso2outputs": "1",
    "nav-surrogate-buildsurrogate-buildacosso1": 0,
    "nav-surrogate-buildsurrogate-buildacosso2": 0,
    "nav-surrogate-buildsurrogate-buildkriging": 0,
    "nav-surrogate-buildsurrogate-buildlasso": 0,
    "nav-surrogate-buildsurrogate-builduserdefined": 0,
    "nav-surrogate-buildsurrogate-computeQ2test": 0,
    "nav-surrogate-buildsurrogate-decimal": ".",
    "nav-surrogate-buildsurrogate-fileQ2test": null,
    "nav-surrogate-buildsurrogate-interpolate": true,
    "nav-surrogate-buildsurrogate-krig.multistart": false,
    "nav-surrogate-buildsurrogate-krigingoutputs": "1",
    "nav-surrogate-buildsurrogate-loadQ2testfile": 0,
    "nav-surrogate-buildsurrogate-modalAcosso1": false,
    "nav-surrogate-buildsurrogate-modalAcosso2": false,
    "nav-surrogate-buildsurrogate-modalKriging": false,
    "nav-surrogate-buildsurrogate-modalQ2": false,
    "nav-surrogate-buildsurrogate-modalQ2testfile": false,
    "nav-surrogate-buildsurrogate-modalUserDefined": false,
    "nav-surrogate-buildsurrogate-outQ2thresholdacosso1": 0.95,
    "nav-surrogate-buildsurrogate-outQ2thresholdacosso2": 0.95,
    "nav-surrogate-buildsurrogate-outQ2thresholdkriging": 0.95,
    "nav-surrogate-buildsurrogate-outQ2thresholdsurrogate": 0.95,
    "nav-surrogate-buildsurrogate-retrain": false,
    "nav-surrogate-buildsurrogate-separator": ",",
    "nav-surrogate-buildsurrogate-surrogatemode": "Normal Mode",
    "nav-surrogate-buildsurrogate-surrogateoutputs": "1",
    "nav-surrogate-choosesurrogate-modalQ2final": false,
    "nav-surrogate-choosesurrogate-saveFinalSurrogate": 0,
    "nav-surrogate-closePanelSurrogate": "",
    "nav-surrogate-collapseSurrogate": "Build Surrogate Models",
    "nav-surrogate-modalViewDOEsurrogate": false,
    "nav-surrogate-modalconfirm.refresh": false,
    "nav-surrogate-openPanelSurrogate": "",
    "nav-surrogate-refinesurrogate-criteria": "Global Accuracy",
    "nav-surrogate-refinesurrogate-generate": 0,
    "nav-surrogate-refinesurrogate-launch.simu": 0,
    "nav-surrogate-refinesurrogate-modalLaunchSimu": false,
    "nav-surrogate-refinesurrogate-nadd": 1,
    "nav-surrogate-refinesurrogate-simu.automatic": 0,
    "nav-surrogate-refinesurrogate-simu.manual": 0,
    "nav-surrogate-surrogate.refresh": 0,
    "nav-workflow-displayExplore": null,
    "nav-workflow-displayImportData": "Import DOE",
    "nav-workflow-displayOptimize": null,
    "nav-workflow-displayPrepareDOE": "Prepare DOE",
    "nav-workflow-displaySurrogateModel": null
  },
  "output": {
    "nav-importDOEtab.clicked": true,
    "nav-menuExplore-UQModel-uncertaintyPropagation-conditionalRefine": {
      "message": "",
      "call": "NULL",
      "type": [
        "shiny.silent.error",
        "validation"
      ]
    },
    "nav-menuExplore-UQModel-uncertaintyPropagation-use_simulator": false,
    "nav-menuImport-importDOE-directOptim-conditionalPostOptim": false,
    "nav-menuImport-importDOE-directOptim-constrainedDefine-conditionalChangeButton": true,
    "nav-menuImport-importDOE-directOptim-constrainedDefine-conditionalOptimTypes": false,
    "nav-menuImport-importDOE-perform_DOE": false,
    "nav-menuImport-importDOE-perform_direct_optim": false,
    "nav-menuImport-importDOE-uploadDOE-bounds-footer": {
      "html": "<div class=\"col-sm-12\"><\/div>\n<div class=\"row\">\n  <div class=\"col-sm-3 offset-md-2 col-sm-offset-2\">\n    <button class=\"btn btn-default action-button btn-warning\" id=\"nav-menuImport-importDOE-uploadDOE-bounds-save\" style=\"width:100%;\" type=\"button\">Save and Close<\/button>\n  <\/div>\n  <div class=\"col-sm-3 offset-md-2 col-sm-offset-2\">\n    <button class=\"btn btn-default action-button btn-secondary\" id=\"nav-menuImport-importDOE-uploadDOE-bounds-close\" style=\"width:100%;\" type=\"button\">Dismiss<\/button>\n  <\/div>\n<\/div>",
      "deps": [

      ]
    },
    "nav-menuImport-importDOE-uploadDOE-bounds-preview": {
      "x": {
        "filter": "none",
        "vertical": false,
        "extensions": [
          "FixedColumns",
          "Scroller"
        ],
        "container": "<table class=\"display\">\n  <thead>\n    <tr>\n      <th> <\/th>\n      <th>Tu<\/th>\n      <th>rw<\/th>\n      <th>Hu<\/th>\n      <th>Tl<\/th>\n      <th>L<\/th>\n      <th>Kw<\/th>\n      <th>r<\/th>\n      <th>Hl<\/th>\n    <\/tr>\n  <\/thead>\n<\/table>",
        "options": {
          "dom": "t",
          "ordering": false,
          "pageLength": 2,
          "scrollX": true,
          "scroller": true,
          "fixedColumns": true,
          "columnDefs": [
            {
              "targets": [
                1,
                2,
                3,
                4,
                5,
                6,
                7,
                8
              ],
              "render": "function(data, type, row, meta) {\nreturn type === 'display' && data.length > 12 ?\n'<span title=\"' + data + '\">' + data.substr(0, 12) + '...<\/span>' : data;\n}"
            },
            {
              "orderable": false,
              "targets": 0
            }
          ],
          "order": [

          ],
          "autoWidth": false,
          "orderClasses": false,
          "lengthMenu": [
            2,
            10,
            25,
            50,
            100
          ],
          "ajax": {
            "type": "POST",
            "data": "function(d) {\nd.search.caseInsensitive = true;\nd.search.smart = true;\nd.escape = false;\nvar encodeAmp = function(x) { x.value = x.value.replace(/&/g, \"%26\"); }\nencodeAmp(d.search);\n$.each(d.columns, function(i, v) {encodeAmp(v.search);});\n}"
          },
          "serverSide": true,
          "processing": true
        },
        "selection": {
          "mode": "multiple",
          "selected": null,
          "target": "row",
          "selectable": null
        }
      },
      "evals": [
        "options.columnDefs.0.render",
        "options.ajax.data"
      ],
      "jsHooks": [

      ],
      "deps": [
        {
          "name": "jquery",
          "version": "3.6.0",
          "src": {
            "href": "jquery-3.6.0"
          },
          "meta": null,
          "script": "jquery-3.6.0.min.js",
          "stylesheet": null,
          "head": null,
          "attachment": null,
          "all_files": true
        },
        {
          "name": "dt-core",
          "version": "1.13.4",
          "src": {
            "href": "dt-core-1.13.4"
          },
          "meta": null,
          "script": "js/jquery.dataTables.min.js",
          "stylesheet": [
            "css/jquery.dataTables.min.css",
            "css/jquery.dataTables.extra.css"
          ],
          "head": null,
          "attachment": null,
          "package": null,
          "all_files": false
        },
        {
          "name": "dt-ext-fixedcolumns",
          "version": "1.13.4",
          "src": {
            "href": "dt-ext-fixedcolumns-1.13.4"
          },
          "meta": null,
          "script": "js/dataTables.fixedColumns.min.js",
          "stylesheet": "css/fixedColumns.dataTables.min.css",
          "head": null,
          "attachment": null,
          "package": null,
          "all_files": false
        },
        {
          "name": "dt-ext-scroller",
          "version": "1.13.4",
          "src": {
            "href": "dt-ext-scroller-1.13.4"
          },
          "meta": null,
          "script": "js/dataTables.scroller.min.js",
          "stylesheet": "css/scroller.dataTables.min.css",
          "head": null,
          "attachment": null,
          "package": null,
          "all_files": false
        },
        {
          "name": "crosstalk",
          "version": "1.2.1",
          "src": {
            "href": "crosstalk-1.2.1"
          },
          "meta": null,
          "script": "js/crosstalk.min.js",
          "stylesheet": "css/crosstalk.min.css",
          "head": null,
          "attachment": null,
          "all_files": true
        }
      ]
    },
    "nav-menuImport-importDOE-uploadDOE-bounds-rangeInputs": {
      "html": "<div class=\"row\">\n  <div class=\"col-sm-3\">\n    <div class=\"form-group shiny-input-container\">\n      <label class=\"control-label\" id=\"nav-menuImport-importDOE-uploadDOE-bounds-name1-label\" for=\"nav-menuImport-importDOE-uploadDOE-bounds-name1\">Input Name<\/label>\n      <input id=\"nav-menuImport-importDOE-uploadDOE-bounds-name1\" type=\"text\" class=\"shiny-input-text form-control\" value=\"Tu\"/>\n    <\/div>\n  <\/div>\n  <div class=\"col-sm-3\">\n    <div class=\"form-group shiny-input-container\">\n      <label class=\"control-label\" id=\"nav-menuImport-importDOE-uploadDOE-bounds-type1-label\" for=\"nav-menuImport-importDOE-uploadDOE-bounds-type1\">Type<\/label>\n      <div>\n        <select id=\"nav-menuImport-importDOE-uploadDOE-bounds-type1\" class=\"shiny-input-select\"><option value=\"numeric\" selected>numeric<\/option>\n<option value=\"categorical\">categorical<\/option>\n<option value=\"constant\">constant<\/option><\/select>\n        <script type=\"application/json\" data-for=\"nav-menuImport-importDOE-uploadDOE-bounds-type1\" data-nonempty=\"\">{\"plugins\":[\"selectize-plugin-a11y\"]}<\/script>\n      <\/div>\n    <\/div>\n  <\/div>\n  <div class=\"row\">\n    <div class=\"col-sm-3\">\n      <div class=\"form-group shiny-input-container\">\n        <label class=\"control-label\" id=\"nav-menuImport-importDOE-uploadDOE-bounds-defLB1-label\" for=\"nav-menuImport-importDOE-uploadDOE-bounds-defLB1\">Lower Bound<\/label>\n        <input id=\"nav-menuImport-importDOE-uploadDOE-bounds-defLB1\" type=\"number\" class=\"shiny-input-number form-control\" value=\"63070\"/>\n      <\/div>\n    <\/div>\n    <div class=\"col-sm-3\">\n      <div class=\"form-group shiny-input-container\">\n        <label class=\"control-label\" id=\"nav-menuImport-importDOE-uploadDOE-bounds-defUB1-label\" for=\"nav-menuImport-importDOE-uploadDOE-bounds-defUB1\">Upper Bound<\/label>\n        <input id=\"nav-menuImport-importDOE-uploadDOE-bounds-defUB1\" type=\"number\" class=\"shiny-input-number form-control\" value=\"115600\"/>\n      <\/div>\n    <\/div>\n  <\/div>\n<\/div>\n<div class=\"row\">\n  <div class=\"col-sm-3\">\n    <div class=\"form-group shiny-input-container\">\n      <label class=\"control-label\" id=\"nav-menuImport-importDOE-uploadDOE-bounds-name2-label\" for=\"nav-menuImport-importDOE-uploadDOE-bounds-name2\">Input Name<\/label>\n      <input id=\"nav-menuImport-importDOE-uploadDOE-bounds-name2\" type=\"text\" class=\"shiny-input-text form-control\" value=\"rw\"/>\n    <\/div>\n  <\/div>\n  <div class=\"col-sm-3\">\n    <div class=\"form-group shiny-input-container\">\n      <label class=\"control-label\" id=\"nav-menuImport-importDOE-uploadDOE-bounds-type2-label\" for=\"nav-menuImport-importDOE-uploadDOE-bounds-type2\">Type<\/label>\n      <div>\n        <select id=\"nav-menuImport-importDOE-uploadDOE-bounds-type2\" class=\"shiny-input-select\"><option value=\"numeric\">numeric<\/option>\n<option value=\"categorical\" selected>categorical<\/option>\n<option value=\"constant\">constant<\/option><\/select>\n        <script type=\"application/json\" data-for=\"nav-menuImport-importDOE-uploadDOE-bounds-type2\" data-nonempty=\"\">{\"plugins\":[\"selectize-plugin-a11y\"]}<\/script>\n      <\/div>\n    <\/div>\n  <\/div>\n  <div class=\"row\">\n    <div class=\"col-sm-3\">\n      <strong>Number of levels (Not editable)<\/strong>\n      <div class=\"row\">\n        <div class=\"col-sm-8\">\n          <div class=\"form-group shiny-input-container\">\n            <label class=\"control-label shiny-label-null\" for=\"nav-menuImport-importDOE-uploadDOE-bounds-nlevels2\" id=\"nav-menuImport-importDOE-uploadDOE-bounds-nlevels2-label\"><\/label>\n            <input id=\"nav-menuImport-importDOE-uploadDOE-bounds-nlevels2\" type=\"number\" class=\"shiny-input-number form-control\" value=\"3\" min=\"2\"/>\n          <\/div>\n        <\/div>\n      <\/div>\n    <\/div>\n    <div class=\"col-sm-3\">\n      <strong>Levels<\/strong>\n      <div class=\"form-group shiny-input-container\">\n        <label class=\"control-label shiny-label-null\" for=\"nav-menuImport-importDOE-uploadDOE-bounds-level21\" id=\"nav-menuImport-importDOE-uploadDOE-bounds-level21-label\"><\/label>\n        <input id=\"nav-menuImport-importDOE-uploadDOE-bounds-level21\" type=\"text\" class=\"shiny-input-text form-control\" value=\"Cat1\"/>\n      <\/div>\n      <div class=\"form-group shiny-input-container\">\n        <label class=\"control-label shiny-label-null\" for=\"nav-menuImport-importDOE-uploadDOE-bounds-level22\" id=\"nav-menuImport-importDOE-uploadDOE-bounds-level22-label\"><\/label>\n        <input id=\"nav-menuImport-importDOE-uploadDOE-bounds-level22\" type=\"text\" class=\"shiny-input-text form-control\" value=\"Cat2\"/>\n      <\/div>\n      <div class=\"form-group shiny-input-container\">\n        <label class=\"control-label shiny-label-null\" for=\"nav-menuImport-importDOE-uploadDOE-bounds-level23\" id=\"nav-menuImport-importDOE-uploadDOE-bounds-level23-label\"><\/label>\n        <input id=\"nav-menuImport-importDOE-uploadDOE-bounds-level23\" type=\"text\" class=\"shiny-input-text form-control\" value=\"Cat3\"/>\n      <\/div>\n    <\/div>\n  <\/div>\n<\/div>\n<div class=\"row\">\n  <div class=\"col-sm-3\">\n    <div class=\"form-group shiny-input-container\">\n      <label class=\"control-label\" id=\"nav-menuImport-importDOE-uploadDOE-bounds-name3-label\" for=\"nav-menuImport-importDOE-uploadDOE-bounds-name3\">Input Name<\/label>\n      <input id=\"nav-menuImport-importDOE-uploadDOE-bounds-name3\" type=\"text\" class=\"shiny-input-text form-control\" value=\"Hu\"/>\n    <\/div>\n  <\/div>\n  <div class=\"col-sm-3\">\n    <div class=\"form-group shiny-input-container\">\n      <label class=\"control-label\" id=\"nav-menuImport-importDOE-uploadDOE-bounds-type3-label\" for=\"nav-menuImport-importDOE-uploadDOE-bounds-type3\">Type<\/label>\n      <div>\n        <select id=\"nav-menuImport-importDOE-uploadDOE-bounds-type3\" class=\"shiny-input-select\"><option value=\"numeric\" selected>numeric<\/option>\n<option value=\"categorical\">categorical<\/option>\n<option value=\"constant\">constant<\/option><\/select>\n        <script type=\"application/json\" data-for=\"nav-menuImport-importDOE-uploadDOE-bounds-type3\" data-nonempty=\"\">{\"plugins\":[\"selectize-plugin-a11y\"]}<\/script>\n      <\/div>\n    <\/div>\n  <\/div>\n  <div class=\"row\">\n    <div class=\"col-sm-3\">\n      <div class=\"form-group shiny-input-container\">\n        <label class=\"control-label\" id=\"nav-menuImport-importDOE-uploadDOE-bounds-defLB3-label\" for=\"nav-menuImport-importDOE-uploadDOE-bounds-defLB3\">Lower Bound<\/label>\n        <input id=\"nav-menuImport-importDOE-uploadDOE-bounds-defLB3\" type=\"number\" class=\"shiny-input-number form-control\" value=\"990\"/>\n      <\/div>\n    <\/div>\n    <div class=\"col-sm-3\">\n      <div class=\"form-group shiny-input-container\">\n        <label class=\"control-label\" id=\"nav-menuImport-importDOE-uploadDOE-bounds-defUB3-label\" for=\"nav-menuImport-importDOE-uploadDOE-bounds-defUB3\">Upper Bound<\/label>\n        <input id=\"nav-menuImport-importDOE-uploadDOE-bounds-defUB3\" type=\"number\" class=\"shiny-input-number form-control\" value=\"1110\"/>\n      <\/div>\n    <\/div>\n  <\/div>\n<\/div>\n<div class=\"row\">\n  <div class=\"col-sm-3\">\n    <div class=\"form-group shiny-input-container\">\n      <label class=\"control-label\" id=\"nav-menuImport-importDOE-uploadDOE-bounds-name4-label\" for=\"nav-menuImport-importDOE-uploadDOE-bounds-name4\">Input Name<\/label>\n      <input id=\"nav-menuImport-importDOE-uploadDOE-bounds-name4\" type=\"text\" class=\"shiny-input-text form-control\" value=\"Tl\"/>\n    <\/div>\n  <\/div>\n  <div class=\"col-sm-3\">\n    <div class=\"form-group shiny-input-container\">\n      <label class=\"control-label\" id=\"nav-menuImport-importDOE-uploadDOE-bounds-type4-label\" for=\"nav-menuImport-importDOE-uploadDOE-bounds-type4\">Type<\/label>\n      <div>\n        <select id=\"nav-menuImport-importDOE-uploadDOE-bounds-type4\" class=\"shiny-input-select\"><option value=\"numeric\" selected>numeric<\/option>\n<option value=\"categorical\">categorical<\/option>\n<option value=\"constant\">constant<\/option><\/select>\n        <script type=\"application/json\" data-for=\"nav-menuImport-importDOE-uploadDOE-bounds-type4\" data-nonempty=\"\">{\"plugins\":[\"selectize-plugin-a11y\"]}<\/script>\n      <\/div>\n    <\/div>\n  <\/div>\n  <div class=\"row\">\n    <div class=\"col-sm-3\">\n      <div class=\"form-group shiny-input-container\">\n        <label class=\"control-label\" id=\"nav-menuImport-importDOE-uploadDOE-bounds-defLB4-label\" for=\"nav-menuImport-importDOE-uploadDOE-bounds-defLB4\">Lower Bound<\/label>\n        <input id=\"nav-menuImport-importDOE-uploadDOE-bounds-defLB4\" type=\"number\" class=\"shiny-input-number form-control\" value=\"63.1\"/>\n      <\/div>\n    <\/div>\n    <div class=\"col-sm-3\">\n      <div class=\"form-group shiny-input-container\">\n        <label class=\"control-label\" id=\"nav-menuImport-importDOE-uploadDOE-bounds-defUB4-label\" for=\"nav-menuImport-importDOE-uploadDOE-bounds-defUB4\">Upper Bound<\/label>\n        <input id=\"nav-menuImport-importDOE-uploadDOE-bounds-defUB4\" type=\"number\" class=\"shiny-input-number form-control\" value=\"116\"/>\n      <\/div>\n    <\/div>\n  <\/div>\n<\/div>\n<div class=\"row\">\n  <div class=\"col-sm-3\">\n    <div class=\"form-group shiny-input-container\">\n      <label class=\"control-label\" id=\"nav-menuImport-importDOE-uploadDOE-bounds-name5-label\" for=\"nav-menuImport-importDOE-uploadDOE-bounds-name5\">Input Name<\/label>\n      <input id=\"nav-menuImport-importDOE-uploadDOE-bounds-name5\" type=\"text\" class=\"shiny-input-text form-control\" value=\"L\"/>\n    <\/div>\n  <\/div>\n  <div class=\"col-sm-3\">\n    <div class=\"form-group shiny-input-container\">\n      <label class=\"control-label\" id=\"nav-menuImport-importDOE-uploadDOE-bounds-type5-label\" for=\"nav-menuImport-importDOE-uploadDOE-bounds-type5\">Type<\/label>\n      <div>\n        <select id=\"nav-menuImport-importDOE-uploadDOE-bounds-type5\" class=\"shiny-input-select\"><option value=\"numeric\" selected>numeric<\/option>\n<option value=\"categorical\">categorical<\/option>\n<option value=\"constant\">constant<\/option><\/select>\n        <script type=\"application/json\" data-for=\"nav-menuImport-importDOE-uploadDOE-bounds-type5\" data-nonempty=\"\">{\"plugins\":[\"selectize-plugin-a11y\"]}<\/script>\n      <\/div>\n    <\/div>\n  <\/div>\n  <div class=\"row\">\n    <div class=\"col-sm-3\">\n      <div class=\"form-group shiny-input-container\">\n        <label class=\"control-label\" id=\"nav-menuImport-importDOE-uploadDOE-bounds-defLB5-label\" for=\"nav-menuImport-importDOE-uploadDOE-bounds-defLB5\">Lower Bound<\/label>\n        <input id=\"nav-menuImport-importDOE-uploadDOE-bounds-defLB5\" type=\"number\" class=\"shiny-input-number form-control\" value=\"1120\"/>\n      <\/div>\n    <\/div>\n    <div class=\"col-sm-3\">\n      <div class=\"form-group shiny-input-container\">\n        <label class=\"control-label\" id=\"nav-menuImport-importDOE-uploadDOE-bounds-defUB5-label\" for=\"nav-menuImport-importDOE-uploadDOE-bounds-defUB5\">Upper Bound<\/label>\n        <input id=\"nav-menuImport-importDOE-uploadDOE-bounds-defUB5\" type=\"number\" class=\"shiny-input-number form-control\" value=\"1680\"/>\n      <\/div>\n    <\/div>\n  <\/div>\n<\/div>\n<div class=\"row\">\n  <div class=\"col-sm-3\">\n    <div class=\"form-group shiny-input-container\">\n      <label class=\"control-label\" id=\"nav-menuImport-importDOE-uploadDOE-bounds-name6-label\" for=\"nav-menuImport-importDOE-uploadDOE-bounds-name6\">Input Name<\/label>\n      <input id=\"nav-menuImport-importDOE-uploadDOE-bounds-name6\" type=\"text\" class=\"shiny-input-text form-control\" value=\"Kw\"/>\n    <\/div>\n  <\/div>\n  <div class=\"col-sm-3\">\n    <div class=\"form-group shiny-input-container\">\n      <label class=\"control-label\" id=\"nav-menuImport-importDOE-uploadDOE-bounds-type6-label\" for=\"nav-menuImport-importDOE-uploadDOE-bounds-type6\">Type<\/label>\n      <div>\n        <select id=\"nav-menuImport-importDOE-uploadDOE-bounds-type6\" class=\"shiny-input-select\"><option value=\"numeric\" selected>numeric<\/option>\n<option value=\"categorical\">categorical<\/option>\n<option value=\"constant\">constant<\/option><\/select>\n        <script type=\"application/json\" data-for=\"nav-menuImport-importDOE-uploadDOE-bounds-type6\" data-nonempty=\"\">{\"plugins\":[\"selectize-plugin-a11y\"]}<\/script>\n      <\/div>\n    <\/div>\n  <\/div>\n  <div class=\"row\">\n    <div class=\"col-sm-3\">\n      <div class=\"form-group shiny-input-container\">\n        <label class=\"control-label\" id=\"nav-menuImport-importDOE-uploadDOE-bounds-defLB6-label\" for=\"nav-menuImport-importDOE-uploadDOE-bounds-defLB6\">Lower Bound<\/label>\n        <input id=\"nav-menuImport-importDOE-uploadDOE-bounds-defLB6\" type=\"number\" class=\"shiny-input-number form-control\" value=\"1500\"/>\n      <\/div>\n    <\/div>\n    <div class=\"col-sm-3\">\n      <div class=\"form-group shiny-input-container\">\n        <label class=\"control-label\" id=\"nav-menuImport-importDOE-uploadDOE-bounds-defUB6-label\" for=\"nav-menuImport-importDOE-uploadDOE-bounds-defUB6\">Upper Bound<\/label>\n        <input id=\"nav-menuImport-importDOE-uploadDOE-bounds-defUB6\" type=\"number\" class=\"shiny-input-number form-control\" value=\"15000\"/>\n      <\/div>\n    <\/div>\n  <\/div>\n<\/div>\n<div class=\"row\">\n  <div class=\"col-sm-3\">\n    <div class=\"form-group shiny-input-container\">\n      <label class=\"control-label\" id=\"nav-menuImport-importDOE-uploadDOE-bounds-name7-label\" for=\"nav-menuImport-importDOE-uploadDOE-bounds-name7\">Input Name<\/label>\n      <input id=\"nav-menuImport-importDOE-uploadDOE-bounds-name7\" type=\"text\" class=\"shiny-input-text form-control\" value=\"r\"/>\n    <\/div>\n  <\/div>\n  <div class=\"col-sm-3\">\n    <div class=\"form-group shiny-input-container\">\n      <label class=\"control-label\" id=\"nav-menuImport-importDOE-uploadDOE-bounds-type7-label\" for=\"nav-menuImport-importDOE-uploadDOE-bounds-type7\">Type<\/label>\n      <div>\n        <select id=\"nav-menuImport-importDOE-uploadDOE-bounds-type7\" class=\"shiny-input-select\"><option value=\"numeric\" selected>numeric<\/option>\n<option value=\"categorical\">categorical<\/option>\n<option value=\"constant\">constant<\/option><\/select>\n        <script type=\"application/json\" data-for=\"nav-menuImport-importDOE-uploadDOE-bounds-type7\" data-nonempty=\"\">{\"plugins\":[\"selectize-plugin-a11y\"]}<\/script>\n      <\/div>\n    <\/div>\n  <\/div>\n  <div class=\"row\">\n    <div class=\"col-sm-3\">\n      <div class=\"form-group shiny-input-container\">\n        <label class=\"control-label\" id=\"nav-menuImport-importDOE-uploadDOE-bounds-defLB7-label\" for=\"nav-menuImport-importDOE-uploadDOE-bounds-defLB7\">Lower Bound<\/label>\n        <input id=\"nav-menuImport-importDOE-uploadDOE-bounds-defLB7\" type=\"number\" class=\"shiny-input-number form-control\" value=\"100\"/>\n      <\/div>\n    <\/div>\n    <div class=\"col-sm-3\">\n      <div class=\"form-group shiny-input-container\">\n        <label class=\"control-label\" id=\"nav-menuImport-importDOE-uploadDOE-bounds-defUB7-label\" for=\"nav-menuImport-importDOE-uploadDOE-bounds-defUB7\">Upper Bound<\/label>\n        <input id=\"nav-menuImport-importDOE-uploadDOE-bounds-defUB7\" type=\"number\" class=\"shiny-input-number form-control\" value=\"50000\"/>\n      <\/div>\n    <\/div>\n  <\/div>\n<\/div>\n<div class=\"row\">\n  <div class=\"col-sm-3\">\n    <div class=\"form-group shiny-input-container\">\n      <label class=\"control-label\" id=\"nav-menuImport-importDOE-uploadDOE-bounds-name8-label\" for=\"nav-menuImport-importDOE-uploadDOE-bounds-name8\">Input Name<\/label>\n      <input id=\"nav-menuImport-importDOE-uploadDOE-bounds-name8\" type=\"text\" class=\"shiny-input-text form-control\" value=\"Hl\"/>\n    <\/div>\n  <\/div>\n  <div class=\"col-sm-3\">\n    <div class=\"form-group shiny-input-container\">\n      <label class=\"control-label\" id=\"nav-menuImport-importDOE-uploadDOE-bounds-type8-label\" for=\"nav-menuImport-importDOE-uploadDOE-bounds-type8\">Type<\/label>\n      <div>\n        <select id=\"nav-menuImport-importDOE-uploadDOE-bounds-type8\" class=\"shiny-input-select\"><option value=\"numeric\">numeric<\/option>\n<option value=\"categorical\" selected>categorical<\/option>\n<option value=\"constant\">constant<\/option><\/select>\n        <script type=\"application/json\" data-for=\"nav-menuImport-importDOE-uploadDOE-bounds-type8\" data-nonempty=\"\">{\"plugins\":[\"selectize-plugin-a11y\"]}<\/script>\n      <\/div>\n    <\/div>\n  <\/div>\n  <div class=\"row\">\n    <div class=\"col-sm-3\">\n      <strong>Number of levels (Not editable)<\/strong>\n      <div class=\"row\">\n        <div class=\"col-sm-8\">\n          <div class=\"form-group shiny-input-container\">\n            <label class=\"control-label shiny-label-null\" for=\"nav-menuImport-importDOE-uploadDOE-bounds-nlevels8\" id=\"nav-menuImport-importDOE-uploadDOE-bounds-nlevels8-label\"><\/label>\n            <input id=\"nav-menuImport-importDOE-uploadDOE-bounds-nlevels8\" type=\"number\" class=\"shiny-input-number form-control\" value=\"4\" min=\"2\"/>\n          <\/div>\n        <\/div>\n      <\/div>\n    <\/div>\n    <div class=\"col-sm-3\">\n      <strong>Levels<\/strong>\n      <div class=\"form-group shiny-input-container\">\n        <label class=\"control-label shiny-label-null\" for=\"nav-menuImport-importDOE-uploadDOE-bounds-level81\" id=\"nav-menuImport-importDOE-uploadDOE-bounds-level81-label\"><\/label>\n        <input id=\"nav-menuImport-importDOE-uploadDOE-bounds-level81\" type=\"text\" class=\"shiny-input-text form-control\" value=\"700\"/>\n      <\/div>\n      <div class=\"form-group shiny-input-container\">\n        <label class=\"control-label shiny-label-null\" for=\"nav-menuImport-importDOE-uploadDOE-bounds-level82\" id=\"nav-menuImport-importDOE-uploadDOE-bounds-level82-label\"><\/label>\n        <input id=\"nav-menuImport-importDOE-uploadDOE-bounds-level82\" type=\"text\" class=\"shiny-input-text form-control\" value=\"740\"/>\n      <\/div>\n      <div class=\"form-group shiny-input-container\">\n        <label class=\"control-label shiny-label-null\" for=\"nav-menuImport-importDOE-uploadDOE-bounds-level83\" id=\"nav-menuImport-importDOE-uploadDOE-bounds-level83-label\"><\/label>\n        <input id=\"nav-menuImport-importDOE-uploadDOE-bounds-level83\" type=\"text\" class=\"shiny-input-text form-control\" value=\"780\"/>\n      <\/div>\n      <div class=\"form-group shiny-input-container\">\n        <label class=\"control-label shiny-label-null\" for=\"nav-menuImport-importDOE-uploadDOE-bounds-level84\" id=\"nav-menuImport-importDOE-uploadDOE-bounds-level84-label\"><\/label>\n        <input id=\"nav-menuImport-importDOE-uploadDOE-bounds-level84\" type=\"text\" class=\"shiny-input-text form-control\" value=\"820\"/>\n      <\/div>\n    <\/div>\n  <\/div>\n<\/div>",
      "deps": [
        {
          "name": "selectize",
          "version": "0.15.2",
          "src": {
            "href": "selectize-0.15.2"
          },
          "meta": null,
          "script": [
            "js/selectize.min.js",
            "accessibility/js/selectize-plugin-a11y.min.js"
          ],
          "stylesheet": "css/selectize.bootstrap3.css",
          "head": null,
          "attachment": null,
          "all_files": true
        }
      ]
    },
    "nav-menuImport-importDOE-uploadDOE-bounds-warning.file": null,
    "nav-menuImport-importDOE-uploadDOE-headerdf": {
      "x": {
        "filter": "top",
        "vertical": false,
        "filterHTML": "<tr>\n  <td><\/td>\n  <td data-type=\"number\" style=\"vertical-align: top;\">\n    <div class=\"form-group has-feedback\" style=\"margin-bottom: auto;\">\n      <input type=\"search\" placeholder=\"All\" class=\"form-control\" style=\"width: 100%;\"/>\n      <span class=\"glyphicon glyphicon-remove-circle form-control-feedback\"><\/span>\n    <\/div>\n    <div style=\"display: none;position: absolute;width: 200px;opacity: 1\">\n      <div data-min=\"66756.0837291926\" data-max=\"115179.890651703\" data-scale=\"10\"><\/div>\n      <span style=\"float: left;\"><\/span>\n      <span style=\"float: right;\"><\/span>\n    <\/div>\n  <\/td>\n  <td data-type=\"character\" style=\"vertical-align: top;\">\n    <div class=\"form-group has-feedback\" style=\"margin-bottom: auto;\">\n      <input type=\"search\" placeholder=\"All\" class=\"form-control\" style=\"width: 100%;\"/>\n      <span class=\"glyphicon glyphicon-remove-circle form-control-feedback\"><\/span>\n    <\/div>\n  <\/td>\n  <td data-type=\"number\" style=\"vertical-align: top;\">\n    <div class=\"form-group has-feedback\" style=\"margin-bottom: auto;\">\n      <input type=\"search\" placeholder=\"All\" class=\"form-control\" style=\"width: 100%;\"/>\n      <span class=\"glyphicon glyphicon-remove-circle form-control-feedback\"><\/span>\n    <\/div>\n    <div style=\"display: none;position: absolute;width: 200px;opacity: 1\">\n      <div data-min=\"998.00362944603\" data-max=\"1109.93050575256\" data-scale=\"11\"><\/div>\n      <span style=\"float: left;\"><\/span>\n      <span style=\"float: right;\"><\/span>\n    <\/div>\n  <\/td>\n  <td data-type=\"number\" style=\"vertical-align: top;\">\n    <div class=\"form-group has-feedback\" style=\"margin-bottom: auto;\">\n      <input type=\"search\" placeholder=\"All\" class=\"form-control\" style=\"width: 100%;\"/>\n      <span class=\"glyphicon glyphicon-remove-circle form-control-feedback\"><\/span>\n    <\/div>\n    <div style=\"display: none;position: absolute;width: 200px;opacity: 1\">\n      <div data-min=\"71.540651999414\" data-max=\"101.646781790256\" data-scale=\"13\"><\/div>\n      <span style=\"float: left;\"><\/span>\n      <span style=\"float: right;\"><\/span>\n    <\/div>\n  <\/td>\n  <td data-type=\"number\" style=\"vertical-align: top;\">\n    <div class=\"form-group has-feedback\" style=\"margin-bottom: auto;\">\n      <input type=\"search\" placeholder=\"All\" class=\"form-control\" style=\"width: 100%;\"/>\n      <span class=\"glyphicon glyphicon-remove-circle form-control-feedback\"><\/span>\n    <\/div>\n    <div style=\"display: none;position: absolute;width: 200px;opacity: 1\">\n      <div data-min=\"1130.1264166832\" data-max=\"1481.15866661072\" data-scale=\"11\"><\/div>\n      <span style=\"float: left;\"><\/span>\n      <span style=\"float: right;\"><\/span>\n    <\/div>\n  <\/td>\n  <td data-type=\"number\" style=\"vertical-align: top;\">\n    <div class=\"form-group has-feedback\" style=\"margin-bottom: auto;\">\n      <input type=\"search\" placeholder=\"All\" class=\"form-control\" style=\"width: 100%;\"/>\n      <span class=\"glyphicon glyphicon-remove-circle form-control-feedback\"><\/span>\n    <\/div>\n    <div style=\"display: none;position: absolute;width: 200px;opacity: 1\">\n      <div data-min=\"4041.54525697231\" data-max=\"14951.6969025135\" data-scale=\"11\"><\/div>\n      <span style=\"float: left;\"><\/span>\n      <span style=\"float: right;\"><\/span>\n    <\/div>\n  <\/td>\n  <td data-type=\"number\" style=\"vertical-align: top;\">\n    <div class=\"form-group has-feedback\" style=\"margin-bottom: auto;\">\n      <input type=\"search\" placeholder=\"All\" class=\"form-control\" style=\"width: 100%;\"/>\n      <span class=\"glyphicon glyphicon-remove-circle form-control-feedback\"><\/span>\n    <\/div>\n    <div style=\"display: none;position: absolute;width: 200px;opacity: 1\">\n      <div data-min=\"2755.81129044294\" data-max=\"47830.3222775459\" data-scale=\"11\"><\/div>\n      <span style=\"float: left;\"><\/span>\n      <span style=\"float: right;\"><\/span>\n    <\/div>\n  <\/td>\n  <td data-type=\"integer\" style=\"vertical-align: top;\">\n    <div class=\"form-group has-feedback\" style=\"margin-bottom: auto;\">\n      <input type=\"search\" placeholder=\"All\" class=\"form-control\" style=\"width: 100%;\"/>\n      <span class=\"glyphicon glyphicon-remove-circle form-control-feedback\"><\/span>\n    <\/div>\n    <div style=\"display: none;position: absolute;width: 200px;opacity: 1\">\n      <div data-min=\"700\" data-max=\"780\"><\/div>\n      <span style=\"float: left;\"><\/span>\n      <span style=\"float: right;\"><\/span>\n    <\/div>\n  <\/td>\n  <td data-type=\"number\" style=\"vertical-align: top;\">\n    <div class=\"form-group has-feedback\" style=\"margin-bottom: auto;\">\n      <input type=\"search\" placeholder=\"All\" class=\"form-control\" style=\"width: 100%;\"/>\n      <span class=\"glyphicon glyphicon-remove-circle form-control-feedback\"><\/span>\n    <\/div>\n    <div style=\"display: none;position: absolute;width: 200px;opacity: 1\">\n      <div data-min=\"6.30183017648936\" data-max=\"229.404002441818\" data-scale=\"14\"><\/div>\n      <span style=\"float: left;\"><\/span>\n      <span style=\"float: right;\"><\/span>\n    <\/div>\n  <\/td>\n<\/tr>",
        "extensions": [
          "FixedColumns",
          "Scroller"
        ],
        "container": "<table class=\"display\">\n  <thead>\n    <tr>\n      <th> <\/th>\n      <th>Tu<\/th>\n      <th>rw<\/th>\n      <th>Hu<\/th>\n      <th>Tl<\/th>\n      <th>L<\/th>\n      <th>Kw<\/th>\n      <th>r<\/th>\n      <th>Hl<\/th>\n      <th>Debit<\/th>\n    <\/tr>\n  <\/thead>\n<\/table>",
        "options": {
          "dom": "Brtip",
          "scrollX": true,
          "scroller": true,
          "fixedColumns": true,
          "columnDefs": [
            {
              "className": "dt-right",
              "targets": [
                1,
                3,
                4,
                5,
                6,
                7,
                8,
                9
              ]
            },
            {
              "orderable": false,
              "targets": 0
            }
          ],
          "order": [

          ],
          "autoWidth": false,
          "orderClasses": false,
          "orderCellsTop": true,
          "ajax": {
            "type": "POST",
            "data": "function(d) {\nd.search.caseInsensitive = true;\nd.search.smart = true;\nd.escape = false;\nvar encodeAmp = function(x) { x.value = x.value.replace(/&/g, \"%26\"); }\nencodeAmp(d.search);\n$.each(d.columns, function(i, v) {encodeAmp(v.search);});\n}"
          },
          "serverSide": true,
          "processing": true
        },
        "selection": {
          "mode": "multiple",
          "selected": null,
          "target": "row",
          "selectable": null
        }
      },
      "evals": [
        "options.ajax.data"
      ],
      "jsHooks": [

      ],
      "deps": [
        {
          "name": "jquery",
          "version": "3.6.0",
          "src": {
            "href": "jquery-3.6.0"
          },
          "meta": null,
          "script": "jquery-3.6.0.min.js",
          "stylesheet": null,
          "head": null,
          "attachment": null,
          "all_files": true
        },
        {
          "name": "dt-core",
          "version": "1.13.4",
          "src": {
            "href": "dt-core-1.13.4"
          },
          "meta": null,
          "script": "js/jquery.dataTables.min.js",
          "stylesheet": [
            "css/jquery.dataTables.min.css",
            "css/jquery.dataTables.extra.css"
          ],
          "head": null,
          "attachment": null,
          "package": null,
          "all_files": false
        },
        {
          "name": "dt-ext-fixedcolumns",
          "version": "1.13.4",
          "src": {
            "href": "dt-ext-fixedcolumns-1.13.4"
          },
          "meta": null,
          "script": "js/dataTables.fixedColumns.min.js",
          "stylesheet": "css/fixedColumns.dataTables.min.css",
          "head": null,
          "attachment": null,
          "package": null,
          "all_files": false
        },
        {
          "name": "dt-ext-scroller",
          "version": "1.13.4",
          "src": {
            "href": "dt-ext-scroller-1.13.4"
          },
          "meta": null,
          "script": "js/dataTables.scroller.min.js",
          "stylesheet": "css/scroller.dataTables.min.css",
          "head": null,
          "attachment": null,
          "package": null,
          "all_files": false
        },
        {
          "name": "nouislider",
          "version": "7.0.10",
          "src": {
            "href": "nouislider-7.0.10"
          },
          "meta": null,
          "script": "jquery.nouislider.min.js",
          "stylesheet": "jquery.nouislider.min.css",
          "head": null,
          "attachment": null,
          "package": null,
          "all_files": true
        },
        {
          "name": "selectize",
          "version": "0.12.0",
          "src": {
            "href": "selectize-0.12.0"
          },
          "meta": null,
          "script": "selectize.min.js",
          "stylesheet": "selectize.bootstrap3.css",
          "head": null,
          "attachment": null,
          "package": null,
          "all_files": true
        },
        {
          "name": "crosstalk",
          "version": "1.2.1",
          "src": {
            "href": "crosstalk-1.2.1"
          },
          "meta": null,
          "script": "js/crosstalk.min.js",
          "stylesheet": "css/crosstalk.min.css",
          "head": null,
          "attachment": null,
          "all_files": true
        }
      ]
    },
    "nav-menuImport-importDOE-uploadDOE-import.dynui": {
      "html": "<div class=\"tabbable\">\n  <ul class=\"nav nav-tabs\" data-tabsetid=\"6565\">\n    <li>\n      <a href=\"#tab-6565-1\" data-toggle=\"tab\" data-bs-toggle=\"tab\" data-value=\"nav-menuImport-importDOE-uploadDOE-tabimport\">\n        <h4>Import Data<\/h4>\n      <\/a>\n    <\/li>\n    <li class=\"active\">\n      <a href=\"#tab-6565-2\" data-toggle=\"tab\" data-bs-toggle=\"tab\" data-value=\"nav-menuImport-importDOE-uploadDOE-tabinputs\">\n        <h4>Define Inputs<\/h4>\n      <\/a>\n    <\/li>\n  <\/ul>\n  <div class=\"tab-content\" data-tabsetid=\"6565\">\n    <div class=\"tab-pane\" data-value=\"nav-menuImport-importDOE-uploadDOE-tabimport\" id=\"tab-6565-1\">\n      <br/>\n      <div id=\"nav-menuImport-importDOE-uploadDOE-tabimport.dynui\" class=\"shiny-html-output\"><\/div>\n    <\/div>\n    <div class=\"tab-pane active\" data-value=\"nav-menuImport-importDOE-uploadDOE-tabinputs\" id=\"tab-6565-2\">\n      <br/>\n      <div id=\"nav-menuImport-importDOE-uploadDOE-tabinputs.dynui\" class=\"shiny-html-output\"><\/div>\n      <div class=\"row\">\n        <div class=\"col-sm-4\">\n          <h4>Current Inputs<\/h4>\n        <\/div>\n        <div class=\"col-sm-4\"><\/div>\n        <div class=\"col-sm-4\" icon=\"&lt;i class=&quot;fas fa-download&quot; role=&quot;presentation&quot; aria-label=&quot;download icon&quot;&gt;&lt;/i&gt;\">\n          <a aria-disabled=\"true\" class=\"btn btn-default shiny-download-link disabled btn-primary\" download href=\"\" id=\"nav-menuImport-importDOE-uploadDOE-bounds-download\" tabindex=\"-1\" target=\"_blank\">\n            <i class=\"fas fa-download\" role=\"presentation\" aria-label=\"download icon\"><\/i>\n            Export Inputs\n          <\/a>\n        <\/div>\n      <\/div>\n      <div class=\"datatables html-widget html-widget-output shiny-report-size html-fill-item\" id=\"nav-menuImport-importDOE-uploadDOE-bounds-preview\" style=\"width:100%;height:auto;\"><\/div>\n    <\/div>\n  <\/div>\n<\/div>\n<br/>\n<hr/>\n<div class=\"row\">\n  <div class=\"col-sm-4\"><\/div>\n  <div class=\"col-sm-4\">\n    <button class=\"btn btn-default action-button btn-secondary\" id=\"nav-menuImport-importDOE-uploadDOE-close\" style=\"width:100%;\" type=\"button\">Dismiss<\/button>\n  <\/div>\n  <div class=\"col-sm-4\"><\/div>\n<\/div>\n<div class=\"modal sbs-modal fade\" id=\"nav-menuImport-importDOE-uploadDOE-modalduplicate\" tabindex=\"-1\">\n  <div class=\"modal-dialog modal-lg\">\n    <div class=\"modal-content\">\n      <div class=\"modal-header\">\n        <button type=\"button\" class=\"close\" data-dismiss=\"modal\">\n          <span>&times;<\/span>\n        <\/button>\n        <h4 class=\"modal-title\">Information<\/h4>\n      <\/div>\n      <div class=\"modal-body\">\n        <div id=\"nav-menuImport-importDOE-uploadDOE-alertduplicate\" class=\"shiny-html-output\"><\/div>\n      <\/div>\n      <div class=\"modal-footer\">\n        <button type=\"button\" class=\"btn btn-default\" data-dismiss=\"modal\">Close<\/button>\n      <\/div>\n    <\/div>\n  <\/div>\n<\/div>\n<div class=\"modal sbs-modal fade\" id=\"nav-menuImport-importDOE-uploadDOE-modalDuplicateColnames\" tabindex=\"-1\">\n  <div class=\"modal-dialog modal-lg\">\n    <div class=\"modal-content\">\n      <div class=\"modal-header\">\n        <button type=\"button\" class=\"close\" data-dismiss=\"modal\">\n          <span>&times;<\/span>\n        <\/button>\n        <h4 class=\"modal-title\">\n          <h3>Error!<\/h3>\n        <\/h4>\n      <\/div>\n      <div class=\"modal-body\">\n        <div id=\"nav-menuImport-importDOE-uploadDOE-alertDuplicateColnames\" class=\"shiny-html-output\"><\/div>\n      <\/div>\n      <div class=\"modal-footer\">\n        <button type=\"button\" class=\"btn btn-default\" data-dismiss=\"modal\">Close<\/button>\n      <\/div>\n    <\/div>\n  <\/div>\n<\/div>\n<div class=\"modal sbs-modal fade\" id=\"nav-menuImport-importDOE-uploadDOE-modalNAcolumns\" tabindex=\"-1\">\n  <div class=\"modal-dialog modal-lg\">\n    <div class=\"modal-content\">\n      <div class=\"modal-header\">\n        <button type=\"button\" class=\"close\" data-dismiss=\"modal\">\n          <span>&times;<\/span>\n        <\/button>\n        <h4 class=\"modal-title\">\n          <h3>Error!<\/h3>\n        <\/h4>\n      <\/div>\n      <div class=\"modal-body\">\n        <div id=\"nav-menuImport-importDOE-uploadDOE-alertNAcolumns\" class=\"shiny-html-output\"><\/div>\n      <\/div>\n      <div class=\"modal-footer\">\n        <button type=\"button\" class=\"btn btn-default\" data-dismiss=\"modal\">Close<\/button>\n      <\/div>\n    <\/div>\n  <\/div>\n<\/div>\n<div class=\"modal sbs-modal fade\" id=\"nav-menuImport-importDOE-uploadDOE-modalBlockNA\" tabindex=\"-1\">\n  <div class=\"modal-dialog modal-lg\">\n    <div class=\"modal-content\">\n      <div class=\"modal-header\">\n        <button type=\"button\" class=\"close\" data-dismiss=\"modal\">\n          <span>&times;<\/span>\n        <\/button>\n        <h4 class=\"modal-title\">\n          <h3>Error!<\/h3>\n        <\/h4>\n      <\/div>\n      <div class=\"modal-body\">\n        <div id=\"nav-menuImport-importDOE-uploadDOE-alertBlockNA\" class=\"shiny-html-output\"><\/div>\n      <\/div>\n      <div class=\"modal-footer\">\n        <button type=\"button\" class=\"btn btn-default\" data-dismiss=\"modal\">Close<\/button>\n      <\/div>\n    <\/div>\n  <\/div>\n<\/div>\n<div class=\"modal sbs-modal fade\" id=\"nav-menuImport-importDOE-uploadDOE-modalFusedDOE\" tabindex=\"-1\">\n  <div class=\"modal-dialog modal-lg\">\n    <div class=\"modal-content\">\n      <div class=\"modal-header\">\n        <button type=\"button\" class=\"close\" data-dismiss=\"modal\">\n          <span>&times;<\/span>\n        <\/button>\n        <h4 class=\"modal-title\">\n          <h3>Warning!<\/h3>\n        <\/h4>\n      <\/div>\n      <div class=\"modal-body\">\n        <div id=\"nav-menuImport-importDOE-uploadDOE-alertFusedDOE\" class=\"shiny-html-output\"><\/div>\n      <\/div>\n      <div class=\"modal-footer\">\n        <button type=\"button\" class=\"btn btn-default\" data-dismiss=\"modal\">Close<\/button>\n      <\/div>\n    <\/div>\n  <\/div>\n<\/div>",
      "deps": [
        {
          "name": "font-awesome",
          "version": "6.4.2",
          "src": {
            "href": "font-awesome-6.4.2"
          },
          "meta": null,
          "script": null,
          "stylesheet": [
            "css/all.min.css",
            "css/v4-shims.min.css"
          ],
          "head": null,
          "attachment": null,
          "all_files": true
        },
        {
          "name": "htmltools-fill",
          "version": "0.5.8.1",
          "src": {
            "href": "htmltools-fill-0.5.8.1"
          },
          "meta": null,
          "script": null,
          "stylesheet": "fill.css",
          "head": null,
          "attachment": null,
          "all_files": true
        },
        {
          "name": "htmlwidgets",
          "version": "1.6.4",
          "src": {
            "href": "htmlwidgets-1.6.4"
          },
          "meta": null,
          "script": "htmlwidgets.js",
          "stylesheet": null,
          "head": null,
          "attachment": null,
          "all_files": true
        },
        {
          "name": "datatables-css",
          "version": "0.0.0",
          "src": {
            "href": "datatables-css-0.0.0"
          },
          "meta": null,
          "script": null,
          "stylesheet": "datatables-crosstalk.css",
          "head": null,
          "attachment": null,
          "all_files": true
        },
        {
          "name": "datatables-binding",
          "version": "0.30",
          "src": {
            "href": "datatables-binding-0.30"
          },
          "meta": null,
          "script": "datatables.js",
          "stylesheet": null,
          "head": null,
          "attachment": null,
          "all_files": false
        },
        {
          "name": "jquery",
          "version": "3.5.1",
          "src": {
            "href": "jquery-3.5.1"
          },
          "meta": null,
          "script": "jquery.min.js",
          "stylesheet": null,
          "head": null,
          "attachment": null,
          "all_files": true
        },
        {
          "name": "crosstalk",
          "version": "1.2.1",
          "src": {
            "href": "crosstalk-1.2.1"
          },
          "meta": null,
          "script": "js/crosstalk.min.js",
          "stylesheet": "css/crosstalk.min.css",
          "head": null,
          "attachment": null,
          "all_files": true
        },
        {
          "name": "shinyBS",
          "version": "0.61.1",
          "src": {
            "href": "sbs"
          },
          "meta": null,
          "script": "shinyBS.js",
          "stylesheet": "shinyBS.css",
          "head": null,
          "attachment": null,
          "package": null,
          "all_files": true
        }
      ]
    },
    "nav-menuImport-importDOE-uploadDOE-preview.dynui": {
      "html": "<div class=\"row\">\n  <div class=\"col-sm-6\">\n    <h4>File Data Preview: Observations = 100, Variables = 9<\/h4>\n  <\/div>\n  <div class=\"col-sm-6\">\n    <div class=\"row\">\n      <div class=\"col-sm-6 offset-md-6 col-sm-offset-6\">\n        <button class=\"btn btn-default action-button btn-primary\" id=\"nav-menuImport-importDOE-uploadDOE-change.names-change\" type=\"button\">Check Variables Names<\/button>\n      <\/div>\n    <\/div>\n    <div class=\"modal sbs-modal fade\" id=\"nav-menuImport-importDOE-uploadDOE-change.names-modal\" tabindex=\"-1\">\n      <div class=\"modal-dialog modal-lg\">\n        <div class=\"modal-content\">\n          <div class=\"modal-header\">\n            <button type=\"button\" class=\"close\" data-dismiss=\"modal\">\n              <span>&times;<\/span>\n            <\/button>\n            <h4 class=\"modal-title\">Check Variables Names<\/h4>\n          <\/div>\n          <div class=\"modal-body\">\n            <div class=\"row\">\n              <div class=\"col-sm-3\"><\/div>\n              <div class=\"col-sm-6\">\n                <div id=\"nav-menuImport-importDOE-uploadDOE-change.names-change.names.ui\" class=\"shiny-html-output\"><\/div>\n              <\/div>\n              <div class=\"col-sm-3\"><\/div>\n            <\/div>\n          <\/div>\n          <div class=\"modal-footer\">\n            <button type=\"button\" class=\"btn btn-default\" data-dismiss=\"modal\">Close<\/button>\n          <\/div>\n        <\/div>\n      <\/div>\n    <\/div>\n  <\/div>\n<\/div>\n<div class=\"datatables html-widget html-widget-output shiny-report-size html-fill-item\" id=\"nav-menuImport-importDOE-uploadDOE-headerdf\" style=\"width:100%;height:auto;\"><\/div>\n<br/>\n<hr/>",
      "deps": [
        {
          "name": "shinyBS",
          "version": "0.61.1",
          "src": {
            "href": "sbs"
          },
          "meta": null,
          "script": "shinyBS.js",
          "stylesheet": "shinyBS.css",
          "head": null,
          "attachment": null,
          "package": null,
          "all_files": true
        },
        {
          "name": "htmltools-fill",
          "version": "0.5.8.1",
          "src": {
            "href": "htmltools-fill-0.5.8.1"
          },
          "meta": null,
          "script": null,
          "stylesheet": "fill.css",
          "head": null,
          "attachment": null,
          "all_files": true
        },
        {
          "name": "htmlwidgets",
          "version": "1.6.4",
          "src": {
            "href": "htmlwidgets-1.6.4"
          },
          "meta": null,
          "script": "htmlwidgets.js",
          "stylesheet": null,
          "head": null,
          "attachment": null,
          "all_files": true
        },
        {
          "name": "datatables-css",
          "version": "0.0.0",
          "src": {
            "href": "datatables-css-0.0.0"
          },
          "meta": null,
          "script": null,
          "stylesheet": "datatables-crosstalk.css",
          "head": null,
          "attachment": null,
          "all_files": true
        },
        {
          "name": "datatables-binding",
          "version": "0.30",
          "src": {
            "href": "datatables-binding-0.30"
          },
          "meta": null,
          "script": "datatables.js",
          "stylesheet": null,
          "head": null,
          "attachment": null,
          "all_files": false
        },
        {
          "name": "jquery",
          "version": "3.5.1",
          "src": {
            "href": "jquery-3.5.1"
          },
          "meta": null,
          "script": "jquery.min.js",
          "stylesheet": null,
          "head": null,
          "attachment": null,
          "all_files": true
        },
        {
          "name": "crosstalk",
          "version": "1.2.1",
          "src": {
            "href": "crosstalk-1.2.1"
          },
          "meta": null,
          "script": "js/crosstalk.min.js",
          "stylesheet": "css/crosstalk.min.css",
          "head": null,
          "attachment": null,
          "all_files": true
        }
      ]
    },
    "nav-menuImport-importDOE-uploadDOE-sepdec.dynui": {
      "message": "",
      "call": "NULL",
      "type": [
        "shiny.silent.error",
        "validation"
      ]
    },
    "nav-menuImport-importDOE-uploadDOE-tabimport.dynui": {
      "html": "<div id=\"nav-menuImport-importDOE-uploadDOE-upload.dynui\" class=\"shiny-html-output\"><\/div>\n<div id=\"nav-menuImport-importDOE-uploadDOE-sepdec.dynui\" class=\"shiny-html-output\"><\/div>\n<div id=\"nav-menuImport-importDOE-uploadDOE-preview.dynui\" class=\"shiny-html-output\"><\/div>",
      "deps": [

      ]
    },
    "nav-menuImport-importDOE-uploadDOE-tabinputs.dynui": {
      "html": "<div class=\"row\">\n  <div class=\"col-sm-2\">\n    <div class=\"form-group shiny-input-container\">\n      <label class=\"control-label\" id=\"nav-menuImport-importDOE-uploadDOE-nX-label\" for=\"nav-menuImport-importDOE-uploadDOE-nX\">Number of Inputs<\/label>\n      <input id=\"nav-menuImport-importDOE-uploadDOE-nX\" type=\"number\" class=\"shiny-input-number form-control\" value=\"1\" min=\"1\"/>\n    <\/div>\n  <\/div>\n  <div class=\"col-sm-2\">\n    <div class=\"form-group shiny-input-container\">\n      <input id=\"nav-menuImport-importDOE-uploadDOE-nobs.firstcol\" type=\"checkbox\" class=\"sw-switchInput\" data-input-id=\"nav-menuImport-importDOE-uploadDOE-nobs.firstcol\" data-on-text=\"ON\" data-off-text=\"OFF\" data-label-text=\"1stCol = ObsNb\" data-label-width=\"auto\" data-handle-width=\"auto\" data-size=\"mini\"/>\n    <\/div>\n  <\/div>\n  <div class=\"col-sm-2\" align=\"center\">\n    <button class=\"btn btn-default action-button btn-primary\" id=\"nav-menuImport-importDOE-uploadDOE-bounds-change\" type=\"button\">Change Input Settings<\/button>\n    <div class=\"modal sbs-modal fade\" id=\"nav-menuImport-importDOE-uploadDOE-bounds-modal\" tabindex=\"-1\">\n      <div class=\"modal-dialog modal-lg\">\n        <div class=\"modal-content\">\n          <div class=\"modal-header\">\n            <button type=\"button\" class=\"close\" data-dismiss=\"modal\">\n              <span>&times;<\/span>\n            <\/button>\n            <h4 class=\"modal-title\">Change Inputs<\/h4>\n          <\/div>\n          <div class=\"modal-body\">\n            <div class=\"row\">\n              <div class=\"col-sm-4\">\n                <h4>Import Inputs<\/h4>\n              <\/div>\n            <\/div>\n            <div class=\"row\">\n              <div class=\"col-sm-2\">\n                <div id=\"nav-menuImport-importDOE-uploadDOE-bounds-separator\" class=\"form-group shiny-input-radiogroup shiny-input-container\" role=\"radiogroup\" aria-labelledby=\"nav-menuImport-importDOE-uploadDOE-bounds-separator-label\">\n                  <label class=\"control-label\" id=\"nav-menuImport-importDOE-uploadDOE-bounds-separator-label\" for=\"nav-menuImport-importDOE-uploadDOE-bounds-separator\">Separator<\/label>\n                  <div class=\"shiny-options-group\">\n                    <div class=\"radio\">\n                      <label>\n                        <input type=\"radio\" name=\"nav-menuImport-importDOE-uploadDOE-bounds-separator\" value=\",\" checked=\"checked\"/>\n                        <span>, (comma)<\/span>\n                      <\/label>\n                    <\/div>\n                    <div class=\"radio\">\n                      <label>\n                        <input type=\"radio\" name=\"nav-menuImport-importDOE-uploadDOE-bounds-separator\" value=\";\"/>\n                        <span>; (semi-colon)<\/span>\n                      <\/label>\n                    <\/div>\n                    <div class=\"radio\">\n                      <label>\n                        <input type=\"radio\" name=\"nav-menuImport-importDOE-uploadDOE-bounds-separator\" value=\"\t\"/>\n                        <span>Tab<\/span>\n                      <\/label>\n                    <\/div>\n                  <\/div>\n                <\/div>\n              <\/div>\n              <div class=\"col-sm-2\">\n                <div id=\"nav-menuImport-importDOE-uploadDOE-bounds-decimal\" class=\"form-group shiny-input-radiogroup shiny-input-container\" role=\"radiogroup\" aria-labelledby=\"nav-menuImport-importDOE-uploadDOE-bounds-decimal-label\">\n                  <label class=\"control-label\" id=\"nav-menuImport-importDOE-uploadDOE-bounds-decimal-label\" for=\"nav-menuImport-importDOE-uploadDOE-bounds-decimal\">Decimal<\/label>\n                  <div class=\"shiny-options-group\">\n                    <div class=\"radio\">\n                      <label>\n                        <input type=\"radio\" name=\"nav-menuImport-importDOE-uploadDOE-bounds-decimal\" value=\".\" checked=\"checked\"/>\n                        <span>. (point)<\/span>\n                      <\/label>\n                    <\/div>\n                    <div class=\"radio\">\n                      <label>\n                        <input type=\"radio\" name=\"nav-menuImport-importDOE-uploadDOE-bounds-decimal\" value=\",\"/>\n                        <span>, (comma)<\/span>\n                      <\/label>\n                    <\/div>\n                  <\/div>\n                <\/div>\n              <\/div>\n              <div class=\"col-sm-7\">\n                <div class=\"form-group shiny-input-container\">\n                  <label class=\"control-label\" id=\"nav-menuImport-importDOE-uploadDOE-bounds-file-label\" for=\"nav-menuImport-importDOE-uploadDOE-bounds-file\">Select file<\/label>\n                  <div class=\"input-group\">\n                    <label class=\"input-group-btn input-group-prepend\">\n                      <span class=\"btn btn-default btn-file\">\n                        Browse...\n                        <input id=\"nav-menuImport-importDOE-uploadDOE-bounds-file\" class=\"shiny-input-file\" name=\"nav-menuImport-importDOE-uploadDOE-bounds-file\" type=\"file\" style=\"position: absolute !important; top: -99999px !important; left: -99999px !important;\" accept=\".txt,.dat,.csv\"/>\n                      <\/span>\n                    <\/label>\n                    <input type=\"text\" class=\"form-control\" placeholder=\"No file selected\" readonly=\"readonly\"/>\n                  <\/div>\n                  <div id=\"nav-menuImport-importDOE-uploadDOE-bounds-file_progress\" class=\"progress active shiny-file-input-progress\">\n                    <div class=\"progress-bar\"><\/div>\n                  <\/div>\n                <\/div>\n                <script>$( \"#nav-menuImport-importDOE-uploadDOE-bounds-file\" ).on( \"click\", function() { this.value = null; });<\/script>\n                <div id=\"nav-menuImport-importDOE-uploadDOE-bounds-warning.file\" class=\"shiny-html-output\"><\/div>\n              <\/div>\n            <\/div>\n            <hr/>\n            <div class=\"row\">\n              <div class=\"col-sm-4\">\n                <h4>\n                  Manually Change Inputs\n                  <div class=\"small\">(please save)<\/div>\n                <\/h4>\n              <\/div>\n              <div class=\"col-sm-4\">\n                <button class=\"btn btn-default action-button btn-primary\" id=\"nav-menuImport-importDOE-uploadDOE-bounds-reset\" type=\"button\">\n                  <i class=\"fas fa-arrows-rotate\" role=\"presentation\" aria-label=\"arrows-rotate icon\"><\/i>\n                  Reset\n                <\/button>\n              <\/div>\n            <\/div>\n            <div id=\"nav-menuImport-importDOE-uploadDOE-bounds-rangeInputs\" class=\"shiny-html-output\"><\/div>\n            <hr/>\n            <div id=\"nav-menuImport-importDOE-uploadDOE-bounds-footer\" class=\"shiny-html-output\"><\/div>\n            <head>\n              <style>#nav-menuImport-importDOE-uploadDOE-bounds-modal .modal-footer{display:none} .modal-lg{width: 70%}<\/style>\n            <\/head>\n          <\/div>\n          <div class=\"modal-footer\">\n            <button type=\"button\" class=\"btn btn-default\" data-dismiss=\"modal\">Close<\/button>\n          <\/div>\n        <\/div>\n      <\/div>\n    <\/div>\n    <h5>Here you can change the inputs types, as well as their bounds (if numerical) and their levels (if categorical).<\/h5>\n  <\/div>\n  <div class=\"col-sm-4\"><\/div>\n  <div class=\"col-sm-1\" align=\"right\">\n    <button class=\"btn btn-default action-button btn-warning\" id=\"nav-menuImport-importDOE-uploadDOE-inputsdismiss\" type=\"button\">\n      <i class=\"fas fa-backward-step\" role=\"presentation\" aria-label=\"backward-step icon\"><\/i>\n      Dismiss<br>Inputs\n    <\/button>\n  <\/div>\n  <div class=\"col-sm-1\" align=\"right\">\n    <button class=\"btn btn-default action-button btn-primary\" id=\"nav-menuImport-importDOE-uploadDOE-inputsconfirm\" type=\"button\">\n      <i class=\"fas fa-forward-step\" role=\"presentation\" aria-label=\"forward-step icon\"><\/i>\n      Confirm<br>Inputs\n    <\/button>\n  <\/div>\n<\/div>\n<hr/>",
      "deps": [
        {
          "name": "shinyWidgets",
          "version": "0.8.7",
          "src": {
            "href": "shinyWidgets"
          },
          "meta": null,
          "script": "shinyWidgets-bindings.min.js",
          "stylesheet": "shinyWidgets.min.css",
          "head": null,
          "attachment": null,
          "all_files": false
        },
        {
          "name": "bootstrap-switch-css",
          "version": "3.3.4",
          "src": {
            "href": "shinyWidgets/bootstrap-switch"
          },
          "meta": null,
          "script": "bootstrap-switch-3.3.4/bootstrap-switch.min.js",
          "stylesheet": "bootstrap-switch-3.4/bootstrap-switch.min.css",
          "head": null,
          "attachment": null,
          "all_files": true
        },
        {
          "name": "bootstrap-switch-js",
          "version": "3.3.4",
          "src": {
            "href": "shinyWidgets/bootstrap-switch"
          },
          "meta": null,
          "script": "bootstrap-switch-3.3.4/bootstrap-switch.min.js",
          "stylesheet": null,
          "head": null,
          "attachment": null,
          "all_files": true
        },
        {
          "name": "font-awesome",
          "version": "6.4.2",
          "src": {
            "href": "font-awesome-6.4.2"
          },
          "meta": null,
          "script": null,
          "stylesheet": [
            "css/all.min.css",
            "css/v4-shims.min.css"
          ],
          "head": null,
          "attachment": null,
          "all_files": true
        },
        {
          "name": "shinyBS",
          "version": "0.61.1",
          "src": {
            "href": "sbs"
          },
          "meta": null,
          "script": "shinyBS.js",
          "stylesheet": "shinyBS.css",
          "head": null,
          "attachment": null,
          "package": null,
          "all_files": true
        }
      ]
    },
    "nav-menuImport-importDOE-uploadDOE-upload.dynui": {
      "message": "",
      "call": "NULL",
      "type": [
        "shiny.silent.error",
        "validation"
      ]
    },
    "nav-menuImport-importDOE-upload_file_bool": true,
    "nav-menuOptimize-constrained-constrainedDefine-conditionalChangeButton": false,
    "nav-menuOptimize-constrained-constrainedDefine-conditionalOptimTypes": false,
    "nav-menuOptimize-constrained-constrainedSolve-use_simulator": false,
    "nav-menuOptimize-sequential-sequentialDefine-conditionalChangeButton": false,
    "nav-menuOptimize-sequential-sequentialDefine-conditionalOptimTypes": false,
    "nav-menuOptimize-unconstrained-use_simulator": false,
    "nav-prelimexploDOEtab.clicked": false,
    "nav-surrogate-refinesurrogate-conditionalRefine": {
      "message": "",
      "call": "NULL",
      "type": [
        "shiny.silent.error",
        "validation"
      ]
    },
    "nav-surrogate-refinesurrogate-use_simulator": false,
    "nav-surrogateDOEtab.clicked": false
  },
  "export": {

  }
}
